{
    "_id": "bJUlb2DxT1xyaYAp",
    "data": {
        "abilities": {
            "cha": {
                "mod": -5
            },
            "con": {
                "mod": 3
            },
            "dex": {
                "mod": 4
            },
            "int": {
                "mod": -5
            },
            "str": {
                "mod": 6
            },
            "wis": {
                "mod": 0
            }
        },
        "attributes": {
            "ac": {
                "details": "",
                "value": 27
            },
            "allSaves": {
                "value": ""
            },
            "hp": {
                "details": "",
                "max": 150,
                "temp": 0,
                "value": 150
            },
            "initiative": {
                "ability": "perception"
            },
            "perception": {
                "value": 15
            },
            "shield": {
                "ac": 0,
                "brokenThreshold": "0",
                "hardness": 0,
                "max": "0",
                "value": 0
            },
            "speed": {
                "otherSpeeds": [],
                "value": "25"
            }
        },
        "details": {
            "alignment": {
                "value": "N"
            },
            "creatureType": "Construct",
            "flavorText": "<p>This golem is a walking alchemical nightmare capable of inflicting all manner of painful wounds. Its ability to follow orders is granted by the otherwise mindless humanoid brain that floats in its dome-like head. In exceptionally rare cases, the brain used in its creation might retain fragments of memories or even actual intellect, resulting in an alchemical golem with a personality and agenda of its own.</p>",
            "level": {
                "value": 9
            },
            "source": {
                "value": "Pathfinder #153: Life's Long Shadows"
            }
        },
        "resources": {},
        "saves": {
            "fortitude": {
                "saveDetail": "",
                "value": 20
            },
            "reflex": {
                "saveDetail": "",
                "value": 19
            },
            "will": {
                "saveDetail": "",
                "value": 15
            }
        },
        "traits": {
            "ci": [],
            "di": {
                "custom": "",
                "value": [
                    "acid",
                    "bleed",
                    "death-effects",
                    "disease",
                    "doomed",
                    "drained",
                    "fatigued",
                    "healing",
                    "magic",
                    "mental",
                    "necromancy",
                    "nonlethal-attacks",
                    "paralyzed",
                    "poison",
                    "sickened",
                    "unconscious"
                ]
            },
            "dr": [
                {
                    "exceptions": "adamantine or bludgeoning",
                    "label": "Physical",
                    "type": "physical",
                    "value": "12"
                }
            ],
            "dv": [],
            "languages": {
                "custom": "",
                "selected": [],
                "value": []
            },
            "rarity": {
                "value": "uncommon"
            },
            "senses": {
                "value": "darkvision"
            },
            "size": {
                "value": "lg"
            },
            "traits": {
                "custom": "",
                "value": [
                    "alchemical",
                    "construct",
                    "golem",
                    "mindless"
                ]
            }
        }
    },
    "effects": [],
    "flags": {},
    "img": "systems/pf2e/icons/default-icons/npc.svg",
    "items": [
        {
            "_id": "deSS0MPuciBz6LLK",
            "data": {
                "attack": {
                    "value": ""
                },
                "attackEffects": {
                    "value": [
                        "alchemical injection"
                    ]
                },
                "bonus": {
                    "value": 22
                },
                "damageRolls": {
                    "0": {
                        "damage": "2d10+6",
                        "damageType": "piercing"
                    }
                },
                "description": {
                    "value": ""
                },
                "rules": [],
                "slug": null,
                "source": {
                    "value": ""
                },
                "traits": {
                    "custom": "",
                    "rarity": {
                        "value": "common"
                    },
                    "selected": {
                        "magical": "Magical"
                    },
                    "value": [
                        "magical",
                        "reach-10"
                    ]
                },
                "weaponType": {
                    "value": "melee"
                }
            },
            "effects": [],
            "flags": {},
            "img": "systems/pf2e/icons/default-icons/melee.svg",
            "name": "Syringe",
            "sort": 100000,
            "type": "melee"
        },
        {
            "_id": "Yo23Art466hO6dEO",
            "data": {
                "attack": {
                    "value": ""
                },
                "attackEffects": {
                    "value": [
                        "Generate Bomb"
                    ]
                },
                "bonus": {
                    "value": 20
                },
                "damageRolls": {},
                "description": {
                    "value": ""
                },
                "rules": [],
                "slug": null,
                "source": {
                    "value": ""
                },
                "traits": {
                    "custom": "",
                    "rarity": {
                        "value": "common"
                    },
                    "selected": {
                        "magical": "Magical"
                    },
                    "value": [
                        "magical",
                        "thrown-20"
                    ]
                },
                "weaponType": {
                    "value": "ranged"
                }
            },
            "effects": [],
            "flags": {},
            "img": "systems/pf2e/icons/default-icons/melee.svg",
            "name": "Bomb",
            "sort": 200000,
            "type": "melee"
        },
        {
            "_id": "MyPNYt7AI7qWY6wW",
            "data": {
                "actionCategory": {
                    "value": "defensive"
                },
                "actionType": {
                    "value": "passive"
                },
                "actions": {
                    "value": null
                },
                "description": {
                    "value": "<p>An alchemical golem's body contains six alchemical chambers filled with different substances. When an alchemical golem ability calls upon a randomly determined alchemical effect, roll [[/r 1d6]] and consult the following (if you roll the result of a chamber that was shattered, there is no alchemical effect): <strong>1</strong> acid damage; <strong>2</strong> cold damage; <strong>3</strong> electricity damage; <strong>4</strong> fire damage; <strong>5</strong> poison damage; <strong>6</strong> sickness: <span data-pf2-check=\"fortitude\" data-pf2-dc=\"26\" data-pf2-label=\"Alchemical Chambers DC\" data-pf2-show-dc=\"gm\">Fortitude</span> save or @Compendium[pf2e.conditionitems.Sickened]{Sickened 1} (@Compendium[pf2e.conditionitems.Sickened]{Sickened 2} on a critical failure)</p>"
                },
                "requirements": {
                    "value": ""
                },
                "rules": [],
                "slug": null,
                "source": {
                    "value": ""
                },
                "traits": {
                    "custom": "",
                    "rarity": {
                        "value": "common"
                    },
                    "selected": {},
                    "value": []
                },
                "trigger": {
                    "value": ""
                },
                "weapon": {
                    "value": ""
                }
            },
            "effects": [],
            "flags": {},
            "img": "systems/pf2e/icons/default-icons/action.svg",
            "name": "Alchemical Chambers",
            "sort": 300000,
            "type": "action"
        },
        {
            "_id": "N0g5xdIF3LC3JDxP",
            "data": {
                "actionCategory": {
                    "value": "defensive"
                },
                "actionType": {
                    "value": "passive"
                },
                "actions": {
                    "value": null
                },
                "description": {
                    "value": "<p>When an alchemical golem takes physical damage from a critical hit or is affected by a shatter spell, one glass chamber within its body shatters, spewing alchemical liquid in a 5-foot emanation. Roll on the alchemical chambers list (see above) to determine which one shatters-on a roll of 1-5, creatures in the area take [[/r 10d6 #damage]]{10d6 damage} of the appropriate type (<span data-pf2-check=\"reflex\" data-pf2-dc=\"28\" data-pf2-traits=\"damaging-effect\" data-pf2-label=\"Alchemical Rupture DC\" data-pf2-show-dc=\"gm\">basic Reflex</span>). On a roll of 6, creatures must instead save against the @Compendium[pf2e.conditionitems.Sickened]{Sickness} effect.</p>"
                },
                "requirements": {
                    "value": ""
                },
                "rules": [],
                "slug": null,
                "source": {
                    "value": ""
                },
                "traits": {
                    "custom": "",
                    "rarity": {
                        "value": "common"
                    },
                    "selected": {},
                    "value": []
                },
                "trigger": {
                    "value": ""
                },
                "weapon": {
                    "value": ""
                }
            },
            "effects": [],
            "flags": {},
            "img": "systems/pf2e/icons/default-icons/action.svg",
            "name": "Alchemical Rupture",
            "sort": 400000,
            "type": "action"
        },
        {
            "_id": "j2hIRiY8Zn7Egfco",
            "data": {
                "actionCategory": {
                    "value": "defensive"
                },
                "actionType": {
                    "value": "passive"
                },
                "actions": {
                    "value": null
                },
                "description": {
                    "value": "<p>Harmed by sonic (5d8, [[/r 2d6 #from areas or persistent damage]] from areas or persistent damage); Healed by acid (area 2d4 HP); slowed by cold</p>\n<hr />\n<p>A golem is immune to spells and magical abilities other than its own, but each type of golem is affected by a few types of magic in special ways. These exceptions are listed in shortened form in the golem's stat block, with the full rules appearing here. If an entry lists multiple types (such as \"cold and water\"), either type of spell can affect the golem. <strong>Harmed By</strong> Any magic of this type that targets the golem causes it to take the listed amount of damage (this damage has no type) instead of the usual effect. If the golem starts its turn in an area of magic of this type or is affected by a persistent effect of the appropriate type, it takes the damage listed in the parenthetical. <strong>Healed By</strong> Any magic of this type that targets the golem makes the golem lose the slowed condition and gain HP equal to half the damage the spell would have dealt. If the golem starts its turn in an area of this type of magic, it gains the HP listed in the parenthetical. <strong>Slowed By</strong> Any magic of this type that targets the golem causes it to be slowed 1 for [[/br 2d6 #rounds]]{2d6 rounds} instead of the usual effect. If the golem starts its turn in an area of this type of magic, it's slowed 1 for that round. <strong>Vulnerable To</strong> Each golem is vulnerable to one or more specific spells, with the effects described in its stat block.</p>"
                },
                "requirements": {
                    "value": ""
                },
                "rules": [],
                "slug": null,
                "source": {
                    "value": ""
                },
                "traits": {
                    "custom": "",
                    "rarity": {
                        "value": "common"
                    },
                    "selected": {},
                    "value": []
                },
                "trigger": {
                    "value": ""
                },
                "weapon": {
                    "value": ""
                }
            },
            "effects": [],
            "flags": {},
            "img": "systems/pf2e/icons/default-icons/action.svg",
            "name": "Golem Antimagic",
            "sort": 500000,
            "type": "action"
        },
        {
            "_id": "RAzDul5aLDAcZI57",
            "data": {
                "actionCategory": {
                    "value": "defensive"
                },
                "actionType": {
                    "value": "passive"
                },
                "actions": {
                    "value": null
                },
                "description": {
                    "value": "<p>Casting a shatter spell on an alchemical golem affects the golem normally, but also causes an alchemical rupture (see above).</p>"
                },
                "requirements": {
                    "value": ""
                },
                "rules": [],
                "slug": null,
                "source": {
                    "value": ""
                },
                "traits": {
                    "custom": "",
                    "rarity": {
                        "value": "common"
                    },
                    "value": []
                },
                "trigger": {
                    "value": ""
                },
                "weapon": {
                    "value": ""
                }
            },
            "effects": [],
            "flags": {},
            "img": "systems/pf2e/icons/actions/Passive.webp",
            "name": "Vulnerable to Shatter",
            "sort": 600000,
            "type": "action"
        },
        {
            "_id": "6Ww4Qkldv49LbeZh",
            "data": {
                "actionCategory": {
                    "value": "defensive"
                },
                "actionType": {
                    "value": "passive"
                },
                "actions": {
                    "value": null
                },
                "description": {
                    "value": "<p>Crafted in areas where glass is rare, the Darklands alchemical golem instead incorporates crystalline components. The golem's vulnerable to shatter ability functions only for @Compendium[pf2e.spells-srd.Shatter]{Shatter} spells of at least 4th level.</p>"
                },
                "requirements": {
                    "value": ""
                },
                "rules": [],
                "slug": null,
                "source": {
                    "value": ""
                },
                "traits": {
                    "custom": "",
                    "rarity": {
                        "value": "common"
                    },
                    "selected": {},
                    "value": []
                },
                "trigger": {
                    "value": ""
                },
                "weapon": {
                    "value": ""
                }
            },
            "effects": [],
            "flags": {},
            "img": "systems/pf2e/icons/default-icons/action.svg",
            "name": "Crystalline Construction",
            "sort": 700000,
            "type": "action"
        },
        {
            "_id": "RmnzUOOeZZH9SVi3",
            "data": {
                "actionCategory": {
                    "value": "offensive"
                },
                "actionType": {
                    "value": "passive"
                },
                "actions": {
                    "value": null
                },
                "description": {
                    "value": "<p>When an alchemical golem hits a creature with a syringe Strike, roll [[/r 1d6]] on the alchemical chambers list to determine the additional effect of the attack. The syringe deals an additional [[/r 2d6]] damage of the appropriate type (or exposes the target to the @Compendium[pf2e.conditionitems.Sickened]{Sickeness} effect, as appropriate).</p>"
                },
                "requirements": {
                    "value": ""
                },
                "rules": [],
                "slug": null,
                "source": {
                    "value": ""
                },
                "traits": {
                    "custom": "",
                    "rarity": {
                        "value": "common"
                    },
                    "selected": {},
                    "value": []
                },
                "trigger": {
                    "value": ""
                },
                "weapon": {
                    "value": ""
                }
            },
            "effects": [],
            "flags": {},
            "img": "systems/pf2e/icons/default-icons/action.svg",
            "name": "Alchemical Injection",
            "sort": 800000,
            "type": "action"
        },
        {
            "_id": "hhgKxBXjAKv8GaOe",
            "data": {
                "actionCategory": {
                    "value": "offensive"
                },
                "actionType": {
                    "value": "action"
                },
                "actions": {
                    "value": 1
                },
                "description": {
                    "value": "<p>The golem fills an empty vial from one of its alchemical chambers to create a bomb and then makes a bomb @Compendium[pf2e.actionspf2e.Strike]{Strike}. Determine the type of bomb created by rolling [[/r 1d6]] on the alchemical chambers list above. On a roll of 1-4, it creates the corresponding greater alchemical bomb: an @Compendium[pf2e.equipment-srd.Acid Flask (Greater)]{Acid Flask (Greater)} from chamber 1, a @Compendium[pf2e.equipment-srd.Frost Vial (Greater)]{Frost Vial (Greater)} from chamber 2, @Compendium[pf2e.equipment-srd.Bottled Lightning (Greater)]{Bottled Lightning (Greater)} from chamber 3, or @Compendium[pf2e.equipment-srd.Alchemist's Fire (Greater)]{Alchemist's Fire (Greater)} from chamber 4. On a roll of 5, it creates a poisonous bomb that deals [[/r 3d10 #poison]]{3d10 poison damage} and [[/r 3 #poison splash]]{3 poison splash damage} with no other effects. On a roll of 6, it creates a sickness bomb, which exposes the target and all creatures in the splash radius to the @Compendium[pf2e.conditionitems.Sickened]{Sickened} effect; creatures hit by only the splash receive a +2 circumstance bonus to their Fortitude saves.</p>"
                },
                "requirements": {
                    "value": ""
                },
                "rules": [],
                "slug": null,
                "source": {
                    "value": ""
                },
                "traits": {
                    "custom": "",
                    "rarity": {
                        "value": "common"
                    },
                    "selected": {
                        "manipulate": "Manipulate"
                    },
                    "value": [
                        "manipulate"
                    ]
                },
                "trigger": {
                    "value": ""
                },
                "weapon": {
                    "value": ""
                }
            },
            "effects": [],
            "flags": {},
            "img": "systems/pf2e/icons/actions/OneAction.webp",
            "name": "Generate Bomb",
            "sort": 900000,
            "type": "action"
        },
        {
            "_id": "pR9E0zEtv0g9eZqm",
            "data": {
                "description": {
                    "value": ""
                },
                "item": {
                    "value": 0
                },
                "mod": {
                    "value": 22
                },
                "proficient": {
                    "value": 0
                },
                "rules": [],
                "slug": null,
                "source": {
                    "value": ""
                },
                "traits": {
                    "custom": "",
                    "rarity": {
                        "value": "common"
                    },
                    "value": []
                }
            },
            "effects": [],
            "flags": {},
            "img": "systems/pf2e/icons/default-icons/lore.svg",
            "name": "Athletics",
            "sort": 1000000,
            "type": "lore"
        }
    ],
    "name": "Darklands Alchemical Golem",
    "token": {
        "disposition": -1,
        "height": 2,
        "img": "systems/pf2e/icons/default-icons/npc.svg",
        "name": "Darklands Alchemical Golem",
        "width": 2
    },
    "type": "npc"
}
