{
    "_id": "0fe7PVMIq92fkUJK",
    "data": {
        "attributes": {
            "ac": {
                "value": 18
            },
            "hardness": 1,
            "hasHealth": true,
            "hp": {
                "details": "",
                "max": 32,
                "temp": 0,
                "tempmax": 0,
                "value": 32
            },
            "stealth": {
                "details": "<p>(trained)</p>",
                "value": 12
            }
        },
        "creatureType": "",
        "details": {
            "description": "<p>Four magical plants inside the wagon release hallucinogenic pollen when disturbed.</p>",
            "disable": "<p><span data-pf2-check=\"thievery\" data-pf2-dc=\"18\" data-pf2-label=\"Remove Pollen Pod DC\" data-pf2-show-dc=\"gm\">Thievery</span> (trained) to carefully remove a pollen pod or <span data-pf2-check=\"nature\" data-pf2-dc=\"18\" data-pf2-label=\"Prevent Pod Burst DC\" data-pf2-show-dc=\"gm\">Nature</span> (trained) to prevent a pod from bursting.</p>",
            "isComplex": true,
            "level": {
                "value": 3
            },
            "reset": "<p>The trap resets after 1 hour, when the pods have regrown additional pollen. If all the pods are removed or disabled, the trap doesn't reset.</p>",
            "routine": "<p>(4 actions) The trap loses 1 action each turn for each removed or disabled pollen pod. The trap doesn't take a multiple attack penalty.</p>"
        },
        "saves": {
            "fortitude": {
                "saveDetail": "",
                "value": 9
            },
            "reflex": {
                "saveDetail": "",
                "value": 3
            },
            "will": {
                "saveDetail": "",
                "value": 0
            }
        },
        "source": {
            "value": "Pathfinder #151: The Show Must Go On"
        },
        "statusEffects": [],
        "traits": {
            "ci": [],
            "di": {
                "custom": "",
                "selected": {},
                "value": [
                    "critical-hits",
                    "object-immunities",
                    "precision"
                ]
            },
            "dr": [],
            "dv": [],
            "rarity": {
                "value": "common"
            },
            "size": {
                "value": "med"
            },
            "traits": {
                "custom": "",
                "value": [
                    "environmental",
                    "trap"
                ]
            }
        }
    },
    "effects": [],
    "flags": {},
    "img": "systems/pf2e/icons/default-icons/hazard.svg",
    "items": [
        {
            "_id": "ead7pwbvr3oideQg",
            "data": {
                "actionCategory": {
                    "value": ""
                },
                "actionType": {
                    "value": "reaction"
                },
                "actions": {
                    "value": null
                },
                "description": {
                    "value": "<p><strong>Trigger</strong> The wagon door is opened or the pods are disturbed;</p>\n<p><strong>Effect</strong> A pod makes a pollen spray Strike against an adjacent creature or the creature that opened the door, the door falls off the wagon, and the trap rolls initiative.</p>"
                },
                "requirements": {
                    "value": ""
                },
                "rules": [],
                "slug": null,
                "source": {
                    "value": ""
                },
                "traits": {
                    "custom": "",
                    "rarity": {
                        "value": "common"
                    },
                    "value": []
                },
                "trigger": {
                    "value": ""
                },
                "weapon": {
                    "value": ""
                }
            },
            "effects": [],
            "flags": {},
            "img": "systems/pf2e/icons/actions/Reaction.webp",
            "name": "Pollen Burst",
            "sort": 100000,
            "type": "action"
        },
        {
            "_id": "uy0V4RLpmPZUTFQ9",
            "data": {
                "attack": {
                    "value": ""
                },
                "attackEffects": {
                    "custom": "",
                    "value": [
                        "hallucinogenic-pollen"
                    ]
                },
                "bonus": {
                    "value": 12
                },
                "damageRolls": {
                    "r5qp9dx4h1gmq2ewymla8k": {
                        "damage": "1d8",
                        "damageType": "poison"
                    }
                },
                "description": {
                    "value": ""
                },
                "rules": [],
                "slug": null,
                "source": {
                    "value": ""
                },
                "traits": {
                    "custom": "",
                    "rarity": {
                        "value": "common"
                    },
                    "value": [
                        "range-increment-20"
                    ]
                },
                "weaponType": {
                    "value": "ranged"
                }
            },
            "effects": [],
            "flags": {},
            "img": "systems/pf2e/icons/default-icons/melee.svg",
            "name": "Pollen Spray",
            "sort": 200000,
            "type": "melee"
        },
        {
            "_id": "oxKLVBMpW1qrYgZH",
            "data": {
                "actionCategory": {
                    "value": ""
                },
                "actionType": {
                    "value": "passive"
                },
                "actions": {
                    "value": null
                },
                "description": {
                    "value": "<p>A creature hit by the trap's pollen spray must succeed at a <span data-pf2-check=\"will\" data-pf2-dc=\"20\" data-pf2-label=\"Hallucinogenic Pollen DC\" data-pf2-show-dc=\"gm\">Will</span> save or it is @Compendium[pf2e.conditionitems.Confused]{Confused} for 1 round and takes a -2 status penalty to Perception checks and saves against mental effects for [[/br 1d4 #hours]] hours. On a critical failure, the penalty is instead -4.</p>"
                },
                "requirements": {
                    "value": ""
                },
                "rules": [],
                "slug": null,
                "source": {
                    "value": ""
                },
                "traits": {
                    "custom": "",
                    "rarity": {
                        "value": "common"
                    },
                    "value": []
                },
                "trigger": {
                    "value": ""
                },
                "weapon": {
                    "value": ""
                }
            },
            "effects": [],
            "flags": {},
            "img": "systems/pf2e/icons/actions/Passive.webp",
            "name": "Hallucinogenic Pollen",
            "sort": 300000,
            "type": "action"
        }
    ],
    "name": "Dream Pollen Pods",
    "token": {
        "disposition": 0,
        "height": 1,
        "img": "systems/pf2e/icons/default-icons/hazard.svg",
        "name": "Dream Pollen Pods",
        "width": 1
    },
    "type": "hazard"
}
