{
    "_id": "B18UXeicuV8RF8kP",
    "data": {
        "attributes": {
            "ac": {
                "value": 27
            },
            "hardness": 0,
            "hasHealth": true,
            "hp": {
                "details": "",
                "max": 70,
                "temp": 0,
                "tempmax": 0,
                "value": 70
            },
            "stealth": {
                "details": "(trained)",
                "value": 28
            }
        },
        "creatureType": "",
        "details": {
            "description": "The xulgath corpse splits open to release a cloud of tiny ectoplasmic crystals which, when they are   inhaled, disorient and devitalize living creatures.",
            "disable": "DC 26 Arcana or Occult (expert) to render the crystal cloud inert",
            "isComplex": false,
            "level": {
                "value": 8
            },
            "reset": "The crystals regrow into a number sufficient to form another dangerous cloud after 1 week.",
            "routine": ""
        },
        "saves": {
            "fortitude": {
                "saveDetail": "",
                "value": 17
            },
            "reflex": {
                "saveDetail": "",
                "value": 13
            },
            "will": {
                "saveDetail": "",
                "value": 0
            }
        },
        "source": {
            "value": "Pathfinder #152: Legacy of the Lost God"
        },
        "statusEffects": [],
        "traits": {
            "ci": [],
            "di": {
                "custom": "",
                "selected": {},
                "value": [
                    "critical-hits",
                    "object-immunities",
                    "precision"
                ]
            },
            "dr": [],
            "dv": [],
            "rarity": {
                "value": "uncommon"
            },
            "size": {
                "value": "med"
            },
            "traits": {
                "custom": "",
                "value": [
                    "environmental"
                ]
            }
        }
    },
    "effects": [],
    "flags": {},
    "img": "systems/pf2e/icons/default-icons/hazard.svg",
    "items": [
        {
            "_id": "zDJDO6RiYek1vtDZ",
            "data": {
                "actionCategory": {
                    "value": ""
                },
                "actionType": {
                    "value": "reaction"
                },
                "actions": {
                    "value": null
                },
                "description": {
                    "value": "<p><strong>Trigger</strong> A creature touches or disturbs the corpse containing the growth of crystals;</p>\n<p><strong>Effect</strong> All creatures within 10 feet of the corpse are exposed to the ghost crystal cloud.</p>"
                },
                "requirements": {
                    "value": ""
                },
                "rules": [],
                "slug": null,
                "source": {
                    "value": ""
                },
                "traits": {
                    "custom": "",
                    "rarity": {
                        "value": "common"
                    },
                    "value": []
                },
                "trigger": {
                    "value": ""
                },
                "weapon": {
                    "value": ""
                }
            },
            "effects": [],
            "flags": {},
            "img": "systems/pf2e/icons/actions/Reaction.webp",
            "name": "Ectoplasmic Explosion",
            "sort": 100000,
            "type": "action"
        },
        {
            "_id": "NrFxf3psvDqHyWQv",
            "data": {
                "actionCategory": {
                    "value": ""
                },
                "actionType": {
                    "value": "passive"
                },
                "actions": {
                    "value": null
                },
                "description": {
                    "value": "<p>Creatures with the ethereal trait are immune;</p>\n<p><strong>Saving Throw</strong> <span data-pf2-check=\"fortitude\" data-pf2-dc=\"26\" data-pf2-traits=\"poison\" data-pf2-label=\"Ghost Crystal Cloud DC\" data-pf2-show-dc=\"gm\">Fortitude</span>;</p>\n<p><strong>Maximum Duration</strong> 6 rounds;</p>\n<p><strong>Stage 1</strong> [[/r 1d10 #poison]]{1d10 poison damage} and @Compendium[pf2e.conditionitems.Stupefied]{Stupefied 1} (1 round);</p>\n<p><strong>Stage 2</strong> [[/r 2d10 #poison]]{2d10 poison damage} and stupefied 2 (1 round);</p>\n<p><strong>Stage 3</strong> [[/r 3d10 #poison]]{3d10 poison damage} and stupefied 3 (1 round)</p>"
                },
                "requirements": {
                    "value": ""
                },
                "rules": [],
                "slug": null,
                "source": {
                    "value": ""
                },
                "traits": {
                    "custom": "Inhaled",
                    "rarity": {
                        "value": "common"
                    },
                    "value": [
                        "poison"
                    ]
                },
                "trigger": {
                    "value": ""
                },
                "weapon": {
                    "value": ""
                }
            },
            "effects": [],
            "flags": {},
            "img": "systems/pf2e/icons/default-icons/action.svg",
            "name": "Ghost Crystal Cloud",
            "sort": 200000,
            "type": "action"
        }
    ],
    "name": "Ghost Crystal Cloud",
    "token": {
        "disposition": 0,
        "height": 1,
        "img": "systems/pf2e/icons/default-icons/hazard.svg",
        "name": "Ghost Crystal Cloud",
        "width": 1
    },
    "type": "hazard"
}
