{
    "_id": "1bjReaLqCD9pvBJ3",
    "data": {
        "boosts": {
            "0": {
                "value": [
                    "cha",
                    "int"
                ]
            },
            "1": {
                "value": [
                    "cha",
                    "con",
                    "dex",
                    "int",
                    "str",
                    "wis"
                ]
            }
        },
        "description": {
            "value": "<p>You were enrolled at a prestigious magical academy, but you've since dropped out. Maybe there was a momentous incident, maybe you had to return to other responsibilities, or perhaps it was just too much for you. Whatever the case, your exit from the academy has shaped your life as much as your entrance and led you to a life of adventure.</p>\n<p>Choose two ability boosts. One must be to <strong>Intelligence</strong> or <strong>Charisma</strong>, and one is a free ability boost.</p>\n<p>You're trained in Arcana and Academia Lore. You gain the @Compendium[pf2e.feats-srd.Dubious Knowledge]{Dubious Knowledge} skill feat.</p>"
        },
        "items": {
            "ar4dx": {
                "id": "1Bt7uCW2WI4sM84P",
                "img": "systems/pf2e/icons/features/feats/feats.webp",
                "level": 1,
                "name": "Dubious Knowledge",
                "pack": "pf2e.feats-srd"
            }
        },
        "rules": [],
        "source": {
            "value": ""
        },
        "trainedLore": "Academia Lore",
        "trainedSkills": {
            "custom": "",
            "value": [
                "arc"
            ]
        },
        "traits": {
            "custom": "",
            "rarity": {
                "value": "common"
            },
            "value": []
        }
    },
    "effects": [],
    "flags": {},
    "img": "systems/pf2e/icons/default-icons/background.svg",
    "name": "Academy Dropout",
    "type": "background"
}
