{
    "_id": "0ZfBP7Tp2P3WN7Dp",
    "data": {
        "boosts": {
            "0": {
                "value": [
                    "cha",
                    "con",
                    "dex",
                    "int",
                    "str",
                    "wis"
                ]
            },
            "1": {
                "value": [
                    "cha",
                    "con",
                    "dex",
                    "int",
                    "str",
                    "wis"
                ]
            }
        },
        "description": {
            "value": "<p>Your background is… well… honestly, you can't remember! You might have inklings deep within your mind, undercurrents of unusual emotions or unexpected responses to certain people or situations, but ultimately you don't know who you once were. You might be adventuring specifically to help discover yourself. It's up to you and the GM how to handle the truth of your character's backstory. You could leave it to the GM so it's a secret, work together with the GM, or even choose to leave it undecided until later. In any case, you and your GM should determine a few noteworthy details about your character or their belongings to get the first clues to your past.</p>\n<p>You gain three free ability boosts. You choose two, and the GM chooses the third based on their first inklings of your character's possible history.</p>"
        },
        "items": {},
        "rules": [],
        "source": {
            "value": ""
        },
        "trainedLore": "GM choice free skill boost",
        "trainedSkills": {
            "value": []
        },
        "traits": {
            "custom": "",
            "rarity": {
                "value": "rare"
            },
            "value": []
        }
    },
    "effects": [],
    "flags": {},
    "img": "systems/pf2e/icons/default-icons/background.svg",
    "name": "Amnesiac",
    "type": "background"
}
