{
    "_id": "IfpYRxN8qyV4ym0o",
    "data": {
        "boosts": {
            "0": {
                "value": [
                    "int",
                    "wis"
                ]
            },
            "1": {
                "value": [
                    "cha",
                    "con",
                    "dex",
                    "int",
                    "str",
                    "wis"
                ]
            }
        },
        "description": {
            "value": "<p><strong>Prerequisite</strong>: Region - Golden Road</p>\n<hr />\n<p>Whether in Katapesh or one of the bustling markets along the Path of Salt, you've spent enough time buying and selling ancient or unusual items to give you an instinctive ability to quickly sort valuable trinkets from worthless baubles.</p>\n<p>Choose two ability boosts. One must be to <strong>Intelligence</strong> or <strong>Wisdom</strong>, and one is a free ability boost.</p>\n<p>You're trained in the Arcana skill and the Mercantile Lore skill. You gain the @Compendium[pf2e.feats-srd.Quick Identification]{Quick Identification} skill feat.</p>"
        },
        "items": {
            "hwrfy": {
                "id": "IlOQuCQIhjJpig3S",
                "img": "systems/pf2e/icons/features/feats/feats.webp",
                "level": "1",
                "name": "Quick Identification",
                "pack": "pf2e.feats-srd"
            }
        },
        "rules": [],
        "source": {
            "value": ""
        },
        "trainedLore": "Mercantile Lore",
        "trainedSkills": {
            "value": [
                "arc"
            ]
        },
        "traits": {
            "custom": "",
            "rarity": {
                "value": "common"
            },
            "value": []
        }
    },
    "effects": [],
    "flags": {},
    "img": "systems/pf2e/icons/default-icons/background.svg",
    "name": "Purveyor of the Bizzare",
    "type": "background"
}
