{
    "_id": "i28Z9JXhEvoc7BX5",
    "data": {
        "boosts": {
            "0": {
                "value": [
                    "con",
                    "wis"
                ]
            },
            "1": {
                "value": [
                    "cha",
                    "con",
                    "dex",
                    "int",
                    "str",
                    "wis"
                ]
            }
        },
        "description": {
            "value": "<p>You come from a land very distant from the one you now find yourself in, driven by war, plague, or simply in the pursuit of opportunity. Regardless of your origin or the reason you left your home, you find yourself an outsider in this new land. Adventuring is a way to support yourself while offering hope to those who need it most.</p>\n<p>Choose two ability boosts. One must be to <strong>Constitution</strong> or <strong>Wisdom</strong>, and one is a free ability boost.</p>\n<p>You're trained in the Society skill and a Lore skill related to the settlement you came from. You gain the @Compendium[pf2e.feats-srd.Streetwise]{Streetwise} skill feat.</p>"
        },
        "items": {
            "17wwh": {
                "id": "X2jGFfLU5qI5XVot",
                "img": "systems/pf2e/icons/features/feats/feats.webp",
                "level": "1",
                "name": "Streetwise",
                "pack": "pf2e.feats-srd"
            }
        },
        "rules": [],
        "source": {
            "value": ""
        },
        "trainedLore": "<City> Lore",
        "trainedSkills": {
            "value": [
                "soc"
            ]
        },
        "traits": {
            "custom": "",
            "rarity": {
                "value": "common"
            },
            "value": []
        }
    },
    "effects": [],
    "flags": {},
    "img": "systems/pf2e/icons/default-icons/background.svg",
    "name": "Refugee (APG)",
    "type": "background"
}
