{
    "_id": "y0WZS51fSi6dILHq",
    "data": {
        "boosts": {
            "0": {
                "value": [
                    "dex",
                    "wis"
                ]
            },
            "1": {
                "value": [
                    "cha",
                    "con",
                    "dex",
                    "int",
                    "str",
                    "wis"
                ]
            }
        },
        "description": {
            "value": "<p><strong>Prerequisite</strong>: Region - Golden Road</p>\n<hr />\n<p>You're from Rahadoum, where the Laws of Mortality taught you to reject the gods, yet you've seen firsthand how dangerous it can be to go without healing magic. As a result, you've thrown yourself into the study of medicine, so you can save lives without saving souls.</p>\n<p>Choose two ability boosts. One must be to <strong>Wisdom</strong> or <strong>Dexterity</strong>, and one is a free ability boost.</p>\n<p>You're trained in the Medicine skill and the Anatomy Lore skill. You gain the @Compendium[pf2e.feats-srd.Battle Medicine]{Battle Medicine} skill feat.</p>"
        },
        "items": {
            "6fn06": {
                "id": "wYerMk6F1RZb0Fwt",
                "img": "systems/pf2e/icons/features/feats/feats.webp",
                "level": "1",
                "name": "Battle Medicine",
                "pack": "pf2e.feats-srd"
            }
        },
        "rules": [],
        "source": {
            "value": ""
        },
        "trainedLore": "Anatomy Lore",
        "trainedSkills": {
            "value": [
                "med"
            ]
        },
        "traits": {
            "custom": "",
            "rarity": {
                "value": "common"
            },
            "value": []
        }
    },
    "effects": [],
    "flags": {},
    "img": "systems/pf2e/icons/default-icons/background.svg",
    "name": "Secular Medic",
    "type": "background"
}
