{
    "_id": "o3ArTg5c8pLe7iGm",
    "data": {
        "boosts": {
            "0": {
                "value": [
                    "cha",
                    "con",
                    "str"
                ]
            },
            "1": {
                "value": []
            }
        },
        "description": {
            "value": "<p>During a sea voyage, you washed overboard, ingested sea water, and drowned. Merfolk, kelpies, sea serpents, or another magical denizen of the sea pulled your unconscious body from the briny depths. Having spent so much time underwater, your lungs were filled with salt water. To restore your ability to breathe, they exhaled into your lungs and shared the ability to breathe underwater in the process. You came back with the ability to breathe water, as well as a newfound knowledge of your time beneath the waves.</p>\n<p>You gain one ability boost. It must be to <strong>Strength</strong>, <strong>Constitution</strong>, or <strong>Charisma</strong>.</p>\n<p>You're trained in the Athletics skill and the Ocean Lore skill. You have the ability to breathe underwater.</p>\n<hr />\n<p><strong>Special</strong> You can choose to lose the ability to breathe air when you take this background, making you only able to breathe underwater. If you do, you gain a second ability boost, which is a free ability boost.</p>"
        },
        "items": {},
        "rules": [],
        "source": {
            "value": ""
        },
        "trainedLore": "Ocean Lore",
        "trainedSkills": {
            "custom": "",
            "value": [
                "ath"
            ]
        },
        "traits": {
            "custom": "",
            "rarity": {
                "value": "rare"
            },
            "value": []
        }
    },
    "effects": [],
    "flags": {},
    "img": "systems/pf2e/icons/default-icons/background.svg",
    "name": "Song of the Deep",
    "type": "background"
}
