{
    "_id": "86TbxxwfpWjScwSQ",
    "data": {
        "boosts": {
            "0": {
                "value": [
                    "cha",
                    "int"
                ]
            },
            "1": {
                "value": [
                    "cha",
                    "con",
                    "dex",
                    "int",
                    "str",
                    "wis"
                ]
            }
        },
        "description": {
            "value": "<p>It's a well-known secret that for every playhouse in the Ivy District, there's an underground criminal element lurking somewhere in the shadows. To get intel on the occultists, assassins, and thieves' guilds that pull the strings of power in the Ivy District, the Lotus Guard trains some of the best undercover agents and operatives in all of Absalom. You're one such agent, and you've put your life on the line more times than you can count by getting close to the Ivy's most dangerous criminals. Your risky missions and thrill-seeking derring-do have earned you many accolades-but also no shortage of enemies.</p>\n<p>You transferred to the Edgewatch after your cover was unexpectedly blown and you needed a safe place to lie low away from the Ivy District. With your mastery of disguise and your ability to confidently converse with criminal masterminds, it won't be long before you've made yourself an indispensable undercover operator in this precinct as well.</p>\n<p>Choose two ability boosts. One must be to <strong>Intelligence</strong> or <strong>Charisma</strong>, and one is a free ability boost.</p>\n<p>You're trained in the Deception skill, Art Lore, <strong>and</strong> Underworld Lore. You gain a +1 circumstance bonus to Deception, Diplomacy, and Intimidation checks to Interact with Lotus Guards and high-ranking criminals like guild masters, gang leaders, and mob bosses. You gain the @Compendium[pf2e.feats-srd.Charming Liar]{Charming Liar} skill feat.</p>"
        },
        "items": {
            "hqa2u": {
                "id": "B6HbYsLBWb1RR6Fx",
                "img": "systems/pf2e/icons/features/feats/feats.webp",
                "level": "1",
                "name": "Charming Liar",
                "pack": "pf2e.feats-srd"
            }
        },
        "rules": [
            {
                "key": "FlatModifier",
                "label": "Interacting with Lotus Guards and high-ranking criminals (Undercover Lotus Guard)",
                "predicate": {
                    "any": [
                        "target:lotus-guard",
                        "target:high-rank-criminal"
                    ]
                },
                "selector": "diplomacy",
                "type": "circumstance",
                "value": 1
            },
            {
                "key": "FlatModifier",
                "label": "Interacting with Lotus Guards and high-ranking criminals (Undercover Lotus Guard)",
                "predicate": {
                    "any": [
                        "target:lotus-guard",
                        "target:high-rank-criminal"
                    ]
                },
                "selector": "intimidation",
                "type": "circumstance",
                "value": 1
            },
            {
                "key": "FlatModifier",
                "label": "Interacting with Lotus Guards and high-ranking criminals (Undercover Lotus Guard)",
                "predicate": {
                    "any": [
                        "target:lotus-guard",
                        "target:high-rank-criminal"
                    ]
                },
                "selector": "deception",
                "type": "circumstance",
                "value": 1
            }
        ],
        "source": {
            "value": ""
        },
        "trainedLore": "Art Lore and Underworld Lore",
        "trainedSkills": {
            "value": [
                "dec"
            ]
        },
        "traits": {
            "custom": "",
            "rarity": {
                "value": "common"
            },
            "value": []
        }
    },
    "effects": [],
    "flags": {},
    "img": "systems/pf2e/icons/default-icons/background.svg",
    "name": "Undercover Lotus Guard",
    "type": "background"
}
