{
    "_id": "gq98S6hRboPxK1kt",
    "data": {
        "boosts": {
            "0": {
                "value": [
                    "cha",
                    "con"
                ]
            },
            "1": {
                "value": [
                    "cha",
                    "con",
                    "dex",
                    "int",
                    "str",
                    "wis"
                ]
            }
        },
        "description": {
            "value": "<p>You have aspirations of attending the Magaambya academy of magic, but fate seemed to thwart you at every turn. You were unable to obtain a sponsorship and lost a collection of helpful textbooks to unexpected insect damage. You nevertheless made the long trip to Nantambu through terrible weather, uncharacteristically bad roads, and indifferent fellow travelers. Yet you have persevered. Now that you are here, alone but determined, you won't let anything stand in your way.</p>\n<p>Choose two ability boosts. One must be to <strong>Constitution</strong> or <strong>Charisma</strong>, and one is a free ability boost.</p>\n<p>You're trained in the Intimidation skill. You gain the @Compendium[pf2e.feats-srd.Intimidating Glare]{Intimidating Glare} skill feat. You're also trained in Academia Lore.</p>\n<p>Your recommended primary branch is the Tempest Sun-Mages.</p>"
        },
        "items": {
            "ehjk4": {
                "id": "xQMz6eDgX75WX2ce",
                "img": "systems/pf2e/icons/features/feats/feats.webp",
                "level": 1,
                "name": "Intimidating Glare",
                "pack": "pf2e.feats-srd"
            }
        },
        "rules": [],
        "source": {
            "value": "Strength of Thousands Player's Guide"
        },
        "trainedLore": "Academia Lore",
        "trainedSkills": {
            "custom": "",
            "value": [
                "itm"
            ]
        },
        "traits": {
            "custom": "",
            "rarity": {
                "value": "uncommon"
            },
            "value": []
        }
    },
    "effects": [],
    "flags": {},
    "img": "systems/pf2e/icons/default-icons/background.svg",
    "name": "Unsponsored (Intimidation)",
    "type": "background"
}
