{
    "_id": "MO8J2IcBhiTnm9D8",
    "data": {
        "baseItem": null,
        "brokenThreshold": {
            "value": 0
        },
        "bulkCapacity": {
            "value": ""
        },
        "collapsed": {
            "value": false
        },
        "containerId": {
            "value": ""
        },
        "description": {
            "value": "<p>An <em>orange prism aeon stone</em> must be activated to provide a benefit. The resonant power grants you a +2 item bonus to Arcana, Nature, Occultism, or Religion checks-whichever corresponds to the tradition of the last spell you enhanced with this <em>aeon stone</em>.</p>\n<hr />\n<p><strong>Activate</strong> <span class=\"pf2-icon\">A</span> envision</p>\n<p><strong>Effect</strong> If your next action is to Cast a Spell, that spell's level is 1 higher (maximum 10th level) for the purposes of counteracting and being counteracted.</p>\n<p>@Compendium[pf2e.equipment-effects.Effect: Aeon Stone (Orange Prism) (Arcana)]{Effect: Aeon Stone (Orange Prism) (Arcana)}</p>\n<p>@Compendium[pf2e.equipment-effects.Effect: Aeon Stone (Orange Prism) (Nature)]{Effect: Aeon Stone (Orange Prism) (Nature)}</p>\n<p>@Compendium[pf2e.equipment-effects.Effect: Aeon Stone (Orange Prism) (Occultism)]{Effect: Aeon Stone (Orange Prism) (Occultism)}</p>\n<p>@Compendium[pf2e.equipment-effects.Effect: Aeon Stone (Orange Prism) (Religion)]{Effect: Aeon Stone (Orange Prism) (Religion)}</p>"
        },
        "equipped": {
            "value": false
        },
        "equippedBulk": {
            "value": ""
        },
        "hardness": {
            "value": 0
        },
        "hp": {
            "value": 0
        },
        "identification": {
            "misidentified": {},
            "status": "identified",
            "unidentified": {
                "data": {
                    "description": {
                        "value": ""
                    }
                },
                "img": "",
                "name": ""
            }
        },
        "invested": {
            "value": false
        },
        "level": {
            "value": 16
        },
        "maxHp": {
            "value": 0
        },
        "negateBulk": {
            "value": "0"
        },
        "preciousMaterial": {
            "value": ""
        },
        "preciousMaterialGrade": {
            "value": ""
        },
        "price": {
            "value": "9,750 gp"
        },
        "quantity": {
            "value": 1
        },
        "rules": [],
        "size": {
            "value": "med"
        },
        "source": {
            "value": ""
        },
        "stackGroup": {
            "value": ""
        },
        "traits": {
            "custom": "",
            "rarity": {
                "value": "uncommon"
            },
            "value": [
                "invested",
                "magical",
                "transmutation"
            ]
        },
        "usage": {
            "value": "worn"
        },
        "weight": {
            "value": "-"
        }
    },
    "effects": [],
    "flags": {},
    "img": "systems/pf2e/icons/equipment/worn-items/other-worn-items/aeon-stone-orange-prism.webp",
    "name": "Aeon Stone (Orange Prism)",
    "type": "equipment"
}
