{
    "_id": "1ZOTwnqA9ccfdrey",
    "data": {
        "baseItem": null,
        "brokenThreshold": {
            "value": 0
        },
        "bulkCapacity": {
            "value": ""
        },
        "collapsed": {
            "value": false
        },
        "containerId": {
            "value": ""
        },
        "description": {
            "value": "<p>This coin-sized gemstone can be used on its own but must be included in the construction of a hearth in order to fully activate its magic.</p>\n<hr />\n<p><strong>Activate</strong> 3 days (Interact)</p>\n<p><strong>Frequency</strong> 4 times per year</p>\n<p><strong>Requirements</strong> You have Legendary proficiency in Crafting</p>\n<p><strong>Effect</strong> You craft a magical weapon or armor of up to 20th level. You must attempt a Crafting check as usual to create the item, but you need supply only raw materials worth a quarter of the item's Price, and you need not pay the remaining portion of the item's Price or spend additional downtime days working on it. While Aroden's Hearthstone is active, the stars in the sky, including Golarion's sun, appear to glow brighter within a 100-mile radius of the hearthstone.</p>\n<hr />\n<p><strong>Activate</strong> <span class=\"pf2-icon\">T</span> command, envision</p>\n<p><strong>Frequency</strong> once per month</p>\n<p><strong>Effect</strong> Aroden's Hearthstone draws in heat from the world itself, causing the ambient temperature within 100 miles to drop below 0°F. Within 1 mile of the Hearthstone, the temperature drops to -200°F, rivaling the frigid cold of outer space and dealing 4d6 cold damage each round to every creature in the area. This effect lasts 1 minute, during which time the nearest moon (probably Golarion's) appears an eerie blue color to any observers within 100 miles of the hearthstone. At the end of 1 minute, the hearthstone emits a blast of concentrated heat that deals 25d6 fire damage to creatures and objects within 150 feet.</p>\n<hr />\n<p><strong>Destruction</strong> Using Aroden's Hearthstone to craft a cursed item results in a failed creation and causes the gemstone to split into five equal-sized but magically impotent pieces. Over the course of a year, four of theses pieces crumble to dust, while the fifth expands to the size of the original artifact and bears its powers anew. To destroy Aroden's Hearthstone, each of the separated pieces must be plunged into one of the five stars that compose the cosmic constellation known as the Follower.</p>"
        },
        "equipped": {
            "value": false
        },
        "equippedBulk": {
            "value": ""
        },
        "hardness": {
            "value": 0
        },
        "hp": {
            "value": 0
        },
        "identification": {
            "misidentified": {},
            "status": "identified",
            "unidentified": {
                "data": {
                    "description": {
                        "value": ""
                    }
                },
                "img": "",
                "name": ""
            }
        },
        "invested": {
            "value": false
        },
        "level": {
            "value": 25
        },
        "maxHp": {
            "value": 0
        },
        "negateBulk": {
            "value": "0"
        },
        "preciousMaterial": {
            "value": ""
        },
        "preciousMaterialGrade": {
            "value": ""
        },
        "price": {
            "value": "0 gp"
        },
        "quantity": {
            "value": 1
        },
        "rules": [],
        "size": {
            "value": "med"
        },
        "source": {
            "value": ""
        },
        "stackGroup": {
            "value": ""
        },
        "traits": {
            "custom": "",
            "rarity": {
                "value": "unique"
            },
            "usage": {
                "value": "held-in-one-hand"
            },
            "value": [
                "arcane",
                "artifact",
                "enchantment"
            ]
        },
        "usage": {
            "value": "held-in-one-hand"
        },
        "weight": {
            "value": "L"
        }
    },
    "effects": [],
    "flags": {},
    "img": "systems/pf2e/icons/equipment/artifacts/arodens-hearthstone.webp",
    "name": "Aroden's Hearthstone",
    "type": "equipment"
}
