{
    "_id": "MK3Fq0BV2uTspvXn",
    "data": {
        "armor": {
            "value": 2
        },
        "armorType": {
            "value": "shield"
        },
        "baseItem": null,
        "brokenThreshold": {
            "value": 15
        },
        "bulkCapacity": {
            "value": ""
        },
        "check": {
            "value": 0
        },
        "collapsed": {
            "value": false
        },
        "containerId": {
            "value": null
        },
        "description": {
            "value": "<p>This well-crafted wooden shield is covered in numerous seed pods with long spurs. You can Strike with these burrs as though they were <em>@Compendium[pf2e.equipment-srd.Shield Spikes]{+1 Striking Shield Spikes}</em>.</p>\n<hr />\n<p><strong>Activate</strong> <span class=\"pf2-icon\">1</span> Interact;</p>\n<p><strong>Requirements</strong> Your previous action was a successful Strike with the burrs;</p>\n<p><strong>Effect</strong> One of the burrs catches on the Strike's target, inflicting [[/r 1d10 #persistent bleed]] @Compendium[pf2e.conditionitems.Persistent Damage]{Persistent Bleed Damage}.</p>\n<hr />\n<table class=\"pf2-table\">\n<thead>\n<tr>\n<th>Hardness</th>\n<th>HP</th>\n<th>BT</th>\n</tr>\n</thead>\n<tbody>\n<tr>\n<td>5</td>\n<td>30</td>\n<td>15</td>\n</tr>\n</tbody>\n</table>"
        },
        "dex": {
            "value": 0
        },
        "equipped": {
            "value": false
        },
        "equippedBulk": {
            "value": ""
        },
        "group": {
            "value": null
        },
        "hardness": {
            "value": 5
        },
        "hp": {
            "value": 30
        },
        "identification": {
            "misidentified": {},
            "status": "identified",
            "unidentified": {
                "data": {
                    "description": {
                        "value": ""
                    }
                },
                "img": "systems/pf2e/icons/unidentified_item_icons/armor.webp",
                "name": "Unusual Armor"
            }
        },
        "invested": {
            "value": null
        },
        "level": {
            "value": 5
        },
        "maxHp": {
            "value": 30
        },
        "negateBulk": {
            "value": "0"
        },
        "potencyRune": {
            "value": 0
        },
        "preciousMaterial": {
            "value": null
        },
        "preciousMaterialGrade": {
            "value": null
        },
        "price": {
            "value": "160 gp"
        },
        "propertyRune1": {
            "value": ""
        },
        "propertyRune2": {
            "value": ""
        },
        "propertyRune3": {
            "value": ""
        },
        "propertyRune4": {
            "value": ""
        },
        "quantity": {
            "value": 1
        },
        "resiliencyRune": {
            "value": ""
        },
        "rules": [],
        "size": {
            "value": "med"
        },
        "source": {
            "value": ""
        },
        "speed": {
            "value": 0
        },
        "stackGroup": {
            "value": ""
        },
        "strength": {
            "value": 0
        },
        "traits": {
            "custom": "",
            "rarity": {
                "value": "common"
            },
            "value": [
                "magical",
                "necromancy"
            ]
        },
        "usage": {
            "value": "wornarmor"
        },
        "weight": {
            "value": "L"
        }
    },
    "effects": [],
    "flags": {},
    "img": "systems/pf2e/icons/default-icons/armor.svg",
    "name": "Burr Shield",
    "type": "armor"
}
