{
    "_id": "hvlEFx25ogf1K1C2",
    "data": {
        "baseItem": null,
        "brokenThreshold": {
            "value": 0
        },
        "bulkCapacity": {
            "value": ""
        },
        "collapsed": {
            "value": false
        },
        "containerId": {
            "value": ""
        },
        "description": {
            "value": "<p>This brown-and-green tunic is embroidered with patterns that resemble interlocking elk antlers. You gain a +2 item bonus to Nature checks.<br /></p>\n<p><strong>Activate</strong> <span class=\"pf2-icon\">F</span> envision; <strong>Frequency</strong> once per day; <strong>Effect</strong> You gain 1 Focus Point, which you can spend only to cast an order spell. If you don't spend this Focus Point by the end of this turn, it is lost.<br /><br /><strong>Craft Requirements</strong> You are a druid.</p>\n<hr />\n<p>Automatically applied effects:</p>\n<ul>\n<li>+2 item bonus to Nature checks</li>\n</ul>"
        },
        "equipped": {
            "value": false
        },
        "equippedBulk": {
            "value": ""
        },
        "hardness": {
            "value": 0
        },
        "hp": {
            "value": 0
        },
        "identification": {
            "misidentified": {},
            "status": "identified",
            "unidentified": {
                "data": {
                    "description": {
                        "value": ""
                    }
                },
                "img": "",
                "name": ""
            }
        },
        "invested": {
            "value": false
        },
        "level": {
            "value": 10
        },
        "maxHp": {
            "value": 0
        },
        "negateBulk": {
            "value": "0"
        },
        "preciousMaterial": {
            "value": ""
        },
        "preciousMaterialGrade": {
            "value": ""
        },
        "price": {
            "value": "1,000 gp"
        },
        "quantity": {
            "value": 1
        },
        "rules": [
            {
                "key": "FlatModifier",
                "selector": "nature",
                "type": "item",
                "value": 2
            }
        ],
        "size": {
            "value": "med"
        },
        "source": {
            "value": ""
        },
        "stackGroup": {
            "value": ""
        },
        "traits": {
            "custom": "",
            "rarity": {
                "value": "common"
            },
            "value": [
                "focused",
                "invested",
                "primal",
                "transmutation"
            ]
        },
        "usage": {
            "value": "worngarment"
        },
        "weight": {
            "value": "L"
        }
    },
    "effects": [],
    "flags": {},
    "img": "systems/pf2e/icons/equipment/worn-items/other-worn-items/druids-vestments.webp",
    "name": "Druid's Vestments",
    "type": "equipment"
}
