{
    "_id": "cxOf1V1kN9tnj1g9",
    "data": {
        "activation": {
            "condition": "",
            "cost": 0,
            "type": ""
        },
        "autoDestroy": {
            "_deprecated": true,
            "value": true
        },
        "autoUse": {
            "_deprecated": true,
            "value": true
        },
        "baseItem": null,
        "brokenThreshold": {
            "value": 0
        },
        "bulkCapacity": {
            "value": ""
        },
        "charges": {
            "_deprecated": true,
            "max": 1,
            "value": 1
        },
        "collapsed": {
            "value": false
        },
        "consumableType": {
            "value": "talisman"
        },
        "consume": {
            "_deprecated": true,
            "value": ""
        },
        "containerId": {
            "value": ""
        },
        "description": {
            "value": "<p><strong>Activate</strong> <span class=\"pf2-icon\">F</span> Envision</p>\n<p><strong>Trigger</strong> You are about to roll Perception for initiative but haven't rolled yet</p>\n<p><strong>Requirements</strong> You are a master in Perception</p>\n<p>This round piece of cymophane's silky inclusion makes it look like a cat's eye. While affixed, it makes you jittery.</p>\n<p>When you activate it, roll Perception twice and use the higher result.</p>"
        },
        "duration": {
            "units": "",
            "value": null
        },
        "equipped": {
            "value": false
        },
        "equippedBulk": {
            "value": ""
        },
        "hardness": {
            "value": 0
        },
        "hp": {
            "value": 0
        },
        "identification": {
            "misidentified": {},
            "status": "identified",
            "unidentified": {
                "data": {
                    "description": {
                        "value": ""
                    }
                },
                "img": "",
                "name": ""
            }
        },
        "level": {
            "value": 12
        },
        "maxHp": {
            "value": 0
        },
        "negateBulk": {
            "value": "0"
        },
        "preciousMaterial": {
            "value": ""
        },
        "preciousMaterialGrade": {
            "value": ""
        },
        "price": {
            "value": "400 gp"
        },
        "quantity": {
            "value": 1
        },
        "range": {
            "long": null,
            "units": "",
            "value": null
        },
        "rules": [],
        "size": {
            "value": "med"
        },
        "source": {
            "value": ""
        },
        "spell": {
            "data": null,
            "heightenedLevel": null
        },
        "stackGroup": {
            "value": ""
        },
        "target": {
            "type": "",
            "units": "",
            "value": null
        },
        "traits": {
            "custom": "",
            "rarity": {
                "value": "common"
            },
            "usage": {
                "value": "affixed-to-armor"
            },
            "value": [
                "consumable",
                "divination",
                "fortune",
                "talisman"
            ]
        },
        "usage": {
            "value": "held-in-one-hand"
        },
        "uses": {
            "autoDestroy": true,
            "autoUse": true,
            "max": 0,
            "per": null,
            "value": 0
        },
        "weight": {
            "value": "-"
        }
    },
    "effects": [],
    "flags": {},
    "img": "systems/pf2e/icons/equipment/consumables/talismans/eye-of-apprehension.webp",
    "name": "Eye of Apprehension",
    "type": "consumable"
}
