{
    "_id": "WCWdJmR5tYO7Aulb",
    "data": {
        "MAP": {
            "value": ""
        },
        "ability": {
            "value": "str"
        },
        "baseItem": "greatpick",
        "bonus": {
            "value": 3
        },
        "bonusDamage": {
            "value": 0
        },
        "brokenThreshold": {
            "value": 0
        },
        "bulkCapacity": {
            "value": ""
        },
        "collapsed": {
            "value": false
        },
        "containerId": {
            "value": ""
        },
        "damage": {
            "damageType": "piercing",
            "dice": 1,
            "die": "d10",
            "value": ""
        },
        "description": {
            "value": "<p>This 15-foot-long adamantine digging tool is far too big for even a Large creature to wield, though if you're a Small or larger creature, you can wield it while wearing a belt of giant strength, as though it were appropriately sized for you and had 2 Bulk. The GM might also allow you to wield the mattock if you have some other means of wielding oversized weapons, such as if you're a Large barbarian with the giant instinct or are a Huge creature. When it's used as a weapon, the mattock of the titans has the statistics of a +3 greater striking @Compendium[pf2e.equipment-srd.Keen]{Keen} adamantine greatpick.</p>\n<p>While you're wielding the mattock of the titans, you gain a +3 item bonus to Athletics checks. You can use it to loosen or push soft earth at a rate of 1 minute per 5-foot cube or smash through solid stone at the rate of 5 minutes per 5-foot-cube.</p>\n<p><strong>Activate</strong> <span class=\"pf2-icon\">D</span> Interact</p>\n<p><strong>Frequency</strong> once per day</p>\n<p><strong>Effect</strong> You dig furiously with the mattock to non-magically replicate the effects of an @Compendium[pf2e.spells-srd.Earthquake]{Earthquake} spell.</p>\n<hr />\n<p><strong>Craft Requirements</strong> You are a titan, and the initial raw materials must include 8,100 gp of adamantine.</p>\n<hr />\n<p>Automatically applied effects:</p>\n<ul>\n<li>+3 item bonus to Athletics checks</li>\n</ul>"
        },
        "equipped": {
            "value": false
        },
        "equippedBulk": {
            "value": ""
        },
        "group": {
            "value": "pick"
        },
        "hands": {
            "value": ""
        },
        "hardness": {
            "value": 0
        },
        "hp": {
            "value": 0
        },
        "identification": {
            "misidentified": {},
            "status": "identified",
            "unidentified": {
                "data": {
                    "description": {
                        "value": ""
                    }
                },
                "img": "",
                "name": ""
            }
        },
        "invested": {
            "value": false
        },
        "level": {
            "value": 19
        },
        "maxHp": {
            "value": 0
        },
        "negateBulk": {
            "value": "0"
        },
        "potencyRune": {
            "value": 3
        },
        "preciousMaterial": {
            "value": "adamantine"
        },
        "preciousMaterialGrade": {
            "value": "high"
        },
        "price": {
            "value": "36,000 gp"
        },
        "property1": {
            "critDamage": "",
            "critDamageType": "",
            "critDice": null,
            "critDie": "",
            "criticalConditionType": "",
            "criticalConditionValue": null,
            "damageType": "",
            "dice": null,
            "die": "",
            "strikeConditionType": "",
            "strikeConditionValue": null,
            "value": ""
        },
        "propertyRune1": {
            "value": "keen"
        },
        "propertyRune2": {
            "value": ""
        },
        "propertyRune3": {
            "value": ""
        },
        "propertyRune4": {
            "value": ""
        },
        "quantity": {
            "value": 1
        },
        "range": {
            "value": "melee"
        },
        "reload": {
            "value": ""
        },
        "rules": [
            {
                "key": "FlatModifier",
                "selector": "athletics",
                "type": "item",
                "value": 3
            }
        ],
        "size": {
            "value": "med"
        },
        "source": {
            "value": ""
        },
        "splashDamage": {
            "value": null
        },
        "stackGroup": {
            "value": ""
        },
        "strikingRune": {
            "value": "greaterStriking"
        },
        "traits": {
            "custom": "",
            "rarity": {
                "value": "uncommon"
            },
            "value": [
                "evocation",
                "fatal-d12",
                "magical"
            ]
        },
        "usage": {
            "value": "held-in-one-hand"
        },
        "weaponType": {
            "value": "martial"
        },
        "weight": {
            "value": "16"
        }
    },
    "effects": [],
    "flags": {},
    "img": "systems/pf2e/icons/equipment/weapons/specific-magic-weapons/mattock-of-the-titans.webp",
    "name": "Mattock of the Titans",
    "type": "weapon"
}
