{
    "_id": "QRtsLdNvTs2C1oI2",
    "data": {
        "baseItem": null,
        "brokenThreshold": {
            "value": 0
        },
        "bulkCapacity": {
            "value": ""
        },
        "collapsed": {
            "value": false
        },
        "containerId": {
            "value": null
        },
        "description": {
            "value": "<p>A replacement lens for a Starless Scope. <span style=\"color: var(--body); font-size: 1em;\">If you know the formula for the</span><span style=\"color: var(--body); font-size: 1em;\"> </span><span style=\"color: var(--body); font-size: 1em;\">starless scope, you can Craft a new lens with a DC 25</span><span style=\"color: var(--body); font-size: 1em;\"> </span><span style=\"color: var(--body); font-size: 1em;\">Crafting (master) check.</span></p>\n<hr />\n<p>Activate <span style=\"font-family: Pathfinder2eActions; font-size: 19.2px; color: var(--body);\">2</span><span style=\"color: var(--body); font-size: 1em;\"> Interact (Manipulate); You can replace a broken lens in a starless scope with an undamaged one.</span></p>"
        },
        "equipped": {
            "value": false
        },
        "equippedBulk": {
            "value": ""
        },
        "hardness": {
            "value": 0
        },
        "hp": {
            "value": 0
        },
        "identification": {
            "misidentified": {},
            "status": "identified",
            "unidentified": {
                "data": {
                    "description": {
                        "value": ""
                    }
                },
                "img": "",
                "name": ""
            }
        },
        "invested": {
            "value": null
        },
        "level": {
            "value": 9
        },
        "maxHp": {
            "value": 0
        },
        "negateBulk": {
            "value": "0"
        },
        "preciousMaterial": {
            "value": null
        },
        "preciousMaterialGrade": {
            "value": null
        },
        "price": {
            "value": "100 gp"
        },
        "quantity": {
            "value": 1
        },
        "rules": [],
        "size": {
            "value": "med"
        },
        "source": {
            "value": ""
        },
        "stackGroup": {
            "value": ""
        },
        "traits": {
            "custom": "",
            "rarity": {
                "value": "rare"
            },
            "usage": {
                "value": "held-in-one-hand"
            },
            "value": []
        },
        "usage": {
            "value": ""
        },
        "weight": {
            "value": "-"
        }
    },
    "effects": [],
    "flags": {},
    "img": "systems/pf2e/icons/default-icons/equipment.svg",
    "name": "Starless Scope Lens",
    "type": "equipment"
}
