{
    "_id": "ud3pqCquYA5UecaS",
    "data": {
        "MAP": {
            "value": ""
        },
        "ability": {
            "value": "dex"
        },
        "baseItem": "javelin",
        "bonus": {
            "value": 2
        },
        "bonusDamage": {
            "value": 0
        },
        "brokenThreshold": {
            "value": 0
        },
        "bulkCapacity": {
            "value": ""
        },
        "collapsed": {
            "value": false
        },
        "containerId": {
            "value": ""
        },
        "damage": {
            "damageType": "piercing",
            "dice": 1,
            "die": "d6",
            "value": ""
        },
        "description": {
            "value": "<p>This stone-headed +2 striking returning javelin draws forth the power of the earth itself to strike at enemies.</p>\n<p><strong>Activate</strong> <span class=\"pf2-icon\">A</span> Interact</p>\n<p><strong>Frequency</strong> once per day</p>\n<p><strong>Effect</strong> You hurl the <em>stoneraiser javelin</em> at an unoccupied space within 30 feet.</p>\n<p>The javelin's power flows into the ground, which erupts in a 5-foot-radius burst of razor-sharp stalagmites. The stalagmites are 10 feet tall.</p>\n<p>Everything on each side of the stalagmites has cover from creatures on the opposite side, and the stalagmites' spaces are difficult terrain. A creature takes [[/r 4d4]] piercing damage for every move action it takes that enters at least one of the affected spaces.</p>\n<p>Each 5-foot-by-5-foot section has AC 10, Hardness 14, and 30 Hit Points. It's immune to critical hits and precision damage. A destroyed section can be moved through freely. The stalagmites crumble to dust after 1 minute.</p>\n<p>Any creature in the area when the stalagmites appear is pushed to the nearest unoccupied space of its choice; this movement is forced movement. Pushed creatures must attempt a DC 28 Reflex saving throw or take [[/r 4d4]] piercing damage.</p>\n<p><strong>Critical Success</strong> The creature is unaffected.<br /><strong>Success</strong> The creature takes half damage.<br /><strong>Failure</strong> The creature takes full damage.<br /><strong>Critical Failure</strong> The creature takes double damage and is knocked prone.</p>"
        },
        "equipped": {
            "value": false
        },
        "equippedBulk": {
            "value": ""
        },
        "group": {
            "value": "dart"
        },
        "hands": {
            "value": ""
        },
        "hardness": {
            "value": 0
        },
        "hp": {
            "value": 0
        },
        "identification": {
            "misidentified": {},
            "status": "identified",
            "unidentified": {
                "data": {
                    "description": {
                        "value": ""
                    }
                },
                "img": "",
                "name": ""
            }
        },
        "invested": {
            "value": false
        },
        "level": {
            "value": 11
        },
        "maxHp": {
            "value": 0
        },
        "negateBulk": {
            "value": "0"
        },
        "potencyRune": {
            "value": 2
        },
        "preciousMaterial": {
            "value": ""
        },
        "preciousMaterialGrade": {
            "value": ""
        },
        "price": {
            "value": "1,200 gp"
        },
        "property1": {
            "critDamage": "",
            "critDamageType": "",
            "critDice": null,
            "critDie": "",
            "criticalConditionType": "",
            "criticalConditionValue": null,
            "damageType": "",
            "dice": null,
            "die": "",
            "strikeConditionType": "",
            "strikeConditionValue": null,
            "value": ""
        },
        "propertyRune1": {
            "value": "returning"
        },
        "propertyRune2": {
            "value": ""
        },
        "propertyRune3": {
            "value": ""
        },
        "propertyRune4": {
            "value": ""
        },
        "quantity": {
            "value": 1
        },
        "range": {
            "value": "30"
        },
        "reload": {
            "value": ""
        },
        "rules": [],
        "size": {
            "value": "med"
        },
        "source": {
            "value": "Pathfinder #154: Siege of the Dinosaurs"
        },
        "splashDamage": {
            "value": null
        },
        "stackGroup": {
            "value": ""
        },
        "strikingRune": {
            "value": "striking"
        },
        "traits": {
            "custom": "",
            "rarity": {
                "value": "uncommon"
            },
            "value": [
                "conjuration",
                "earth",
                "magical",
                "thrown-30"
            ]
        },
        "usage": {
            "value": "held-in-one-hand"
        },
        "weaponType": {
            "value": "simple"
        },
        "weight": {
            "value": "L"
        }
    },
    "effects": [],
    "flags": {},
    "img": "systems/pf2e/icons/equipment/weapons/specific-magic-weapons/stoneraiser-javelin.webp",
    "name": "Stoneraiser Javelin",
    "type": "weapon"
}
