{
    "_id": "etVnNsUFpgeOBFJO",
    "data": {
        "attributes": {
            "ac": {
                "value": 24
            },
            "hardness": 10,
            "hasHealth": true,
            "hp": {
                "details": "",
                "max": 58,
                "temp": 0,
                "value": 58
            },
            "stealth": {
                "details": "<p>(Expert)</p>",
                "value": 15
            }
        },
        "creatureType": "",
        "details": {
            "description": "<p>The countless bones and feathers on the floor churn into the air in a clattering swarm of partially reconstructed skeletal birds, whose mournful song fills the area as surely as do their slashing beaks and talons.</p>",
            "disable": "<p>DC 23 Nature to convince the carrion vortex that the PCs pose no ill intent or DC 20 Religion to exorcise the haunt</p>",
            "isComplex": true,
            "level": {
                "value": 6
            },
            "reset": "<p>24 hours; defeating the corrupted psychopomps in areas D5 and E4 destroys this haunt forever.</p>",
            "routine": "<p>(1 action; evocation, occult) The churning vortex of beaks and bones takes its action through area D2, clawing and pecking at any creature in the area. All creatures in area D2 take [[/r 2d8+9 #slashing]]{2d8+9 slashing damage} (<span data-pf2-saving-throw=\"reflex\" data-pf2-traits=\"damaging-effect,evocation,occult\" data-pf2-label=\"Carrion Vortex DC\" data-pf2-dc=\"24\" data-pf2-show-dc=\"gm\">basic Reflex</span> save).</p>"
        },
        "saves": {
            "fortitude": {
                "saveDetail": "",
                "value": 11
            },
            "reflex": {
                "saveDetail": "",
                "value": 17
            },
            "will": {
                "saveDetail": "",
                "value": 15
            }
        },
        "source": {
            "value": ""
        },
        "statusEffects": [],
        "traits": {
            "ci": [],
            "di": {
                "custom": "",
                "selected": {},
                "value": [
                    "precision",
                    "critical-hits",
                    "object-immunities"
                ]
            },
            "dr": [],
            "dv": [
                {
                    "label": "Positive",
                    "type": "positive",
                    "value": "7"
                }
            ],
            "rarity": {
                "value": "common"
            },
            "size": {
                "value": "med"
            },
            "traits": {
                "custom": "",
                "value": [
                    "haunt"
                ]
            }
        }
    },
    "effects": [],
    "flags": {},
    "img": "systems/pf2e/icons/default-icons/hazard.svg",
    "items": [
        {
            "_id": "4adbMachVzb84sGG",
            "data": {
                "actionCategory": {
                    "value": "offensive"
                },
                "actionType": {
                    "value": "reaction"
                },
                "actions": {
                    "value": null
                },
                "description": {
                    "value": "<p data-visibility=\"gm\"><strong>Trigger</strong> Three or more creatures enter area D2, or anyone attempts to gather or destroy the bird remains;</p>\n<p><strong>Effect</strong> The carrion vortex fills area D2 with the overwhelming cries of what sounds like thousands of whippoorwills, but this cacophony can't be heard beyond this room. Creatures in area D2 must attempt a <span data-pf2-check=\"will\" data-pf2-traits=\"auditory,emotion,fear,mental,occult\" data-pf2-label=\"\" data-pf2-dc=\"21\" data-pf2-show-dc=\"gm\">Will</span> save. <em data-visibility=\"gm\">(worshipers of Pharasma or those with ties to psychopomps gain a +4 circumstance bonus to this save).The haunt then rolls initiative.</em></p>\n<div data-visibility=\"gm\">\n<p><strong>Critical Success</strong> The creature understands the dirge is also intended as a warning and a desperate request for absolution. The creature can sense the presence of the corrupted psychopomps in areas D5 and E4 as if under the effects of a locate spell, for 24 hours. As long as this effect persists, the character gains a +1 status bonus to attack rolls, saving throws, and skill checks made against the corrupted psychopomps in these areas.</p>\n<p><strong>Success</strong> As critical success, but the locate effect only lasts 10 minutes. The creature takes [[/r 2d8 #mental]]{2d8 mental damage} from overwhelming feelings of sadness and despair.</p>\n<p><strong>Failure</strong> The creature takes [[/r 4d8 #mental]]{4d8 mental damage} from overwhelming feelings of sadness and despair.</p>\n<p><strong>Critical Failure</strong> The creature takes [[/r 6d8 #mental]]{6d8 mental damage} from overwhelming feelings of sadness and despair, and as long as the haunt remains active and they remain in area D2, the character is@Compendium[pf2e.conditionitems.Slowed]{Slowed 1} as they're forced to do nothing but sob for one action every round.</p>\n</div>"
                },
                "requirements": {
                    "value": ""
                },
                "rules": [],
                "slug": null,
                "source": {
                    "value": ""
                },
                "traits": {
                    "custom": "",
                    "rarity": {
                        "value": "common"
                    },
                    "value": [
                        "mental",
                        "auditory",
                        "emotion",
                        "fear",
                        "occult"
                    ]
                },
                "trigger": {
                    "value": ""
                },
                "weapon": {
                    "value": ""
                }
            },
            "effects": [],
            "flags": {},
            "img": "systems/pf2e/icons/actions/Reaction.webp",
            "name": "Psychopomp Dirge",
            "sort": 0,
            "type": "action"
        }
    ],
    "name": "Carrion Vortex",
    "token": {
        "disposition": 0,
        "height": 1,
        "img": "systems/pf2e/icons/default-icons/hazard.svg",
        "name": "Carrion Vortex",
        "width": 1
    },
    "type": "hazard"
}
