{
    "_id": "6NijRSpkIuQpSxUp",
    "data": {
        "attributes": {
            "ac": {
                "value": 16
            },
            "hardness": 3,
            "hasHealth": true,
            "hp": {
                "details": "",
                "max": 16,
                "temp": 0,
                "tempmax": 0,
                "value": 16
            },
            "stealth": {
                "details": null,
                "value": 9
            }
        },
        "creatureType": "",
        "details": {
            "description": "<p>A jagged spike of metal shoots from a hidden launcher.</p>",
            "disable": "<p><span data-pf2-check=\"thievery\" data-pf2-dc=\"16\" data-pf2-traits=\"mechanical,trap\" data-pf2-label=\"Disable Launcher DC\" data-pf2-show-dc=\"gm\">Thievery</span> to disable one of the four launchers or <span data-pf2-check=\"acrobatics\" data-pf2-dc=\"12\" data-pf2-traits=\"mechanical,trap\" data-pf2-label=\"Avoid Trip Line DC\" data-pf2-show-dc=\"gm\">Acrobatics</span> to step over a trip line (this doesn't disarm the trap, but avoids triggering it)</p>",
            "isComplex": false,
            "level": {
                "value": 0
            },
            "reset": "",
            "routine": ""
        },
        "saves": {
            "fortitude": {
                "saveDetail": "",
                "value": 9
            },
            "reflex": {
                "saveDetail": "",
                "value": 3
            },
            "will": {
                "saveDetail": "",
                "value": 0
            }
        },
        "source": {
            "value": "Pathfinder #163: Ruins of Gauntlight"
        },
        "statusEffects": [],
        "traits": {
            "ci": [],
            "di": {
                "custom": "",
                "selected": {},
                "value": [
                    "critical-hits",
                    "object-immunities",
                    "precision"
                ]
            },
            "dr": [],
            "dv": [],
            "rarity": {
                "value": "common"
            },
            "size": {
                "value": "med"
            },
            "traits": {
                "custom": "",
                "value": [
                    "mechanical",
                    "trap"
                ]
            }
        }
    },
    "effects": [],
    "flags": {},
    "img": "systems/pf2e/icons/default-icons/hazard.svg",
    "items": [
        {
            "_id": "gZDMpjUjAgRTjrcL",
            "data": {
                "attack": {
                    "value": ""
                },
                "attackEffects": {
                    "value": []
                },
                "bonus": {
                    "value": 11
                },
                "damageRolls": {
                    "ertmrnxysgdmkf7t5oymu": {
                        "damage": "2d6+3",
                        "damageType": "piercing"
                    }
                },
                "description": {
                    "value": ""
                },
                "rules": [],
                "slug": null,
                "source": {
                    "value": ""
                },
                "traits": {
                    "custom": "",
                    "rarity": {
                        "value": "common"
                    },
                    "value": [
                        "range-increment-20"
                    ]
                },
                "weaponType": {
                    "value": "ranged"
                }
            },
            "effects": [],
            "flags": {},
            "img": "systems/pf2e/icons/default-icons/melee.svg",
            "name": "Spike",
            "sort": 100000,
            "type": "melee"
        },
        {
            "_id": "BFiMEADLB2Qw0lL1",
            "data": {
                "actionCategory": {
                    "value": "offensive"
                },
                "actionType": {
                    "value": "reaction"
                },
                "actions": {
                    "value": null
                },
                "description": {
                    "value": "<p><strong>Trigger</strong> A creature crosses one of the trip lines;</p>\n<p><strong>Effect</strong> A spike launches along the trip line's path against the triggering creature, making a ranged Strike.</p>"
                },
                "requirements": {
                    "value": ""
                },
                "rules": [],
                "slug": null,
                "source": {
                    "value": ""
                },
                "traits": {
                    "custom": "",
                    "rarity": {
                        "value": "common"
                    },
                    "value": []
                },
                "trigger": {
                    "value": ""
                },
                "weapon": {
                    "value": ""
                }
            },
            "effects": [],
            "flags": {},
            "img": "systems/pf2e/icons/actions/Reaction.webp",
            "name": "Spike",
            "sort": 200000,
            "type": "action"
        }
    ],
    "name": "Spike Launcher",
    "token": {
        "disposition": 0,
        "height": 1,
        "img": "systems/pf2e/icons/default-icons/hazard.svg",
        "name": "Spike Launcher",
        "width": 1
    },
    "type": "hazard"
}
