{
    "_id": "AybyC0n2CWNbXAbK",
    "data": {
        "abilities": {
            "cha": {
                "mod": 6
            },
            "con": {
                "mod": 5
            },
            "dex": {
                "mod": 5
            },
            "int": {
                "mod": 3
            },
            "str": {
                "mod": 7
            },
            "wis": {
                "mod": 4
            }
        },
        "attributes": {
            "ac": {
                "details": "",
                "value": 37
            },
            "allSaves": {
                "value": null
            },
            "hp": {
                "details": "",
                "max": 270,
                "temp": 0,
                "value": 270
            },
            "initiative": {
                "ability": "perception"
            },
            "perception": {
                "value": 25
            },
            "shield": {
                "ac": 2,
                "brokenThreshold": 0,
                "hardness": 0,
                "max": 0,
                "value": 0
            },
            "speed": {
                "otherSpeeds": [
                    {
                        "exceptions": "",
                        "label": "Climb",
                        "type": "climb",
                        "value": "30"
                    },
                    {
                        "exceptions": "",
                        "label": "Fly",
                        "type": "fly",
                        "value": "80"
                    }
                ],
                "value": "30"
            }
        },
        "details": {
            "alignment": {
                "value": "CE"
            },
            "creatureType": "",
            "flavorText": "<p>Cruel shapechangers, popobawas feed on negative emotions, particularly fear, despair, and anguish. Though they're dangerously strong carnivores that drink the blood of their victims, their greatest pleasure lies in mesmerizing victims to cause suffering and spread chaos. A popobawa moves about populated areas in disguise, seeking new victims and revisiting past victims to bask in their suffering, spreading gossip and incriminating innocents for its crimes while still relishing its own loathsome infamy.</p>",
            "level": {
                "value": 15
            },
            "source": {
                "value": "Pathfinder Bestiary 3"
            }
        },
        "resources": {
            "focus": {
                "max": 0,
                "value": 0
            }
        },
        "saves": {
            "fortitude": {
                "saveDetail": "",
                "value": 26
            },
            "reflex": {
                "saveDetail": "",
                "value": 24
            },
            "will": {
                "saveDetail": "",
                "value": 27
            }
        },
        "traits": {
            "ci": [],
            "di": {
                "custom": "",
                "value": [
                    "disease",
                    "sickened",
                    "stunned"
                ]
            },
            "dr": [],
            "dv": [],
            "languages": {
                "custom": "",
                "selected": [],
                "value": [
                    "common"
                ]
            },
            "rarity": {
                "value": "uncommon"
            },
            "senses": {
                "value": "darkvision, scent (imprecise) 60 feet"
            },
            "size": {
                "value": "med"
            },
            "traits": {
                "custom": "",
                "value": [
                    "humanoid"
                ]
            }
        }
    },
    "effects": [],
    "flags": {},
    "img": "systems/pf2e/icons/default-icons/npc.svg",
    "items": [
        {
            "_id": "UdC53mxC7Q74YklK",
            "data": {
                "ability": {
                    "value": ""
                },
                "autoHeightenLevel": {
                    "value": null
                },
                "description": {
                    "value": ""
                },
                "displayLevels": {},
                "item": {
                    "value": 0
                },
                "prepared": {
                    "value": "innate"
                },
                "proficiency": {
                    "value": 0
                },
                "rules": [],
                "showUnpreparedSpells": {
                    "value": false
                },
                "signatureSpells": {
                    "value": []
                },
                "slots": {
                    "slot0": {
                        "max": 2,
                        "prepared": {
                            "0": {
                                "id": "VHbwkfu9eQov7UlK"
                            },
                            "1": {
                                "id": "68WSBOTS4Q0cdx88"
                            }
                        },
                        "value": 2
                    },
                    "slot1": {
                        "max": 0,
                        "prepared": {},
                        "value": 0
                    },
                    "slot10": {
                        "max": 0,
                        "prepared": {},
                        "value": 0
                    },
                    "slot11": {
                        "max": 0,
                        "prepared": {},
                        "value": 0
                    },
                    "slot2": {
                        "max": 0,
                        "prepared": {},
                        "value": 0
                    },
                    "slot3": {
                        "max": 0,
                        "prepared": {},
                        "value": 0
                    },
                    "slot4": {
                        "max": 0,
                        "prepared": {},
                        "value": 0
                    },
                    "slot5": {
                        "max": 5,
                        "prepared": {
                            "2": {
                                "id": "D3QvqrAgsEWSNkVC"
                            },
                            "3": {
                                "id": "rtK4t1uQidMPsREc"
                            }
                        },
                        "value": 5
                    },
                    "slot6": {
                        "max": 2,
                        "prepared": {
                            "0": {
                                "id": "6Bo5HHDRQvMZbrax"
                            },
                            "1": {
                                "id": "EnNbGZC7ZcJ0myn4"
                            }
                        },
                        "value": 2
                    },
                    "slot7": {
                        "max": 0,
                        "prepared": {},
                        "value": 0
                    },
                    "slot8": {
                        "max": 0,
                        "prepared": {},
                        "value": 0
                    },
                    "slot9": {
                        "max": 0,
                        "prepared": {},
                        "value": 0
                    }
                },
                "slug": null,
                "source": {
                    "value": ""
                },
                "spelldc": {
                    "dc": 36,
                    "item": 0,
                    "mod": 0,
                    "value": 28
                },
                "tradition": {
                    "value": "divine"
                },
                "traits": {
                    "custom": "",
                    "rarity": {
                        "value": "common"
                    },
                    "value": []
                }
            },
            "effects": [],
            "flags": {},
            "img": "systems/pf2e/icons/default-icons/spellcastingEntry.svg",
            "name": "Occult Innate Spells",
            "sort": 100000,
            "type": "spellcastingEntry"
        },
        {
            "_id": "6Bo5HHDRQvMZbrax",
            "data": {
                "ability": {
                    "value": ""
                },
                "area": {
                    "areaType": "burst",
                    "value": 10
                },
                "areasize": {
                    "value": "10-foot burst"
                },
                "autoHeightenLevel": {
                    "value": null
                },
                "category": {
                    "value": "spell"
                },
                "components": {
                    "material": false,
                    "somatic": true,
                    "verbal": true
                },
                "cost": {
                    "value": ""
                },
                "damage": {
                    "value": {
                        "0": {
                            "type": {
                                "categories": [],
                                "value": "bludgeoning"
                            },
                            "value": "6d6"
                        }
                    }
                },
                "description": {
                    "value": "<p>You use your mind to manipulate unattended objects in the area, temporarily animating them to attack. The objects hover in the air, then hurl themselves at nearby creatures in a chaotic flurry of debris. This assault deals [[/r 6d10 #bludgeoning]]{6d10 bludgeoning damage} (basic Reflex save) to each creature in the area. On subsequent rounds, you can @Compendium[pf2e.actionspf2e.Sustain a Spell]{Sustain the Spell}, dealing [[/r 3d10 #bludgeoning]]{3d10 bludgeoning damage} (basic Reflex save) to each creature in the area.</p>\n<hr />\n<p><strong>Heightened (+2)</strong> The initial damage increases by [[/r 2d10]] and the subsequent damage increases by [[/r 1d10]].</p>"
                },
                "duration": {
                    "value": "sustained up to 1 minute"
                },
                "hasCounteractCheck": {
                    "value": false
                },
                "level": {
                    "value": 6
                },
                "location": {
                    "value": "UdC53mxC7Q74YklK"
                },
                "materials": {
                    "value": ""
                },
                "prepared": {
                    "value": false
                },
                "primarycheck": {
                    "value": ""
                },
                "range": {
                    "value": "120 feet"
                },
                "rules": [],
                "save": {
                    "basic": "basic",
                    "value": "reflex"
                },
                "school": {
                    "value": "evocation"
                },
                "secondarycasters": {
                    "value": ""
                },
                "secondarycheck": {
                    "value": ""
                },
                "slug": "animated-assault",
                "source": {
                    "value": ""
                },
                "spellType": {
                    "value": "save"
                },
                "sustained": {
                    "value": false
                },
                "target": {
                    "value": ""
                },
                "time": {
                    "value": "2"
                },
                "traditions": {
                    "value": [
                        "arcane",
                        "occult"
                    ]
                },
                "traits": {
                    "custom": "",
                    "rarity": {
                        "value": "common"
                    },
                    "value": []
                }
            },
            "effects": [],
            "flags": {
                "core": {
                    "sourceId": "Compendium.pf2e.spells-srd.WqPhJNzLa8vSjrH6"
                }
            },
            "img": "systems/pf2e/icons/spells/animated-assault.webp",
            "name": "Animated Assault",
            "sort": 200000,
            "type": "spell"
        },
        {
            "_id": "EnNbGZC7ZcJ0myn4",
            "data": {
                "ability": {
                    "value": ""
                },
                "area": {
                    "areaType": "",
                    "value": null
                },
                "areasize": {
                    "value": ""
                },
                "autoHeightenLevel": {
                    "value": null
                },
                "category": {
                    "value": "spell"
                },
                "components": {
                    "material": false,
                    "somatic": true,
                    "verbal": true
                },
                "cost": {
                    "value": ""
                },
                "damage": {
                    "value": {}
                },
                "description": {
                    "value": "<p>You take command of the target, forcing it to obey your orders. If you issue an obviously self-destructive order, the target doesn't act until you issue a new order. The effect depends on its Will save.</p>\n<hr /><strong>Critical Success</strong> The target is unaffected.\n<p><strong>Success</strong> The target is @Compendium[pf2e.conditionitems.Stunned]{Stunned 1} as it fights off your commands.</p>\n<p><strong>Failure</strong> The target follows your orders but can attempt a Will save at the end of each of its turns. On a success, the spell ends.</p>\n<p><strong>Critical Failure</strong> As a failure, but the target receives a new save only if you give it a new order that is against its nature, such as killing its allies.</p>\n<hr /><strong>Heightened (10th)</strong> The duration is unlimited."
                },
                "duration": {
                    "value": "until the next time you make your daily preparations"
                },
                "hasCounteractCheck": {
                    "value": false
                },
                "level": {
                    "value": 6
                },
                "location": {
                    "value": "UdC53mxC7Q74YklK"
                },
                "materials": {
                    "value": ""
                },
                "prepared": {
                    "value": ""
                },
                "primarycheck": {
                    "value": ""
                },
                "range": {
                    "value": "30 feet"
                },
                "rules": [],
                "save": {
                    "basic": "",
                    "value": "will"
                },
                "school": {
                    "value": "enchantment"
                },
                "secondarycasters": {
                    "value": ""
                },
                "secondarycheck": {
                    "value": ""
                },
                "slug": "dominate",
                "source": {
                    "value": ""
                },
                "spellType": {
                    "value": "save"
                },
                "sustained": {
                    "value": false
                },
                "target": {
                    "value": "1 creature"
                },
                "time": {
                    "value": "2"
                },
                "traditions": {
                    "value": [
                        "arcane",
                        "occult"
                    ]
                },
                "traits": {
                    "custom": "",
                    "rarity": {
                        "value": "uncommon"
                    },
                    "value": [
                        "incapacitation",
                        "mental"
                    ]
                }
            },
            "effects": [],
            "flags": {
                "core": {
                    "sourceId": "Compendium.pf2e.spells-srd.OsOhx3TGIZ7AhD0P"
                }
            },
            "img": "systems/pf2e/icons/spells/dominate.webp",
            "name": "Dominate",
            "sort": 300000,
            "type": "spell"
        },
        {
            "_id": "6yyUXmcspTtLrSpS",
            "data": {
                "ability": {
                    "value": ""
                },
                "area": {
                    "areaType": "",
                    "value": null
                },
                "areasize": {
                    "value": ""
                },
                "autoHeightenLevel": {
                    "value": null
                },
                "category": {
                    "value": "spell"
                },
                "components": {
                    "material": true,
                    "somatic": true,
                    "verbal": true
                },
                "cost": {
                    "value": ""
                },
                "damage": {
                    "value": {}
                },
                "description": {
                    "value": "<p>You create an @Compendium[pf2e.conditionitems.Invisible]{Invisible} floating ear at a location within range (even if it's outside your line of sight or line of effect). It can't move, but you can hear through the ear as if using your normal auditory senses.</p>"
                },
                "duration": {
                    "value": "10 minutes"
                },
                "hasCounteractCheck": {
                    "value": false
                },
                "level": {
                    "value": 5
                },
                "location": {
                    "value": "UdC53mxC7Q74YklK"
                },
                "materials": {
                    "value": ""
                },
                "prepared": {
                    "value": ""
                },
                "primarycheck": {
                    "value": ""
                },
                "range": {
                    "value": "500 feet"
                },
                "rules": [],
                "save": {
                    "basic": "",
                    "value": ""
                },
                "school": {
                    "value": "divination"
                },
                "secondarycasters": {
                    "value": ""
                },
                "secondarycheck": {
                    "value": ""
                },
                "slug": "clairaudience",
                "source": {
                    "value": ""
                },
                "spellType": {
                    "value": "utility"
                },
                "sustained": {
                    "value": false
                },
                "target": {
                    "value": ""
                },
                "time": {
                    "value": "1 minute"
                },
                "traditions": {
                    "value": [
                        "arcane",
                        "occult"
                    ]
                },
                "traits": {
                    "custom": "",
                    "rarity": {
                        "value": "common"
                    },
                    "value": [
                        "scrying"
                    ]
                }
            },
            "effects": [],
            "flags": {
                "core": {
                    "sourceId": "Compendium.pf2e.spells-srd.HXhWYJviWalN5tQ2"
                }
            },
            "img": "systems/pf2e/icons/spells/clairaudience.webp",
            "name": "Clairaudience (At Will)",
            "sort": 400000,
            "type": "spell"
        },
        {
            "_id": "XjGnWqKEUqGKwYqa",
            "data": {
                "ability": {
                    "value": ""
                },
                "area": {
                    "areaType": "",
                    "value": null
                },
                "areasize": {
                    "value": ""
                },
                "autoHeightenLevel": {
                    "value": null
                },
                "category": {
                    "value": "spell"
                },
                "components": {
                    "material": true,
                    "somatic": true,
                    "verbal": true
                },
                "cost": {
                    "value": ""
                },
                "damage": {
                    "value": {}
                },
                "description": {
                    "value": "<p>You create an @Compendium[pf2e.conditionitems.Invisible]{Invisible} floating eye at a location within range (even if it's outside your line of sight or line of effect). The eye can't move, but you can see in all directions from that point as if using your normal visual senses.</p>"
                },
                "duration": {
                    "value": "10 minutes"
                },
                "hasCounteractCheck": {
                    "value": false
                },
                "level": {
                    "value": 5
                },
                "location": {
                    "value": "UdC53mxC7Q74YklK"
                },
                "materials": {
                    "value": ""
                },
                "prepared": {
                    "value": ""
                },
                "primarycheck": {
                    "value": ""
                },
                "range": {
                    "value": "500 feet"
                },
                "rules": [],
                "save": {
                    "basic": "",
                    "value": ""
                },
                "school": {
                    "value": "divination"
                },
                "secondarycasters": {
                    "value": ""
                },
                "secondarycheck": {
                    "value": ""
                },
                "slug": "clairvoyance",
                "source": {
                    "value": ""
                },
                "spellType": {
                    "value": "utility"
                },
                "sustained": {
                    "value": false
                },
                "target": {
                    "value": ""
                },
                "time": {
                    "value": "1 minute"
                },
                "traditions": {
                    "value": [
                        "arcane",
                        "occult"
                    ]
                },
                "traits": {
                    "custom": "",
                    "rarity": {
                        "value": "common"
                    },
                    "value": [
                        "scrying"
                    ]
                }
            },
            "effects": [],
            "flags": {
                "core": {
                    "sourceId": "Compendium.pf2e.spells-srd.zvKWclOZ7A53DObE"
                }
            },
            "img": "systems/pf2e/icons/spells/clairvoyance.webp",
            "name": "Clairvoyance (At Will)",
            "sort": 500000,
            "type": "spell"
        },
        {
            "_id": "D3QvqrAgsEWSNkVC",
            "data": {
                "ability": {
                    "value": ""
                },
                "area": {
                    "areaType": "",
                    "value": null
                },
                "areasize": {
                    "value": ""
                },
                "autoHeightenLevel": {
                    "value": null
                },
                "category": {
                    "value": "spell"
                },
                "components": {
                    "material": false,
                    "somatic": true,
                    "verbal": true
                },
                "cost": {
                    "value": ""
                },
                "damage": {
                    "value": {}
                },
                "description": {
                    "value": "<p>You move the target up to 20 feet, potentially suspending it in midair. When you Sustain the Spell, you can do so again, or you can choose a different eligible target to move.</p>"
                },
                "duration": {
                    "value": "sustained up to 1 minute"
                },
                "hasCounteractCheck": {
                    "value": false
                },
                "level": {
                    "value": 5
                },
                "location": {
                    "value": "UdC53mxC7Q74YklK"
                },
                "materials": {
                    "value": ""
                },
                "prepared": {
                    "value": ""
                },
                "primarycheck": {
                    "value": ""
                },
                "range": {
                    "value": "120 feet"
                },
                "rules": [],
                "save": {
                    "basic": "",
                    "value": ""
                },
                "school": {
                    "value": "evocation"
                },
                "secondarycasters": {
                    "value": ""
                },
                "secondarycheck": {
                    "value": ""
                },
                "slug": "telekinetic-haul",
                "source": {
                    "value": ""
                },
                "spellType": {
                    "value": "utility"
                },
                "sustained": {
                    "value": false
                },
                "target": {
                    "value": "1 unattended object of up to 80 Bulk with no dimension longer than 20 feet"
                },
                "time": {
                    "value": "2"
                },
                "traditions": {
                    "value": [
                        "arcane",
                        "occult"
                    ]
                },
                "traits": {
                    "custom": "",
                    "rarity": {
                        "value": "common"
                    },
                    "value": []
                }
            },
            "effects": [],
            "flags": {
                "core": {
                    "sourceId": "Compendium.pf2e.spells-srd.tpLTLbJUrYcMWGld"
                }
            },
            "img": "systems/pf2e/icons/spells/telekinetic-haul.webp",
            "name": "Telekinetic Haul",
            "sort": 600000,
            "type": "spell"
        },
        {
            "_id": "rtK4t1uQidMPsREc",
            "data": {
                "ability": {
                    "value": ""
                },
                "area": {
                    "areaType": "",
                    "value": null
                },
                "areasize": {
                    "value": ""
                },
                "autoHeightenLevel": {
                    "value": null
                },
                "category": {
                    "value": "spell"
                },
                "components": {
                    "material": false,
                    "somatic": true,
                    "verbal": true
                },
                "cost": {
                    "value": ""
                },
                "damage": {
                    "value": {}
                },
                "description": {
                    "value": "<p>With a rush of telekinetic power, you move a foe or something they carry. You can attempt to Disarm, Shove, or Trip the target using a spell attack roll instead of an Athletics check.</p>"
                },
                "duration": {
                    "value": ""
                },
                "hasCounteractCheck": {
                    "value": false
                },
                "level": {
                    "value": 5
                },
                "location": {
                    "value": "UdC53mxC7Q74YklK"
                },
                "materials": {
                    "value": ""
                },
                "prepared": {
                    "value": ""
                },
                "primarycheck": {
                    "value": ""
                },
                "range": {
                    "value": "60 feet"
                },
                "rules": [],
                "save": {
                    "basic": "",
                    "value": ""
                },
                "school": {
                    "value": "evocation"
                },
                "secondarycasters": {
                    "value": ""
                },
                "secondarycheck": {
                    "value": ""
                },
                "slug": "telekinetic-maneuver",
                "source": {
                    "value": ""
                },
                "spellType": {
                    "value": "attack"
                },
                "sustained": {
                    "value": false
                },
                "target": {
                    "value": "1 creature"
                },
                "time": {
                    "value": "2"
                },
                "traditions": {
                    "value": [
                        "arcane",
                        "occult"
                    ]
                },
                "traits": {
                    "custom": "",
                    "rarity": {
                        "value": "common"
                    },
                    "value": [
                        "attack",
                        "force"
                    ]
                }
            },
            "effects": [],
            "flags": {
                "core": {
                    "sourceId": "Compendium.pf2e.spells-srd.mrDi3v933gsmnw25"
                }
            },
            "img": "systems/pf2e/icons/spells/telekinetic-maneuver.webp",
            "name": "Telekinetic Maneuver",
            "sort": 700000,
            "type": "spell"
        },
        {
            "_id": "YCRB75Hres1JPlIu",
            "data": {
                "ability": {
                    "value": ""
                },
                "area": {
                    "areaType": "",
                    "value": null
                },
                "areasize": {
                    "value": ""
                },
                "autoHeightenLevel": {
                    "value": null
                },
                "category": {
                    "value": "spell"
                },
                "components": {
                    "material": false,
                    "somatic": true,
                    "verbal": true
                },
                "cost": {
                    "value": ""
                },
                "damage": {
                    "value": {}
                },
                "description": {
                    "value": "<p>Whenever you speak or make any other sound vocally, you can make your vocalization seem to originate from somewhere else within 60 feet, and you can change that apparent location freely as you vocalize. Any creature that hears the sound can attempt to disbelieve your illusion.</p>\n<hr />\n<p><strong>Heightened (+2)</strong> The spell's duration increases to 1 hour, and you can also change the tone, quality, and other aspects of your voice. Before a creature can attempt to disbelieve your illusion, it must actively attempt a Perception check or otherwise use actions to interact with the sound.</p>"
                },
                "duration": {
                    "value": "1 hour"
                },
                "hasCounteractCheck": {
                    "value": false
                },
                "level": {
                    "value": 5
                },
                "location": {
                    "value": "UdC53mxC7Q74YklK"
                },
                "materials": {
                    "value": ""
                },
                "prepared": {
                    "value": ""
                },
                "primarycheck": {
                    "value": ""
                },
                "range": {
                    "value": ""
                },
                "rules": [],
                "save": {
                    "basic": "",
                    "value": ""
                },
                "school": {
                    "value": "illusion"
                },
                "secondarycasters": {
                    "value": ""
                },
                "secondarycheck": {
                    "value": ""
                },
                "slug": "ventriloquism",
                "source": {
                    "value": ""
                },
                "spellType": {
                    "value": "utility"
                },
                "sustained": {
                    "value": false
                },
                "target": {
                    "value": ""
                },
                "time": {
                    "value": "2"
                },
                "traditions": {
                    "value": [
                        "arcane",
                        "divine",
                        "occult",
                        "primal"
                    ]
                },
                "traits": {
                    "custom": "",
                    "rarity": {
                        "value": "common"
                    },
                    "value": [
                        "auditory"
                    ]
                }
            },
            "effects": [],
            "flags": {
                "core": {
                    "sourceId": "Compendium.pf2e.spells-srd.yV7Ouzaoe7DHLESI"
                }
            },
            "img": "systems/pf2e/icons/spells/ventriloquism.webp",
            "name": "Ventriloquism (At Will)",
            "sort": 800000,
            "type": "spell"
        },
        {
            "_id": "VHbwkfu9eQov7UlK",
            "data": {
                "ability": {
                    "value": ""
                },
                "area": {
                    "areaType": "",
                    "value": null
                },
                "areasize": {
                    "value": ""
                },
                "autoHeightenLevel": {
                    "value": null
                },
                "category": {
                    "value": "spell"
                },
                "components": {
                    "material": false,
                    "somatic": true,
                    "verbal": true
                },
                "cost": {
                    "value": ""
                },
                "damage": {
                    "value": {}
                },
                "description": {
                    "value": "<p>You create an auditory illusion of simple sounds that has a maximum volume equal to four normal humans shouting. The sounds emanate from a square you designate within range. You can't create intelligible words or other intricate sounds (such as music).</p>\n<hr />\n<p><strong>Heightened (3rd)</strong> The range increases to 60 feet.</p>\n<p><strong>Heightened (5th)</strong> The range increases to 120 feet.</p>"
                },
                "duration": {
                    "value": "sustained"
                },
                "hasCounteractCheck": {
                    "value": false
                },
                "level": {
                    "value": 1
                },
                "location": {
                    "value": "UdC53mxC7Q74YklK"
                },
                "materials": {
                    "value": ""
                },
                "prepared": {
                    "value": ""
                },
                "primarycheck": {
                    "value": ""
                },
                "range": {
                    "value": "30 feet"
                },
                "rules": [],
                "save": {
                    "basic": "",
                    "value": ""
                },
                "school": {
                    "value": "illusion"
                },
                "secondarycasters": {
                    "value": ""
                },
                "secondarycheck": {
                    "value": ""
                },
                "slug": "ghost-sound",
                "source": {
                    "value": ""
                },
                "spellType": {
                    "value": "utility"
                },
                "sustained": {
                    "value": false
                },
                "target": {
                    "value": ""
                },
                "time": {
                    "value": "2"
                },
                "traditions": {
                    "value": [
                        "arcane",
                        "occult"
                    ]
                },
                "traits": {
                    "custom": "",
                    "rarity": {
                        "value": "common"
                    },
                    "value": [
                        "auditory",
                        "cantrip"
                    ]
                }
            },
            "effects": [],
            "flags": {
                "core": {
                    "sourceId": "Compendium.pf2e.spells-srd.atlgGNI1E1Ox3O3a"
                }
            },
            "img": "systems/pf2e/icons/spells/ghost-sound.webp",
            "name": "Ghost Sound",
            "sort": 900000,
            "type": "spell"
        },
        {
            "_id": "68WSBOTS4Q0cdx88",
            "data": {
                "ability": {
                    "value": ""
                },
                "area": {
                    "areaType": "",
                    "value": null
                },
                "areasize": {
                    "value": ""
                },
                "autoHeightenLevel": {
                    "value": null
                },
                "category": {
                    "value": "spell"
                },
                "components": {
                    "material": false,
                    "somatic": true,
                    "verbal": true
                },
                "cost": {
                    "value": ""
                },
                "damage": {
                    "value": {}
                },
                "description": {
                    "value": "<p>You create a single magical hand, either invisible or ghostlike, that grasps the target object and moves it slowly up to 20 feet. Because you're levitating the object, you can move it in any direction. When you Sustain the Spell, you can move the object an additional 20 feet. If the object is in the air when the spell ends, the object falls.</p>\n<hr />\n<p><strong>Heightened (3rd)</strong> You can target an unattended object with a Bulk of 1 or less.</p>\n<p><strong>Heightened (5th)</strong> The range increases to 60 feet, and you can target an unattended object with a Bulk of 1 or less.</p>\n<p><strong>Heightened (7th)</strong> The range increases to 60 feet, and you can target an unattended object with a Bulk of 2 or less.</p>"
                },
                "duration": {
                    "value": "sustained"
                },
                "hasCounteractCheck": {
                    "value": false
                },
                "level": {
                    "value": 1
                },
                "location": {
                    "value": "UdC53mxC7Q74YklK"
                },
                "materials": {
                    "value": ""
                },
                "prepared": {
                    "value": ""
                },
                "primarycheck": {
                    "value": ""
                },
                "range": {
                    "value": "30 feet"
                },
                "rules": [],
                "save": {
                    "basic": "",
                    "value": ""
                },
                "school": {
                    "value": "evocation"
                },
                "secondarycasters": {
                    "value": ""
                },
                "secondarycheck": {
                    "value": ""
                },
                "slug": "mage-hand",
                "source": {
                    "value": ""
                },
                "spellType": {
                    "value": "utility"
                },
                "sustained": {
                    "value": false
                },
                "target": {
                    "value": "1 unattended object of light Bulk or less"
                },
                "time": {
                    "value": "2"
                },
                "traditions": {
                    "value": [
                        "arcane",
                        "occult"
                    ]
                },
                "traits": {
                    "custom": "",
                    "rarity": {
                        "value": "common"
                    },
                    "value": [
                        "cantrip"
                    ]
                }
            },
            "effects": [],
            "flags": {
                "core": {
                    "sourceId": "Compendium.pf2e.spells-srd.pwzdSlJgYqN7bs2w"
                }
            },
            "img": "systems/pf2e/icons/spells/mage-hand.webp",
            "name": "Mage Hand",
            "sort": 1000000,
            "type": "spell"
        },
        {
            "_id": "DkdUj7zo7tI7BCpF",
            "data": {
                "attack": {
                    "value": ""
                },
                "attackEffects": {
                    "custom": "",
                    "value": [
                        "Shameful Loathing"
                    ]
                },
                "bonus": {
                    "value": 30
                },
                "damageRolls": {
                    "0": {
                        "damage": "3d10+15",
                        "damageType": "piercing"
                    },
                    "liw3ydkpujf7poobgldo": {
                        "damage": "1d10",
                        "damageType": "mental"
                    }
                },
                "description": {
                    "value": ""
                },
                "rules": [],
                "slug": null,
                "source": {
                    "value": ""
                },
                "traits": {
                    "custom": "",
                    "rarity": {
                        "value": "common"
                    },
                    "value": []
                },
                "weaponType": {
                    "value": "melee"
                }
            },
            "effects": [],
            "flags": {},
            "img": "systems/pf2e/icons/default-icons/melee.svg",
            "name": "Jaws",
            "sort": 1100000,
            "type": "melee"
        },
        {
            "_id": "06mT1ZKXqT7oAL0x",
            "data": {
                "attack": {
                    "value": ""
                },
                "attackEffects": {
                    "custom": "",
                    "value": [
                        "grab"
                    ]
                },
                "bonus": {
                    "value": 30
                },
                "damageRolls": {
                    "0": {
                        "damage": "3d10+15",
                        "damageType": "slashing"
                    }
                },
                "description": {
                    "value": ""
                },
                "rules": [],
                "slug": null,
                "source": {
                    "value": ""
                },
                "traits": {
                    "custom": "",
                    "rarity": {
                        "value": "common"
                    },
                    "value": [
                        "agile"
                    ]
                },
                "weaponType": {
                    "value": "melee"
                }
            },
            "effects": [],
            "flags": {},
            "img": "systems/pf2e/icons/default-icons/melee.svg",
            "name": "Talon",
            "sort": 1200000,
            "type": "melee"
        },
        {
            "_id": "kpB9dRBV5LWoW0uG",
            "data": {
                "actionCategory": {
                    "value": "interaction"
                },
                "actionType": {
                    "value": "passive"
                },
                "actions": {
                    "value": null
                },
                "description": {
                    "value": "<p>A monster with darkvision can see perfectly well in areas of darkness and dim light, though such vision is in black and white only. Some forms of magical darkness, such as a 4th-level @Compendium[pf2e.spells-srd.Darkness]{Darkness} spell, block normal darkvision. A monster with @Compendium[pf2e.bestiary-ability-glossary-srd.Greater Darkvision]{Greater Darkvision}, however, can see through even these forms of magical darkness.</p>"
                },
                "requirements": {
                    "value": ""
                },
                "rules": [],
                "slug": "darkvision",
                "source": {
                    "value": ""
                },
                "traits": {
                    "custom": "",
                    "rarity": {
                        "value": "common"
                    },
                    "value": []
                },
                "trigger": {
                    "value": ""
                },
                "weapon": {
                    "value": ""
                }
            },
            "effects": [],
            "flags": {
                "core": {
                    "sourceId": "Compendium.pf2e.bestiary-ability-glossary-srd.qCCLZhnp2HhP3Ex6"
                }
            },
            "img": "systems/pf2e/icons/default-icons/action.svg",
            "name": "Darkvision",
            "sort": 1300000,
            "type": "action"
        },
        {
            "_id": "HJT5NvgiIrqOYp97",
            "data": {
                "actionCategory": {
                    "value": "interaction"
                },
                "actionType": {
                    "value": "passive"
                },
                "actions": {
                    "value": null
                },
                "description": {
                    "value": "<p>Scent involves sensing creatures or objects by smell, and is usually a vague sense. The range is listed in the ability, and it functions only if the creature or object being detected emits an aroma (for instance, incorporeal creatures usually do not exude an aroma).</p>\n<p>If a creature emits a heavy aroma or is upwind, the GM can double or even triple the range of scent abilities used to detect that creature, and the GM can reduce the range if a creature is downwind.</p>"
                },
                "requirements": {
                    "value": ""
                },
                "rules": [],
                "slug": "scent",
                "source": {
                    "value": ""
                },
                "traits": {
                    "custom": "",
                    "rarity": {
                        "value": "common"
                    },
                    "value": []
                },
                "trigger": {
                    "value": ""
                },
                "weapon": {
                    "value": ""
                }
            },
            "effects": [],
            "flags": {
                "core": {
                    "sourceId": "Compendium.pf2e.bestiary-ability-glossary-srd.rqfnQ5VHT5hxm25r"
                }
            },
            "img": "systems/pf2e/icons/default-icons/mystery-man.svg",
            "name": "Scent (Imprecise) 60 Feet",
            "sort": 1400000,
            "type": "action"
        },
        {
            "_id": "WgefMvFrdC4a4wjm",
            "data": {
                "actionCategory": {
                    "value": "interaction"
                },
                "actionType": {
                    "value": "passive"
                },
                "actions": {
                    "value": null
                },
                "description": {
                    "value": "<p>The monster can cast its at-will spells any number of times without using up spell slots.</p>"
                },
                "requirements": {
                    "value": ""
                },
                "rules": [],
                "slug": "at-will-spells",
                "source": {
                    "value": ""
                },
                "traits": {
                    "custom": "",
                    "rarity": {
                        "value": "common"
                    },
                    "value": []
                },
                "trigger": {
                    "value": ""
                },
                "weapon": {
                    "value": ""
                }
            },
            "effects": [],
            "flags": {
                "core": {
                    "sourceId": "Compendium.pf2e.bestiary-ability-glossary-srd.2YRDYVnC1eljaXKK"
                }
            },
            "img": "systems/pf2e/icons/default-icons/mystery-man.svg",
            "name": "At-Will Spells",
            "sort": 1500000,
            "type": "action"
        },
        {
            "_id": "NX0pJgKM21qtQACy",
            "data": {
                "actionCategory": {
                    "value": "defensive"
                },
                "actionType": {
                    "value": "passive"
                },
                "actions": {
                    "value": null
                },
                "description": {
                    "value": "<p>30 feet. @Compendium[pf2e.bestiary-ability-glossary-srd.Aura]{Aura}</p>\n<p>A creature entering the aura or starting its turn in the aura must succeed at a <span data-pf2-check=\"fortitude\" data-pf2-dc=\"34\" data-pf2-traits=\"aura,olfactory\" data-pf2-label=\"Stench DC\" data-pf2-show-dc=\"gm\">Fortitude</span> save or become @Compendium[pf2e.conditionitems.Sickened]{Sickened 1} (plus @Compendium[pf2e.conditionitems.Slowed]{Slowed 1} for as long as it's sickened on a critical failure).</p>\n<p>While within the aura, affected creatures take a -2 circumstance penalty to saves against disease and to recover from the sickened condition.</p>\n<p>A creature that succeeds at its save is temporarily immune for 1 minute.</p>"
                },
                "requirements": {
                    "value": ""
                },
                "rules": [],
                "slug": null,
                "source": {
                    "value": ""
                },
                "traits": {
                    "custom": "",
                    "rarity": {
                        "value": "common"
                    },
                    "value": [
                        "aura",
                        "olfactory"
                    ]
                },
                "trigger": {
                    "value": ""
                },
                "weapon": {
                    "value": ""
                }
            },
            "effects": [],
            "flags": {},
            "img": "systems/pf2e/icons/default-icons/mystery-man.svg",
            "name": "Stench",
            "sort": 1600000,
            "type": "action"
        },
        {
            "_id": "nHC6WGYqix3arWBf",
            "data": {
                "actionCategory": {
                    "value": "offensive"
                },
                "actionType": {
                    "value": "action"
                },
                "actions": {
                    "value": 1
                },
                "description": {
                    "value": "<p><strong>Frequency</strong> once per round;</p>\n<p><strong>Effect</strong> The popobawa draws strength from the suffering of others. It regains [[/r 10]] Hit Points for each enemy within 30 feet that has one of the following conditions, to a maximum of 40 Hit Points:</p>\n<ul>\n<li>confused,</li>\n<li>doomed,</li>\n<li>dying,</li>\n<li>enfeebled,</li>\n<li>fatigued,</li>\n<li>frightened,</li>\n<li>sickened,</li>\n<li>slowed,</li>\n<li>stunned,</li>\n<li>stupefied, or</li>\n<li>wounded.</li>\n</ul>"
                },
                "requirements": {
                    "value": ""
                },
                "rules": [],
                "slug": null,
                "source": {
                    "value": ""
                },
                "traits": {
                    "custom": "",
                    "rarity": {
                        "value": "common"
                    },
                    "value": [
                        "concentrate",
                        "healing",
                        "necromancy",
                        "occult",
                        "positive"
                    ]
                },
                "trigger": {
                    "value": ""
                },
                "weapon": {
                    "value": ""
                }
            },
            "effects": [],
            "flags": {},
            "img": "systems/pf2e/icons/actions/OneAction.webp",
            "name": "Feed on Sorrow",
            "sort": 1700000,
            "type": "action"
        },
        {
            "_id": "ScsosKeNG0BlbPN5",
            "data": {
                "actionCategory": {
                    "value": "offensive"
                },
                "actionType": {
                    "value": "free"
                },
                "actions": {
                    "value": null
                },
                "description": {
                    "value": "<p><strong>Trigger</strong> The popobawa moves an object with @Compendium[pf2e.spells-srd.Mage Hand]{Mage Hand} or @Compendium[pf2e.spells-srd.Telekinetic Haul]{Telekinetic Haul}<em>,</em> controls a creature with @Compendium[pf2e.spells-srd.Dominate]{Dominate}, or casts @Compendium[pf2e.spells-srd.Animated Assault]{Animated Assault};</p>\n<p><strong>Effect</strong> The popobawa casts @Compendium[pf2e.spells-srd.Ghost Sound]{Ghost Sound} or @Compendium[pf2e.spells-srd.Ventriloquism]{Ventriloquism}, with the sound originating from the target or area of the spell.</p>"
                },
                "requirements": {
                    "value": ""
                },
                "rules": [],
                "slug": null,
                "source": {
                    "value": ""
                },
                "traits": {
                    "custom": "",
                    "rarity": {
                        "value": "common"
                    },
                    "value": []
                },
                "trigger": {
                    "value": ""
                },
                "weapon": {
                    "value": ""
                }
            },
            "effects": [],
            "flags": {},
            "img": "systems/pf2e/icons/actions/FreeAction.webp",
            "name": "Hallucinatory Haunting",
            "sort": 1800000,
            "type": "action"
        },
        {
            "_id": "eZ5EIf8w0pc83e2W",
            "data": {
                "actionCategory": {
                    "value": "offensive"
                },
                "actionType": {
                    "value": "passive"
                },
                "actions": {
                    "value": null
                },
                "description": {
                    "value": "<p>A creature damaged by the popobawa's jaws is overcome with shame and self-hatred and must attempt a <span data-pf2-check=\"will\" data-pf2-dc=\"36\" data-pf2-traits=\"curse,emotion,enchantment,mental,occult\" data-pf2-label=\"Shameful Loathing DC\" data-pf2-show-dc=\"gm\">Will</span> save.</p>\n<p><strong>Success</strong> The target is unaffected.</p>\n<p><strong>Failure</strong> The target becomes @Compendium[pf2e.conditionitems.Stupefied]{Stupefied 1} until the curse is removed.</p>\n<p><strong>Critical Failure</strong> As failure, but the target is also @Compendium[pf2e.conditionitems.Doomed]{Doomed 1}.</p>"
                },
                "requirements": {
                    "value": ""
                },
                "rules": [],
                "slug": null,
                "source": {
                    "value": ""
                },
                "traits": {
                    "custom": "",
                    "rarity": {
                        "value": "common"
                    },
                    "value": [
                        "curse",
                        "emotion",
                        "enchantment",
                        "mental",
                        "occult"
                    ]
                },
                "trigger": {
                    "value": ""
                },
                "weapon": {
                    "value": ""
                }
            },
            "effects": [],
            "flags": {},
            "img": "systems/pf2e/icons/default-icons/mystery-man.svg",
            "name": "Shameful Loathing",
            "sort": 1900000,
            "type": "action"
        },
        {
            "_id": "zPU1mG2FJpTt19Z0",
            "data": {
                "actionCategory": {
                    "value": "offensive"
                },
                "actionType": {
                    "value": "action"
                },
                "actions": {
                    "value": 1
                },
                "description": {
                    "value": "<p><span style=\"color: var(--body);\">The popobawa can take on the appearance of a human or a Small or Medium bat. It loses its stench aura while transformed. In human form it also loses its Strikes but can make fist Strikes that deal the same amount of bludgeoning damage as its talon Strike.</span></p>\n<hr />\n<p>The monster changes its shape indefinitely. It can use this action again to return to its natural shape or adopt a new shape. Unless otherwise noted, a monster cannot use Change Shape to appear as a specific individual. Using Change Shape counts as creating a disguise for the @Compendium[pf2e.actionspf2e.Impersonate]{Impersonate} use of Deception. The monster's transformation automatically defeats Perception DCs to determine whether the creature is a member of the ancestry or creature type into which it transformed, and it gains a +4 status bonus to its Deception DC to prevent others from seeing through its disguise. Change Shape abilities specify what shapes the monster can adopt. The monster doesn't gain any special abilities of the new shape, only its physical form. For example, in each shape, it replaces its normal Speeds and Strikes, and might potentially change its senses or size. Any changes are listed in its stat block.</p>"
                },
                "requirements": {
                    "value": ""
                },
                "rules": [],
                "slug": "change-shape",
                "source": {
                    "value": ""
                },
                "traits": {
                    "custom": "[magical tradition]",
                    "rarity": {
                        "value": "common"
                    },
                    "value": [
                        "concentrate",
                        "occult",
                        "polymorph",
                        "transmutation"
                    ]
                },
                "trigger": {
                    "value": ""
                },
                "weapon": {
                    "value": ""
                }
            },
            "effects": [],
            "flags": {
                "core": {
                    "sourceId": "Compendium.pf2e.bestiary-ability-glossary-srd.eQM5hQ1W3d1uen97"
                }
            },
            "img": "systems/pf2e/icons/actions/OneAction.webp",
            "name": "Change Shape",
            "sort": 2000000,
            "type": "action"
        },
        {
            "_id": "Cw4UJYMkN1OxnJo9",
            "data": {
                "actionCategory": {
                    "value": "offensive"
                },
                "actionType": {
                    "value": "action"
                },
                "actions": {
                    "value": 1
                },
                "description": {
                    "value": "<p><strong>Requirements</strong> The monster's last action was a success with a Strike that lists Grab in its damage entry, or it has a creature grabbed using this action.</p>\n<p><strong>Effect</strong> The monster automatically Grabs the target until the end of the monster's next turn. The creature is @Compendium[pf2e.conditionitems.Grabbed]{Grabbed} by whichever body part the monster attacked with, and that body part can't be used to Strike creatures until the grab is ended. Using Grab extends the duration of the monster's Grab until the end of its next turn for all creatures grabbed by it. A grabbed creature can use the @Compendium[pf2e.actionspf2e.Escape]{Escape} action to get out of the grab, and the Grab ends for a grabbed creatures if the monster moves away from it.</p>"
                },
                "requirements": {
                    "value": ""
                },
                "rules": [],
                "slug": "grab",
                "source": {
                    "value": ""
                },
                "traits": {
                    "custom": "",
                    "rarity": {
                        "value": "common"
                    },
                    "value": []
                },
                "trigger": {
                    "value": ""
                },
                "weapon": {
                    "value": ""
                }
            },
            "effects": [],
            "flags": {
                "core": {
                    "sourceId": "Compendium.pf2e.bestiary-ability-glossary-srd.Tkd8sH4pwFIPzqTr"
                }
            },
            "img": "systems/pf2e/icons/actions/OneAction.webp",
            "name": "Grab",
            "sort": 2100000,
            "type": "action"
        },
        {
            "_id": "XnJiBEkfLYpKxgcy",
            "data": {
                "description": {
                    "value": ""
                },
                "item": {
                    "value": 0
                },
                "mod": {
                    "value": 24
                },
                "proficient": {
                    "value": 0
                },
                "rules": [],
                "slug": null,
                "source": {
                    "value": ""
                },
                "traits": {
                    "custom": "",
                    "rarity": {
                        "value": "common"
                    },
                    "value": []
                }
            },
            "effects": [],
            "flags": {},
            "img": "systems/pf2e/icons/default-icons/lore.svg",
            "name": "Acrobatics",
            "sort": 2200000,
            "type": "lore"
        },
        {
            "_id": "byEBcNB4RSvmAqg4",
            "data": {
                "description": {
                    "value": ""
                },
                "item": {
                    "value": 0
                },
                "mod": {
                    "value": 26
                },
                "proficient": {
                    "value": 0
                },
                "rules": [],
                "slug": null,
                "source": {
                    "value": ""
                },
                "traits": {
                    "custom": "",
                    "rarity": {
                        "value": "common"
                    },
                    "value": []
                }
            },
            "effects": [],
            "flags": {},
            "img": "systems/pf2e/icons/default-icons/lore.svg",
            "name": "Athletics",
            "sort": 2300000,
            "type": "lore"
        },
        {
            "_id": "ooMSDo4wJWvg4rGS",
            "data": {
                "description": {
                    "value": ""
                },
                "item": {
                    "value": 0
                },
                "mod": {
                    "value": 29
                },
                "proficient": {
                    "value": 0
                },
                "rules": [],
                "slug": null,
                "source": {
                    "value": ""
                },
                "traits": {
                    "custom": "",
                    "rarity": {
                        "value": "common"
                    },
                    "value": []
                }
            },
            "effects": [],
            "flags": {},
            "img": "systems/pf2e/icons/default-icons/lore.svg",
            "name": "Deception",
            "sort": 2400000,
            "type": "lore"
        },
        {
            "_id": "AlngvdcIezSpR0Jb",
            "data": {
                "description": {
                    "value": ""
                },
                "item": {
                    "value": 0
                },
                "mod": {
                    "value": 29
                },
                "proficient": {
                    "value": 0
                },
                "rules": [],
                "slug": null,
                "source": {
                    "value": ""
                },
                "traits": {
                    "custom": "",
                    "rarity": {
                        "value": "common"
                    },
                    "value": []
                }
            },
            "effects": [],
            "flags": {},
            "img": "systems/pf2e/icons/default-icons/lore.svg",
            "name": "Intimidation",
            "sort": 2500000,
            "type": "lore"
        },
        {
            "_id": "uUe3OiXyQgpCeszE",
            "data": {
                "description": {
                    "value": ""
                },
                "item": {
                    "value": 0
                },
                "mod": {
                    "value": 24
                },
                "proficient": {
                    "value": 0
                },
                "rules": [],
                "slug": null,
                "source": {
                    "value": ""
                },
                "traits": {
                    "custom": "",
                    "rarity": {
                        "value": "common"
                    },
                    "value": []
                }
            },
            "effects": [],
            "flags": {},
            "img": "systems/pf2e/icons/default-icons/lore.svg",
            "name": "Lore (its home settlement or country)",
            "sort": 2600000,
            "type": "lore"
        },
        {
            "_id": "JeBchXgGGQYFEA54",
            "data": {
                "description": {
                    "value": ""
                },
                "item": {
                    "value": 0
                },
                "mod": {
                    "value": 22
                },
                "proficient": {
                    "value": 0
                },
                "rules": [],
                "slug": null,
                "source": {
                    "value": ""
                },
                "traits": {
                    "custom": "",
                    "rarity": {
                        "value": "common"
                    },
                    "value": []
                }
            },
            "effects": [],
            "flags": {},
            "img": "systems/pf2e/icons/default-icons/lore.svg",
            "name": "Occultism",
            "sort": 2700000,
            "type": "lore"
        },
        {
            "_id": "rvev1PgeBqhdTUhc",
            "data": {
                "description": {
                    "value": ""
                },
                "item": {
                    "value": 0
                },
                "mod": {
                    "value": 26
                },
                "proficient": {
                    "value": 0
                },
                "rules": [],
                "slug": null,
                "source": {
                    "value": ""
                },
                "traits": {
                    "custom": "",
                    "rarity": {
                        "value": "common"
                    },
                    "value": []
                }
            },
            "effects": [],
            "flags": {},
            "img": "systems/pf2e/icons/default-icons/lore.svg",
            "name": "Stealth",
            "sort": 2800000,
            "type": "lore"
        }
    ],
    "name": "Popobawa",
    "token": {
        "disposition": -1,
        "height": 1,
        "img": "systems/pf2e/icons/default-icons/npc.svg",
        "name": "Popobawa",
        "width": 1
    },
    "type": "npc"
}
