{
    "_id": "fqZhojt2M5LfSKSH",
    "data": {
        "actionCategory": {
            "value": "offensive"
        },
        "actionType": {
            "value": "free"
        },
        "actions": {
            "value": null
        },
        "description": {
            "value": "<p data-visibility=\"gm\"><strong>Frequency</strong> once per day;</p>\n<p><strong>Effect</strong> The lich taps into its phylactery's power to cast any arcane spell up to the highest level the lich can cast, even if the spell being cast is not one of the lich's prepared spells.</p>\n<p data-visibility=\"gm\">The lich's phylactery doesn't need to be present for the lich to use this ability.</p>"
        },
        "requirements": {
            "value": ""
        },
        "rules": [],
        "source": {
            "value": "Pathfinder Bestiary"
        },
        "traits": {
            "custom": "",
            "rarity": {
                "value": "common"
            },
            "value": []
        },
        "trigger": {
            "value": ""
        },
        "weapon": {
            "value": ""
        }
    },
    "effects": [],
    "flags": {},
    "img": "systems/pf2e/icons/actions/FreeAction.webp",
    "name": "(Lich) Drain Phylactery",
    "type": "action"
}
