{
    "_id": "K5bNE90vmeFzktnM",
    "data": {
        "actionCategory": {
            "value": "defensive"
        },
        "actionType": {
            "value": "reaction"
        },
        "actions": {
            "value": null
        },
        "description": {
            "value": "<p><strong>Trigger</strong> The skeleton is critically hit.</p>\n<p><strong>Effect</strong> The skeleton collapses into a pile of bones and the attack deals only normal damage. The skeleton can reform in a standing position as an action, but until it does, it is @Compendium[pf2e.conditionitems.Immobilized]{Immobilized} and @Compendium[pf2e.conditionitems.Flat-Footed]{Flat-Footed}.</p>"
        },
        "requirements": {
            "value": ""
        },
        "rules": [],
        "source": {
            "value": "Pathfinder Bestiary"
        },
        "traits": {
            "custom": "",
            "rarity": {
                "value": "common"
            },
            "value": []
        },
        "trigger": {
            "value": ""
        },
        "weapon": {
            "value": ""
        }
    },
    "effects": [],
    "flags": {},
    "img": "systems/pf2e/icons/actions/Reaction.webp",
    "name": "(Skeleton) Collapse",
    "type": "action"
}
