{
    "_id": "I75R9NSfsVrit6cU",
    "data": {
        "actionCategory": {
            "value": "interaction"
        },
        "actionType": {
            "value": "passive"
        },
        "actions": {
            "value": null
        },
        "description": {
            "value": "<p><strong>Requirements</strong> You are an initiate, attendant, or conversant, and your branch level for either your primary or secondary branch is 2 or more levels below the limit.</p>\n<hr />\n<p>Realizing that you're falling behind in your studies, you cram more than you probably should. You Study twice, each in a branch that satisfies the activity requirements. However, the extra studying comes at a price. Until the next time you take the Study downtime activity, you're particularly tired from all the extra hours cramming; at the start of each day of adventuring, you must succeed at a <span data-pf2-check=\"flat\" data-pf2-dc=\"8\">DC 8 flat check</span> or be @Compendium[pf2e.conditionitems.Fatigued]{Fatigued} for that day.</p>"
        },
        "requirements": {
            "value": ""
        },
        "rules": [],
        "source": {
            "value": "Pathfinder Adventure #169: Kindled Magic"
        },
        "traits": {
            "custom": "",
            "rarity": {
                "value": "common"
            },
            "value": [
                "downtime"
            ]
        },
        "trigger": {
            "value": ""
        },
        "weapon": {
            "value": ""
        }
    },
    "effects": [],
    "flags": {},
    "img": "systems/pf2e/icons/actions/Passive.webp",
    "name": "Cram",
    "type": "action"
}
