{
    "_id": "CrUPaPlsxy2bswaT",
    "data": {
        "actionCategory": {
            "value": ""
        },
        "actionType": {
            "value": "action"
        },
        "actions": {
            "value": 1
        },
        "description": {
            "value": "<p><strong>Requirements</strong> The companion's last action was a successful Performance check to @Compendium[pf2e.actionspf2e.Perform]{Perform}. The companion maintains its performance to captivate a single target within 30 feet that witnessed its successful performance. The target must attempt a Will save.</p>\n<hr />\n<p><strong>Success</strong> The target is unaffected and temporarily immune for 1 hour.</p>\n<p><strong>Failure</strong> The target is @Compendium[pf2e.conditionitems.Fascinated]{Fascinated} by the companion for its next action and then is temporarily immune for 1 hour.</p>\n<p><strong>Critical Failure</strong> The target is fascinated by the companion for 1 round. While it remains fascinated, it can't use reactions.</p>"
        },
        "requirements": {
            "value": ""
        },
        "rules": [],
        "source": {
            "value": "Pathfinder #152: Legacy of the Lost God"
        },
        "traits": {
            "custom": "",
            "rarity": {
                "value": "common"
            },
            "value": [
                "concentrate",
                "emotion"
            ]
        },
        "trigger": {
            "value": ""
        },
        "weapon": {
            "value": ""
        }
    },
    "effects": [],
    "flags": {},
    "img": "systems/pf2e/icons/actions/OneAction.webp",
    "name": "Mesmerizing Performance",
    "type": "action"
}
