{
    "_id": "VCUz5EnBUJF07j1a",
    "data": {
        "actionCategory": {
            "value": "defensive"
        },
        "actionType": {
            "value": "reaction"
        },
        "actions": {
            "value": null
        },
        "description": {
            "value": "<p><strong>Trigger</strong> Your eidolon takes damage that would bring you to 0 Hit Points and comes from an effect other than a death effect;</p>\n<p><strong>Effect</strong> You quickly shut the buffer in your link with your eidolon, causing your bonded ally to wink out of existence before you can be laid low. Your eidolon unmanifests, and you can't Manifest your Eidolon for 1 minute. In exchange, you don't take the triggering damage, though your eidolon still suffers any other adverse effects that accompanied the damage.</p>"
        },
        "requirements": {
            "value": ""
        },
        "rules": [],
        "source": {
            "value": ""
        },
        "traits": {
            "custom": "",
            "rarity": {
                "value": "common"
            },
            "value": [
                "concentrate"
            ]
        },
        "trigger": {
            "value": ""
        },
        "weapon": {
            "value": ""
        }
    },
    "effects": [],
    "flags": {},
    "img": "systems/pf2e/icons/actions/Reaction.webp",
    "name": "Sever Conduit",
    "type": "action"
}
