{
    "_id": "W4M8L9WepGLamlHs",
    "data": {
        "actionCategory": {
            "value": ""
        },
        "actionType": {
            "value": "action"
        },
        "actions": {
            "value": 2
        },
        "description": {
            "value": "<p>You Stride to be adjacent to a foe and @Compendium[pf2e.actionspf2e.Demoralize]{Demoralize} that foe. If you succeed, the foe is @Compendium[pf2e.conditionitems.Frightened]{Frightened 2} instead of frightened 1.</p>"
        },
        "requirements": {
            "value": ""
        },
        "rules": [],
        "source": {
            "value": ""
        },
        "traits": {
            "custom": "",
            "rarity": {
                "value": "common"
            },
            "value": []
        },
        "trigger": {
            "value": ""
        },
        "weapon": {
            "value": ""
        }
    },
    "effects": [],
    "flags": {},
    "img": "systems/pf2e/icons/actions/TwoActions.webp",
    "name": "Threatening Approach",
    "type": "action"
}
