{
    "_id": "s95P3L72BDKvzYhn",
    "data": {
        "description": {
            "value": "<p>This curse magically speeds poison through your body.</p>\n<p data-visibility=\"gm\"><strong>Effect</strong> You take a -1 status penalty to Fortitude saves and you gain weakness 3 to poison (if you already have weakness to poison, increase it by 3). The curse remains until removed by <em>@Compendium[pf2e.spells-srd.Remove Curse]{Remove Curse}</em> or similar magic.</p>"
        },
        "duration": {
            "expiry": "turn-start",
            "sustained": false,
            "unit": "unlimited",
            "value": -1
        },
        "level": {
            "value": 1
        },
        "rules": [
            {
                "key": "FlatModifier",
                "label": "Curse of Potent Poison",
                "selector": "fortitude",
                "type": "status",
                "value": -1
            }
        ],
        "source": {
            "value": ""
        },
        "start": {
            "initiative": null,
            "value": 0
        },
        "target": null,
        "tokenIcon": {
            "show": true
        },
        "traits": {
            "custom": "",
            "rarity": {
                "value": "common"
            },
            "value": []
        }
    },
    "effects": [],
    "flags": {},
    "img": "systems/pf2e/icons/default-icons/effect.svg",
    "name": "Effect: Curse of Potent Poison",
    "type": "effect"
}
