{
    "_id": "zY7cemRcFD2zAVbC",
    "data": {
        "description": {
            "value": "<p style=\"margin-top: var(--p-space); max-width: min(90%,var(--max-width)); width: 340.188px;\"><strong>Activate</strong> <span class=\"pf2-icon\">1</span> command;</p>\n<p style=\"margin-top: var(--p-space); max-width: min(90%,var(--max-width)); width: 340.188px;\"><strong>Frequency</strong> once per day;</p>\n<p style=\"margin-top: var(--p-space); max-width: min(90%,var(--max-width)); width: 340.188px;\"><strong>Effect</strong> You gain a +1 status bonus to Will saves. Choose a weapon or an unarmed Strike; your chosen attack deals an extra [[/r 1d6 #fire]]{1d6 fire damage} for the next 1 minute.</p>"
        },
        "duration": {
            "expiry": "turn-end",
            "sustained": false,
            "unit": "minutes",
            "value": 1
        },
        "level": {
            "value": 1
        },
        "rules": [
            {
                "key": "FlatModifier",
                "label": "Oath of the Devoted",
                "selector": "will",
                "type": "status",
                "value": 1
            },
            {
                "key": "EffectTarget",
                "scope": "weapon"
            },
            {
                "damageType": "fire",
                "diceNumber": 1,
                "dieSize": "d6",
                "key": "DamageDice",
                "label": "Oath of the Devoted",
                "selector": "{item|data.target}-damage"
            }
        ],
        "source": {
            "value": ""
        },
        "start": {
            "initiative": null,
            "value": 0
        },
        "target": null,
        "tokenIcon": {
            "show": true
        },
        "traits": {
            "custom": "",
            "rarity": {
                "value": "common"
            },
            "value": []
        }
    },
    "effects": [],
    "flags": {},
    "img": "systems/pf2e/icons/default-icons/effect.svg",
    "name": "Effect: Oath of the Devoted",
    "type": "effect"
}
