{
    "_id": "buJnkFBzL4e22ASp",
    "data": {
        "description": {
            "value": "<p>Granted by @Compendium[pf2e.equipment-srd.Gecko Potion]{Gecko Potion}</p>\n<p>Implemented effects:</p>\n<ul>\n<li>+1 item bonus to Athletics checks to @Compendium[pf2e.actionspf2e.Climb]{Climb}</li>\n<li>+1 item bonus to Thievery checks to @Compendium[pf2e.actionspf2e.Palm an Object]{Palm an Object}</li>\n<li>+1 item bonus to Reflex DC against @Compendium[pf2e.actionspf2e.Disarm]{Disarm} attempts</li>\n</ul>"
        },
        "duration": {
            "expiry": "turn-start",
            "sustained": false,
            "unit": "minutes",
            "value": 5
        },
        "level": {
            "value": 1
        },
        "rules": [
            {
                "key": "FlatModifier",
                "label": "Gecko Potion (to Climb)",
                "selector": "athletics",
                "type": "item",
                "value": 1
            },
            {
                "key": "FlatModifier",
                "label": "Gecko Potion (to Palm an Object)",
                "selector": "thievery",
                "type": "item",
                "value": 1
            },
            {
                "key": "FlatModifier",
                "label": "Gecko Potion (vs Disarm)",
                "selector": "reflex",
                "type": "item",
                "value": 1
            }
        ],
        "source": {
            "value": ""
        },
        "start": {
            "initiative": null,
            "value": 0
        },
        "target": null,
        "tokenIcon": {
            "show": true
        },
        "traits": {
            "custom": "",
            "rarity": {
                "value": "common"
            },
            "value": []
        }
    },
    "effects": [],
    "flags": {},
    "img": "systems/pf2e/icons/equipment/consumables/potions/gecko-potion.webp",
    "name": "Effect: Gecko Potion",
    "type": "effect"
}
