{
    "_id": "ClVSyZxWk5L5KVLd",
    "data": {
        "actionCategory": {
            "value": ""
        },
        "actionType": {
            "value": "passive"
        },
        "actions": {
            "value": null
        },
        "description": {
            "value": "<p>Your mind resonates with the inscrutable thought processes that inhuman aberrations use to communicate. You can cast @Compendium[pf2e.spells-srd.Mindlink]{Mindlink} as an innate occult spell once per day, but you can target only aberrations.</p>"
        },
        "featType": {
            "value": "ancestry"
        },
        "level": {
            "value": 1
        },
        "location": "",
        "prerequisites": {
            "value": []
        },
        "rules": [],
        "source": {
            "value": ""
        },
        "traits": {
            "custom": "",
            "rarity": {
                "value": "common"
            },
            "value": [
                "fleshwarp"
            ]
        }
    },
    "effects": [],
    "flags": {},
    "img": "systems/pf2e/icons/features/feats/feats.webp",
    "name": "Aberration Kinship",
    "type": "feat"
}
