{
    "_id": "Ba6SLqAghsZgqhua",
    "data": {
        "actionCategory": {
            "value": ""
        },
        "actionType": {
            "value": "passive"
        },
        "actions": {
            "value": null
        },
        "description": {
            "value": "<p>You easily maneuver against your foes. Your @Compendium[pf2e.actionspf2e.Grapple]{Grapple}, @Compendium[pf2e.actionspf2e.Shove]{Shove}, and @Compendium[pf2e.actionspf2e.Trip]{Trip} actions have a lower multiple attack penalty: -4 instead of -5 if they're the second attack on your turn, or -8 instead of -10 if they're the third or subsequent attack on your turn.</p>"
        },
        "featType": {
            "value": "class"
        },
        "level": {
            "value": 6
        },
        "prerequisites": {
            "value": [
                {
                    "value": "expert in Athletics"
                }
            ]
        },
        "rules": [],
        "source": {
            "value": ""
        },
        "traits": {
            "custom": "",
            "rarity": {
                "value": "common"
            },
            "value": [
                "swashbuckler"
            ]
        }
    },
    "effects": [],
    "flags": {},
    "img": "systems/pf2e/icons/features/feats/feats.webp",
    "name": "Agile Maneuvers",
    "type": "feat"
}
