{
    "_id": "U6lS758rtYGR6aw9",
    "data": {
        "actionCategory": {
            "value": ""
        },
        "actionType": {
            "value": "passive"
        },
        "actions": {
            "value": null
        },
        "description": {
            "value": "<p>Your eidolon adapts to life on land and underwater. It gains the amphibious trait, allowing it to breathe in water and air and to avoid the normal -2 penalty for making bludgeoning and slashing unarmed Strikes underwater. It gains a swim Speed equal to its land Speed or 25 feet, whichever is less; or if it is normally aquatic, it gains a land Speed equal to its swim Speed or 25 feet, whichever is less.</p>"
        },
        "featType": {
            "value": "class"
        },
        "level": {
            "value": 2
        },
        "location": "",
        "prerequisites": {
            "value": []
        },
        "rules": [],
        "source": {
            "value": ""
        },
        "traits": {
            "custom": "",
            "rarity": {
                "value": "common"
            },
            "value": [
                "evolution",
                "summoner"
            ]
        }
    },
    "effects": [],
    "flags": {},
    "img": "systems/pf2e/icons/default-icons/feat.svg",
    "name": "Amphibious Form",
    "type": "feat"
}
