{
    "_id": "lT2sOwC6Pi5P4Yq0",
    "data": {
        "actionCategory": {
            "value": ""
        },
        "actionType": {
            "value": "passive"
        },
        "actions": {
            "value": null
        },
        "description": {
            "value": "<p>You can use @Compendium[pf2e.feats-srd.Crystalline Dust]{Crystalline Dust} one more time per day.</p>\n<hr />\n<p><strong>Special</strong> You can take this feat more than once, gaining one more use of Crystalline Dust per day each time.</p>"
        },
        "featType": {
            "value": "ancestry"
        },
        "level": {
            "value": 9
        },
        "location": "",
        "prerequisites": {
            "value": [
                {
                    "value": "Crystalline Dust"
                }
            ]
        },
        "rules": [],
        "source": {
            "value": ""
        },
        "traits": {
            "custom": "",
            "rarity": {
                "value": "common"
            },
            "value": [
                "aphorite"
            ]
        }
    },
    "effects": [],
    "flags": {},
    "img": "systems/pf2e/icons/features/feats/feats.webp",
    "name": "Ancillary Motes",
    "type": "feat"
}
