{
    "_id": "FwMTsYc87uU2q4Ox",
    "data": {
        "actionCategory": {
            "value": ""
        },
        "actionType": {
            "value": "passive"
        },
        "actions": {
            "value": null
        },
        "description": {
            "value": "<p>One of your ancestors was a rakshasa, the corrupt and aristocratic reincarnated souls that call Golarion home. You have some dim echo of your ancestor's memories—enough to play the role of noble as needed, no matter your origins. You're trained in Society. If you're already trained in Society (from your background or class, for example), you instead become trained in a skill of your choice. You also gain the @Compendium[pf2e.feats-srd.Courtly Graces]{Courtly Graces} skill feat.</p>"
        },
        "featType": {
            "value": "ancestry"
        },
        "level": {
            "value": 1
        },
        "location": "",
        "prerequisites": {
            "value": []
        },
        "rules": [],
        "source": {
            "value": ""
        },
        "traits": {
            "custom": "",
            "rarity": {
                "value": "common"
            },
            "value": [
                "lineage",
                "tiefling"
            ]
        }
    },
    "effects": [],
    "flags": {},
    "img": "systems/pf2e/icons/features/feats/feats.webp",
    "name": "Beastbrood",
    "type": "feat"
}
