{
    "_id": "V3nNlrdU2OxYJAjx",
    "data": {
        "actionCategory": {
            "value": ""
        },
        "actionType": {
            "value": "action"
        },
        "actions": {
            "value": 1
        },
        "description": {
            "value": "<p><strong>Frequency</strong> once per 10 minutes</p>\n<hr />\n<p>When you focus your magic on an ally, you can remove harmful conditions.</p>\n<p>If your next action is to @Compendium[pf2e.actionspf2e.Cast a Spell]{Cast a Spell} from a spell slot, and that spell targets only a single ally, you can also attempt to remove a harmful condition from that ally. The condition must be one that could be removed by your Mercy feat, including those granted by later feats such as @Compendium[pf2e.feats-srd.Greater Mercy]{Greater Mercy}.</p>\n<p>Attempt a counteract check based on the spell's DC and level. This effect is in addition to the normal effects of your spell.</p>"
        },
        "featType": {
            "value": "archetype"
        },
        "level": {
            "value": 8
        },
        "prerequisites": {
            "value": [
                {
                    "value": "Blessed One Dedication"
                },
                {
                    "value": "ability to cast spells from spell slots"
                },
                {
                    "value": "Mercy"
                }
            ]
        },
        "rules": [],
        "source": {
            "value": ""
        },
        "traits": {
            "custom": "",
            "rarity": {
                "value": "common"
            },
            "value": [
                "archetype",
                "concentrate",
                "metamagic"
            ]
        }
    },
    "effects": [],
    "flags": {},
    "img": "systems/pf2e/icons/features/feats/feats.webp",
    "name": "Blessed Spell",
    "type": "feat"
}
