{
    "_id": "Qc9MH7wT182qasSV",
    "data": {
        "actionCategory": {
            "value": ""
        },
        "actionType": {
            "value": "reaction"
        },
        "actions": {
            "value": null
        },
        "description": {
            "value": "<p><strong>Frequency</strong> once per day<br /><strong>Trigger</strong> A living creature within 60 feet would die.</p>\n<hr />\n<p>The energy that flows in your blood can save a life in the direst of times. The triggering creature receives the effects of @Compendium[pf2e.spells-srd.Breath of Life]{Breath of Life}, except they recover a number of Hit Points equal to [[/r 6d8 #healing (plus your con mod)]] plus your Constitution modifier.</p>"
        },
        "featType": {
            "value": "ancestry"
        },
        "level": {
            "value": 17
        },
        "location": "",
        "prerequisites": {
            "value": []
        },
        "rules": [],
        "source": {
            "value": ""
        },
        "traits": {
            "custom": "",
            "rarity": {
                "value": "common"
            },
            "value": [
                "healing",
                "hobgoblin",
                "necromancy",
                "positive"
            ]
        }
    },
    "effects": [],
    "flags": {},
    "img": "systems/pf2e/icons/features/feats/feats.webp",
    "name": "Cantorian Restoration",
    "type": "feat"
}
