{
    "_id": "73JyUrJnH3nOQJM5",
    "data": {
        "actionCategory": {
            "value": "interaction"
        },
        "actionType": {
            "value": "passive"
        },
        "actions": {
            "value": null
        },
        "description": {
            "value": "<p>You tap into aeon knowledge. You gain the @Compendium[pf2e.feats-srd.Untrained Improvisation]{Untrained Improvisation} general feat. In addition, you can attempt skill actions that normally require you to be trained, even if you are untrained.</p>"
        },
        "featType": {
            "value": "ancestry"
        },
        "level": {
            "value": 5
        },
        "location": "",
        "prerequisites": {
            "value": []
        },
        "rules": [],
        "source": {
            "value": ""
        },
        "traits": {
            "custom": "",
            "rarity": {
                "value": "common"
            },
            "value": [
                "conrasu"
            ]
        }
    },
    "effects": [],
    "flags": {},
    "img": "systems/pf2e/icons/default-icons/feats.webp",
    "name": "Ceremony of Knowledge",
    "type": "feat"
}
