{
    "_id": "IA8p9oYmsCbipmhw",
    "data": {
        "actionCategory": {
            "value": ""
        },
        "actionType": {
            "value": "reaction"
        },
        "actions": {
            "value": null
        },
        "description": {
            "value": "<p><strong>Trigger</strong> A creature within 30 feet critically fails its initial saving throw against a poison you created.</p>\n<hr />\n<p>With carefully engineered enzymes, you coax some of your poison to infect another target, using the original victim as a carrier. A creature adjacent to the triggering creature is exposed to the triggering poison.</p>"
        },
        "featType": {
            "value": "class"
        },
        "level": {
            "value": 16
        },
        "location": "",
        "prerequisites": {
            "value": []
        },
        "rules": [],
        "source": {
            "value": ""
        },
        "traits": {
            "custom": "",
            "rarity": {
                "value": "common"
            },
            "value": [
                "alchemist"
            ]
        }
    },
    "effects": [],
    "flags": {},
    "img": "systems/pf2e/icons/features/feats/feats.webp",
    "name": "Chemical Contagion",
    "type": "feat"
}
