{
    "_id": "EEJKztPOpy5utha9",
    "data": {
        "actionCategory": {
            "value": ""
        },
        "actionType": {
            "value": "passive"
        },
        "actions": {
            "value": null
        },
        "description": {
            "value": "<p>Your nanites help purge your body of harmful chemicals and toxins. Each time you succeed at a Fortitude save against an ongoing poison, you reduce its stage by 2, or by 1 against a virulent poison. Each critical success you achieve against an ongoing poison reduces its stage by 3, or by 2 against a virulent poison.</p>"
        },
        "featType": {
            "value": "ancestry"
        },
        "level": {
            "value": 1
        },
        "location": "",
        "prerequisites": {
            "value": []
        },
        "rules": [],
        "source": {
            "value": ""
        },
        "traits": {
            "custom": "",
            "rarity": {
                "value": "common"
            },
            "value": [
                "android"
            ]
        }
    },
    "effects": [],
    "flags": {},
    "img": "systems/pf2e/icons/features/feats/feats.webp",
    "name": "Cleansing Subroutine",
    "type": "feat"
}
