{
    "_id": "S14S52HjszTgIy4l",
    "data": {
        "actionCategory": {
            "value": ""
        },
        "actionType": {
            "value": "reaction"
        },
        "actions": {
            "value": null
        },
        "description": {
            "value": "<p><strong>Trigger</strong> You are targeted with a melee attack by an attacker you can see.</p>\n<p><strong>Requirements</strong> You are in @Compendium[pf2e.feats-srd.Crane Stance]{Crane Stance}.</p>\n<hr />\n<p>You interpose your arm between yourself and your opponent. Your circumstance bonus to AC from Crane Stance increases to +3 against the triggering attack. If the attack misses you, you can immediately make a crane wing Strike against the attacker at a -2 penalty, even if the attacker isn't within your reach.</p>"
        },
        "featType": {
            "value": "class"
        },
        "level": {
            "value": 6
        },
        "location": "",
        "prerequisites": {
            "value": [
                {
                    "value": "Crane Stance"
                }
            ]
        },
        "rules": [
            {
                "key": "ToggleProperty",
                "property": "flags.pf2e.rollOptions.all.crane-flutter"
            },
            {
                "key": "FlatModifier",
                "label": "Crane Flutter",
                "predicate": {
                    "all": [
                        "crane-flutter",
                        "crane-stance"
                    ]
                },
                "roll-options": [
                    "all"
                ],
                "selector": "ac",
                "type": "circumstance",
                "value": 3
            }
        ],
        "source": {
            "value": ""
        },
        "traits": {
            "custom": "",
            "rarity": {
                "value": "common"
            },
            "value": [
                "monk"
            ]
        }
    },
    "effects": [],
    "flags": {},
    "img": "systems/pf2e/icons/features/feats/feats.webp",
    "name": "Crane Flutter",
    "type": "feat"
}
