{
    "_id": "WoKiYMCXV27szBdy",
    "data": {
        "actionCategory": {
            "value": ""
        },
        "actionType": {
            "value": "reaction"
        },
        "actions": {
            "value": null
        },
        "description": {
            "value": "<p><strong>Trigger</strong> A creature you are aware of critically succeeds on a @Compendium[pf2e.actionspf2e.Strike]{Strike} against you and would deal damage to you.</p>\n<hr />\n<p>With pitiful posturing, you cause your foe to pull back a deadly attack. The attacking creature takes a circumstance penalty to the damage of the triggering Strike equal to your level + 2. This penalty applies after doubling the damage for a critical hit. The attacker is then immune to your Cringe for 24 hours.</p>"
        },
        "featType": {
            "value": "ancestry"
        },
        "level": {
            "value": 1
        },
        "prerequisites": {
            "value": []
        },
        "rules": [],
        "source": {
            "value": ""
        },
        "traits": {
            "custom": "",
            "rarity": {
                "value": "common"
            },
            "value": [
                "emotion",
                "kobold",
                "mental",
                "visual"
            ]
        }
    },
    "effects": [],
    "flags": {},
    "img": "systems/pf2e/icons/features/feats/feats.webp",
    "name": "Cringe",
    "type": "feat"
}
