{
    "_id": "dSSwRyuhKTq1VubX",
    "data": {
        "actionCategory": {
            "value": ""
        },
        "actionType": {
            "value": "free"
        },
        "actions": {
            "value": null
        },
        "description": {
            "value": "<p><strong>Trigger</strong> You Shield Block a melee @Compendium[pf2e.actionspf2e.Strike]{Strike} made with a held weapon.</p>\n<hr />\n<p>You attempt to @Compendium[pf2e.actionspf2e.Disarm]{Disarm} the creature whose attack you blocked of the weapon they attacked you with. You can do so even if you don't have a hand free.</p>"
        },
        "featType": {
            "value": "archetype"
        },
        "level": {
            "value": 4
        },
        "prerequisites": {
            "value": [
                {
                    "value": "Bastion Dedication"
                },
                {
                    "value": "trained in Athletics"
                }
            ]
        },
        "rules": [],
        "source": {
            "value": ""
        },
        "traits": {
            "custom": "",
            "rarity": {
                "value": "common"
            },
            "value": [
                "archetype"
            ]
        }
    },
    "effects": [],
    "flags": {},
    "img": "systems/pf2e/icons/features/feats/feats.webp",
    "name": "Disarming Block",
    "type": "feat"
}
