{
    "_id": "qav9ec9cR4lFcz3C",
    "data": {
        "actionCategory": {
            "value": ""
        },
        "actionType": {
            "value": "reaction"
        },
        "actions": {
            "value": null
        },
        "description": {
            "value": "<p><strong>Trigger</strong> Your hunted prey is within your reach, and it uses a manipulate action, uses a move action, or leaves a square during a move action it's using.</p>\n<hr />\n<p>Make a melee Strike against your prey. If the attack is a critical hit, you disrupt the triggering action.</p>"
        },
        "featType": {
            "value": "class"
        },
        "level": {
            "value": 4
        },
        "prerequisites": {
            "value": []
        },
        "rules": [],
        "source": {
            "value": ""
        },
        "traits": {
            "custom": "",
            "rarity": {
                "value": "common"
            },
            "value": [
                "ranger"
            ]
        }
    },
    "effects": [],
    "flags": {},
    "img": "systems/pf2e/icons/features/feats/feats.webp",
    "name": "Disrupt Prey",
    "type": "feat"
}
