{
    "_id": "vhw3n86TEs6laopA",
    "data": {
        "actionCategory": {
            "value": ""
        },
        "actionType": {
            "value": "passive"
        },
        "actions": {
            "value": null
        },
        "description": {
            "value": "<p>You cast spells like a druid. You gain access to the Cast a Spell activity. You can prepare two common cantrips each day from the primal spell list in this book or any other cantrips you learn or discover. You're trained in spell attack rolls and spell DCs for primal spells. Your key spellcasting ability for druid archetype spells is Wisdom, and they are primal druid spells. You learn the Druidic language, and you are bound by the druid's anathema. Choose a druidic order. You become a member of that order and are also bound by its specific anathema, allowing you to take the order's feats. You become trained in Nature and your order's associated skill; for each of these skills in which you were already trained, you become trained in a skill of your choice. You don't gain any other abilities from your choice of order.</p>\n<p><strong>Special</strong> You cannot select another dedication feat until you have gained two other feats from the druid archetype.</p>"
        },
        "featType": {
            "value": "archetype"
        },
        "level": {
            "value": 2
        },
        "location": "",
        "prerequisites": {
            "value": [
                {
                    "value": "Wisdom 14"
                }
            ]
        },
        "rules": [
            {
                "key": "ActiveEffectLike",
                "mode": "upgrade",
                "path": "data.skills.nat.rank",
                "value": 1
            }
        ],
        "source": {
            "value": ""
        },
        "traits": {
            "custom": "",
            "rarity": {
                "value": "common"
            },
            "value": [
                "archetype",
                "dedication",
                "multiclass"
            ]
        }
    },
    "effects": [],
    "flags": {},
    "img": "systems/pf2e/icons/features/feats/feats.webp",
    "name": "Druid Dedication",
    "type": "feat"
}
