{
    "_id": "LLCf2xPXA7FVQT1D",
    "data": {
        "actionCategory": {
            "value": ""
        },
        "actionType": {
            "value": "passive"
        },
        "actions": {
            "value": null
        },
        "description": {
            "value": "<p>Focusing the powers of your ki to augment your blows, you stretch and lengthen your body in ways that defy logic. Your unarmed attacks gain the reach trait.</p>"
        },
        "featType": {
            "value": "class"
        },
        "level": {
            "value": 18
        },
        "location": "",
        "prerequisites": {
            "value": []
        },
        "rules": [],
        "source": {
            "value": ""
        },
        "traits": {
            "custom": "",
            "rarity": {
                "value": "uncommon"
            },
            "value": [
                "monk"
            ]
        }
    },
    "effects": [],
    "flags": {},
    "img": "systems/pf2e/icons/default-icons/feats.webp",
    "name": "Effortless Reach",
    "type": "feat"
}
