{
    "_id": "j20djiiuVwUf8MqL",
    "data": {
        "actionCategory": {
            "value": ""
        },
        "actionType": {
            "value": "reaction"
        },
        "actions": {
            "value": null
        },
        "description": {
            "value": "<p><strong>Trigger</strong> A creature damages you with a melee attack.</p>\n<hr />\n<p>Ignoring your pain, you reach out and grab the creature or weapon that caused you harm. Attempt an Athletics check to @Compendium[pf2e.actionspf2e.Grapple]{Grapple} the triggering creature or to @Compendium[pf2e.actionspf2e.Disarm]{Disarm} the creature of the triggering weapon.</p>"
        },
        "featType": {
            "value": "class"
        },
        "level": {
            "value": 12
        },
        "prerequisites": {
            "value": []
        },
        "rules": [],
        "source": {
            "value": ""
        },
        "traits": {
            "custom": "",
            "rarity": {
                "value": "common"
            },
            "value": [
                "barbarian",
                "rage"
            ]
        }
    },
    "effects": [],
    "flags": {},
    "img": "systems/pf2e/icons/features/feats/feats.webp",
    "name": "Embrace The Pain",
    "type": "feat"
}
