{
    "_id": "yUpZcrQHrz4mflKQ",
    "data": {
        "actionCategory": {
            "value": ""
        },
        "actionType": {
            "value": "reaction"
        },
        "actions": {
            "value": null
        },
        "description": {
            "value": "<p><strong>Trigger</strong> You would take acid, cold, electricity, fire, or sonic damage from a spell.</p>\n<p><strong>Requirements</strong> You have an unexpended spell slot of a level <br />equal to or higher than the triggering spell.</p>\n<hr />\n<p>Your blood resonates with magical energy, mitigating the effects of harmful spells.</p>\n<p>Expend one of your spell slots of a level equal to or higher than that of the triggering spell. You gain resistance to one of the triggering effect's damage types equal to twice the expended spell slot's level.</p>"
        },
        "featType": {
            "value": "class"
        },
        "level": {
            "value": 6
        },
        "prerequisites": {
            "value": []
        },
        "rules": [],
        "source": {
            "value": ""
        },
        "traits": {
            "custom": "",
            "rarity": {
                "value": "common"
            },
            "value": [
                "abjuration",
                "sorcerer"
            ]
        }
    },
    "effects": [],
    "flags": {},
    "img": "systems/pf2e/icons/features/feats/feats.webp",
    "name": "Energetic Resonance",
    "type": "feat"
}
