{
    "_id": "1k5PZAYth8u4Fqyr",
    "data": {
        "actionCategory": {
            "value": ""
        },
        "actionType": {
            "value": "passive"
        },
        "actions": {
            "value": null
        },
        "description": {
            "value": "<p>You gain the expert spellcasting benefits.</p>"
        },
        "featType": {
            "value": "archetype"
        },
        "level": {
            "value": 12
        },
        "prerequisites": {
            "value": [
                {
                    "value": "Basic Sorcerer Spellcasting"
                },
                {
                    "value": "master in Arcana, Nature, Occultism, or Religion, depending on bloodline"
                }
            ]
        },
        "rules": [],
        "source": {
            "value": ""
        },
        "traits": {
            "custom": "",
            "rarity": {
                "value": "common"
            },
            "value": [
                "archetype"
            ]
        }
    },
    "effects": [],
    "flags": {},
    "img": "systems/pf2e/icons/features/feats/feats.webp",
    "name": "Expert Sorcerer Spellcasting",
    "type": "feat"
}
