{
    "_id": "AGovcdAzmUqxgiOq",
    "data": {
        "actionCategory": {
            "value": ""
        },
        "actionType": {
            "value": "passive"
        },
        "actions": {
            "value": null
        },
        "description": {
            "value": "<p><strong>Requirements</strong> Your arcane bonded item is a polearm.</p>\n<hr />\n<p>During your daily preparations, you can magically fuse your arcane bonded weapon and a magical staff together into one item, with the staff making up the haft of the weapon. You prepare the staff at the same time you do this, and you can do this only with a staff you're able to prepare. This fusion lasts until the next time you make your daily preparations.</p>\n<p>While the two are fused, the weapon's haft takes on aesthetic aspects of the staff.</p>"
        },
        "featType": {
            "value": "archetype"
        },
        "level": {
            "value": 10
        },
        "location": "",
        "prerequisites": {
            "value": [
                {
                    "value": "Runelord Dedication"
                }
            ]
        },
        "rules": [],
        "source": {
            "value": ""
        },
        "traits": {
            "custom": "",
            "rarity": {
                "value": "common"
            },
            "value": [
                "archetype"
            ]
        }
    },
    "effects": [],
    "flags": {},
    "img": "systems/pf2e/icons/default-icons/feat.svg",
    "name": "Fused Polearm",
    "type": "feat"
}
