{
    "_id": "MxNb97qr1yMhbjiP",
    "data": {
        "actionCategory": {
            "value": ""
        },
        "actionType": {
            "value": "passive"
        },
        "actions": {
            "value": null
        },
        "description": {
            "value": "<p><strong>Archetype</strong> @Compendium[pf2e.archetypes.Golem Grafter]{Golem Grafter}</p>\n<hr />\n<p>Your flesh has been specially treated with the same arcane and alchemical processes used to toughen the skin of flesh golems. Increase your maximum Hit Points by an amount equal to your level. You gain resistance to physical damage (except adamantine) equal to your number of class feats from the golem grafter archetype.</p>\n<p><strong>Special</strong> You cannot select another dedication feat until you have gained two other feats from the golem grafter archetype.</p>"
        },
        "featType": {
            "value": "archetype"
        },
        "level": {
            "value": 8
        },
        "location": "",
        "prerequisites": {
            "value": [
                {
                    "value": "expert in Arcana and Crafting, or an ally with expert proficiency in those skills willing to augment you"
                }
            ]
        },
        "rules": [
            {
                "key": "FlatModifier",
                "selector": "hp",
                "value": "@details.level.value"
            }
        ],
        "source": {
            "value": "Pathfinder #153: Life's Long Shadows"
        },
        "traits": {
            "custom": "",
            "rarity": {
                "value": "uncommon"
            },
            "value": [
                "archetype",
                "dedication"
            ]
        }
    },
    "effects": [],
    "flags": {},
    "img": "systems/pf2e/icons/features/feats/feats.webp",
    "name": "Golem Grafter Dedication",
    "type": "feat"
}
