{
    "_id": "16MOW7deoOoDwE9z",
    "data": {
        "actionCategory": {
            "value": ""
        },
        "actionType": {
            "value": "passive"
        },
        "actions": {
            "value": null
        },
        "description": {
            "value": "<p>You have an intuitive ability to sense hazards. You gain a +1 circumstance bonus to Perception checks to find traps and hazards, to AC against their attacks, and to saves against their effects. You can find hazards that would normally require you to @Compendium[pf2e.actionspf2e.Search]{Search} even if you aren't Searching.</p>"
        },
        "featType": {
            "value": "class"
        },
        "level": {
            "value": 8
        },
        "location": "",
        "prerequisites": {
            "value": []
        },
        "rules": [
            {
                "key": "FlatModifier",
                "label": "Hazard Finder (to find traps and hazards)",
                "predicate": {
                    "any": [
                        "trap",
                        "hazard"
                    ]
                },
                "selector": "perception",
                "type": "circumstance",
                "value": 1
            },
            {
                "key": "FlatModifier",
                "label": "Hazard Finder (vs. attacks from traps and hazards)",
                "predicate": {
                    "any": [
                        "trap",
                        "hazard"
                    ]
                },
                "selector": "ac",
                "type": "circumstance",
                "value": 1
            },
            {
                "key": "FlatModifier",
                "label": "Hazard Finder (saves vs. traps and hazards)",
                "predicate": {
                    "any": [
                        "trap",
                        "hazard"
                    ]
                },
                "selector": "saving-throw",
                "type": "circumstance",
                "value": 1
            }
        ],
        "source": {
            "value": ""
        },
        "traits": {
            "custom": "",
            "rarity": {
                "value": "common"
            },
            "value": [
                "ranger"
            ]
        }
    },
    "effects": [],
    "flags": {},
    "img": "systems/pf2e/icons/features/feats/feats.webp",
    "name": "Hazard Finder",
    "type": "feat"
}
