{
    "_id": "GFtNQvpzuqtsdOTG",
    "data": {
        "actionCategory": {
            "value": ""
        },
        "actionType": {
            "value": "action"
        },
        "actions": {
            "value": 2
        },
        "description": {
            "value": "<p>When you focus on aiming, your attack becomes particularly accurate. Make a ranged weapon Strike against your hunted prey. On this Strike, you gain a +2 circumstance bonus to the attack roll and ignore your prey's concealed condition.</p>"
        },
        "featType": {
            "value": "class"
        },
        "level": {
            "value": 2
        },
        "location": "",
        "prerequisites": {
            "value": []
        },
        "rules": [
            {
                "key": "ToggleProperty",
                "label": "Hunter's Aim",
                "property": "flags.pf2e.rollOptions.attack-roll.hunters-aim"
            },
            {
                "key": "FlatModifier",
                "label": "Hunter's Aim",
                "predicate": {
                    "all": [
                        "hunters-aim",
                        "hunted-prey"
                    ],
                    "not": [
                        "finesse"
                    ]
                },
                "selector": "dex-attack",
                "type": "circumstance",
                "value": 2
            },
            {
                "key": "Note",
                "predicate": {
                    "all": [
                        "hunters-aim",
                        "hunted-prey"
                    ],
                    "not": [
                        "finesse"
                    ]
                },
                "selector": "dex-attack",
                "text": "<p class='compact-text'><strong>{item|name}</strong> Ignore your prey's concealed condition.</p>"
            }
        ],
        "source": {
            "value": ""
        },
        "traits": {
            "custom": "",
            "rarity": {
                "value": "common"
            },
            "value": [
                "concentrate",
                "ranger"
            ]
        }
    },
    "effects": [],
    "flags": {},
    "img": "systems/pf2e/icons/features/feats/feats.webp",
    "name": "Hunter's Aim",
    "type": "feat"
}
