{
    "_id": "OY1Ewg0dbCp52Hl5",
    "data": {
        "actionCategory": {
            "value": ""
        },
        "actionType": {
            "value": "action"
        },
        "actions": {
            "value": 1
        },
        "description": {
            "value": "<p>Your strength is part of your rage, so as long as your anger remains, you can gather your strength and rage to overcome any sort of enfeeblement.</p>\n<p>You reduce your @Compendium[pf2e.conditionitems.Enfeebled]{Enfeebled} condition's value by 1.</p>"
        },
        "featType": {
            "value": "class"
        },
        "level": {
            "value": 6
        },
        "prerequisites": {
            "value": []
        },
        "rules": [],
        "source": {
            "value": ""
        },
        "traits": {
            "custom": "",
            "rarity": {
                "value": "common"
            },
            "value": [
                "barbarian",
                "concentrate",
                "rage"
            ]
        }
    },
    "effects": [],
    "flags": {},
    "img": "systems/pf2e/icons/features/feats/feats.webp",
    "name": "Inner Strength",
    "type": "feat"
}
