{
    "_id": "OTjRxyCtwPoqNFP2",
    "data": {
        "actionCategory": {
            "value": ""
        },
        "actionType": {
            "value": "passive"
        },
        "actions": {
            "value": null
        },
        "description": {
            "value": "<p>You've trained with weapons ideal for subterranean efficiency. You are trained with the @Compendium[pf2e.equipment-srd.Crossbow]{Crossbow}, @Compendium[pf2e.equipment-srd.Greatpick]{Greatpick}, @Compendium[pf2e.equipment-srd.Light Pick]{Light Pick}, @Compendium[pf2e.equipment-srd.Pick]{Pick}, and @Compendium[pf2e.equipment-srd.Spear]{Spear}.</p>\n<p>You also gain access to all uncommon kobold weapons. For the purpose of determining your proficiency, martial kobold weapons are simple weapons, and advanced kobold weapons are martial weapons.</p>"
        },
        "featType": {
            "value": "ancestry"
        },
        "level": {
            "value": 1
        },
        "location": "",
        "prerequisites": {
            "value": []
        },
        "rules": [
            {
                "key": "ActiveEffectLike",
                "mode": "upgrade",
                "path": "data.martial.weapon-base-crossbow.rank",
                "value": 1
            },
            {
                "key": "ActiveEffectLike",
                "mode": "upgrade",
                "path": "data.martial.weapon-base-greatpick.rank",
                "value": 1
            },
            {
                "key": "ActiveEffectLike",
                "mode": "upgrade",
                "path": "data.martial.weapon-base-light-pick.rank",
                "value": 1
            },
            {
                "key": "ActiveEffectLike",
                "mode": "upgrade",
                "path": "data.martial.weapon-base-pick.rank",
                "value": 1
            },
            {
                "key": "ActiveEffectLike",
                "mode": "upgrade",
                "path": "data.martial.weapon-base-spear.rank",
                "value": 1
            }
        ],
        "source": {
            "value": ""
        },
        "traits": {
            "custom": "",
            "rarity": {
                "value": "common"
            },
            "value": [
                "kobold"
            ]
        }
    },
    "effects": [
        {
            "_id": "pSSCKTSGZwhUX65a",
            "changes": [
                {
                    "key": "data.martial.martial.familiarity",
                    "mode": 5,
                    "value": "{ \"trait\": \"kobold\", \"category\": \"advanced\" }"
                },
                {
                    "key": "data.martial.simple.familiarity",
                    "mode": 5,
                    "value": "{ \"trait\": \"kobold\", \"category\": \"martial\" }"
                }
            ],
            "disabled": false,
            "duration": {
                "startTime": null
            },
            "flags": {},
            "icon": "systems/pf2e/icons/features/feats/feats.webp",
            "label": "Kobold Weapon Familiarity",
            "origin": "",
            "tint": null,
            "transfer": true
        }
    ],
    "flags": {},
    "img": "systems/pf2e/icons/features/feats/feats.webp",
    "name": "Kobold Weapon Familiarity",
    "type": "feat"
}
