{
    "_id": "QNgnwkKZmJR5jT7K",
    "data": {
        "actionCategory": {
            "value": "interaction"
        },
        "actionType": {
            "value": "passive"
        },
        "actions": {
            "value": null
        },
        "description": {
            "value": "<p>A gnoll's sinister giggle is a sound of warning and threat. You gain the @Compendium[pf2e.feats-srd.Battle Cry]{Battle Cry} skill feat. You don't take a penalty when you attempt to Demoralize a creature that doesn't understand your language.</p>"
        },
        "featType": {
            "value": "ancestry"
        },
        "level": {
            "value": 9
        },
        "location": "",
        "prerequisites": {
            "value": [
                {
                    "value": "master in Intimidation"
                }
            ]
        },
        "rules": [],
        "source": {
            "value": ""
        },
        "traits": {
            "custom": "",
            "rarity": {
                "value": "common"
            },
            "value": [
                "gnoll"
            ]
        }
    },
    "effects": [],
    "flags": {},
    "img": "systems/pf2e/icons/default-icons/feats.webp",
    "name": "Laughing Gnoll",
    "type": "feat"
}
