{
    "_id": "slRyXj05Hnaftbai",
    "data": {
        "actionCategory": {
            "value": ""
        },
        "actionType": {
            "value": "passive"
        },
        "actions": {
            "value": null
        },
        "description": {
            "value": "<p>You've learned to use part of your form as a weapon. When you select this feat, you gain a claws unarmed attack that deals [[/r 1d4 #slashing]]{1d4 slashing damage} and has the agile and finesse traits; a horn, jaws, or tusk unarmed attack that deals [[/r 1d6 #piercing]]{1d6 piercing damage} and has the versatile S trait; or a tail unarmed attack that deals [[/r 1d6 #bludgeoning]]{1d6 bludgeoning damage} and has the backswing trait. Each of these unarmed attacks is in the brawling weapon group.</p>\n<p>Your features are mutable; you can select this feat at any level, and you can retrain into or out of this feat or change the type of attack you gain.</p>\n<hr />\n<p><strong>Special</strong> You can take this feat multiple times. Each time you do, select a new attack from the options above.</p>"
        },
        "featType": {
            "value": "ancestry"
        },
        "level": {
            "value": 1
        },
        "location": "",
        "prerequisites": {
            "value": []
        },
        "rules": [
            {
                "category": "unarmed",
                "damage": {
                    "base": {
                        "damageType": "piercing",
                        "dice": 1,
                        "die": "d6"
                    }
                },
                "group": "brawling",
                "key": "Strike",
                "label": "Jaws",
                "range": "melee",
                "traits": [
                    "versatile-s",
                    "unarmed"
                ]
            }
        ],
        "source": {
            "value": "Pathfinder Lost Omens: Ancestry Guide"
        },
        "traits": {
            "custom": "",
            "rarity": {
                "value": "common"
            },
            "value": [
                "fleshwarp"
            ]
        }
    },
    "effects": [],
    "flags": {},
    "img": "systems/pf2e/icons/features/feats/feats.webp",
    "name": "Living Weapon (Jaws)",
    "type": "feat"
}
