{
    "_id": "RzhnxgiAopWILCvs",
    "data": {
        "actionCategory": {
            "value": ""
        },
        "actionType": {
            "value": "action"
        },
        "actions": {
            "value": 1
        },
        "description": {
            "value": "<p>You lock yourself in a stable position so you can fire swiftly and accurately.</p>\n<p>While you are in this stance, your penalty for @Compendium[pf2e.feats-srd.Double Shot]{Double Shot} is reduced to -1, or -2 if you add the extra action to make three Strikes. If you move from your position, this stance ends.</p>\n<p>@Compendium[pf2e.feat-effects.Stance: Multishot Stance]{Stance: Multishot Stance}</p>"
        },
        "featType": {
            "value": "class"
        },
        "level": {
            "value": 16
        },
        "location": "",
        "prerequisites": {
            "value": [
                {
                    "value": "Triple Shot"
                }
            ]
        },
        "rules": [],
        "source": {
            "value": ""
        },
        "traits": {
            "custom": "",
            "rarity": {
                "value": "common"
            },
            "value": [
                "fighter",
                "stance"
            ]
        }
    },
    "effects": [],
    "flags": {},
    "img": "systems/pf2e/icons/features/feats/feats.webp",
    "name": "Multishot Stance",
    "type": "feat"
}
