{
    "_id": "C0ozuEhrKh9A1wMO",
    "data": {
        "actionCategory": {
            "value": ""
        },
        "actionType": {
            "value": "passive"
        },
        "actions": {
            "value": null
        },
        "description": {
            "value": "<p>You trample your foes as you charge past them.</p>\n<p>When you use @Compendium[pf2e.feats-srd.Barreling Charge]{Barreling Charge} and successfully move through a creature's space, that creature takes bludgeoning damage equal to your Strength modifier. If you critically succeed, the creature takes twice this amount of damage and becomes @Compendium[pf2e.conditionitems.Flat-Footed]{Flat-Footed} until the end of your next turn.</p>"
        },
        "featType": {
            "value": "class"
        },
        "level": {
            "value": 10
        },
        "prerequisites": {
            "value": [
                {
                    "value": "Barreling Charge"
                }
            ]
        },
        "rules": [],
        "source": {
            "value": ""
        },
        "traits": {
            "custom": "",
            "rarity": {
                "value": "common"
            },
            "value": [
                "barbarian",
                "fighter"
            ]
        }
    },
    "effects": [],
    "flags": {},
    "img": "systems/pf2e/icons/features/feats/feats.webp",
    "name": "Overpowering Charge",
    "type": "feat"
}
