{
    "_id": "0FqbyC5tR2DC0DOk",
    "data": {
        "actionCategory": {
            "value": "interaction"
        },
        "actionType": {
            "value": "passive"
        },
        "actions": {
            "value": null
        },
        "description": {
            "value": "<p>Ambushes are an honored gnoll tradition. You gain the @Compendium[pf2e.feats-srd.Terrain Stalker]{Terrain Stalker} feat and can extend its effects to a single ally so long as they remain within 10 ft. of you. If you have master proficiency in Stealth, you can extend the effect to two allies. If you have legendary proficiency in Stealth, you can extend it to four allies.</p>"
        },
        "featType": {
            "value": "ancestry"
        },
        "level": {
            "value": 5
        },
        "location": "",
        "prerequisites": {
            "value": [
                {
                    "value": "expert in Stealth"
                },
                {
                    "value": "Pack Hunter"
                }
            ]
        },
        "rules": [],
        "source": {
            "value": ""
        },
        "traits": {
            "custom": "",
            "rarity": {
                "value": "common"
            },
            "value": [
                "gnoll"
            ]
        }
    },
    "effects": [],
    "flags": {},
    "img": "systems/pf2e/icons/default-icons/feats.webp",
    "name": "Pack Stalker",
    "type": "feat"
}
