{
    "_id": "eww9tuiXPnZFZ3DU",
    "data": {
        "actionCategory": {
            "value": ""
        },
        "actionType": {
            "value": "action"
        },
        "actions": {
            "value": 1
        },
        "description": {
            "value": "<p>You can put a single item you're holding of light or negligible Bulk onto a person without them noticing by succeeding at a Thievery check against their Perception DC.</p>\n<p>If you have the ruffian racket, you can do this as a free action when you successfully @Compendium[pf2e.actionspf2e.Shove]{Shove} a target.</p>"
        },
        "featType": {
            "value": "class"
        },
        "level": {
            "value": 1
        },
        "prerequisites": {
            "value": [
                {
                    "value": "Pickpocket"
                }
            ]
        },
        "rules": [],
        "source": {
            "value": ""
        },
        "traits": {
            "custom": "",
            "rarity": {
                "value": "common"
            },
            "value": [
                "rogue"
            ]
        }
    },
    "effects": [],
    "flags": {},
    "img": "systems/pf2e/icons/features/feats/feats.webp",
    "name": "Plant Evidence",
    "type": "feat"
}
