{
    "_id": "2xk4jdwcCfmasYfT",
    "data": {
        "actionCategory": {
            "value": ""
        },
        "actionType": {
            "value": "action"
        },
        "actions": {
            "value": 2
        },
        "description": {
            "value": "<p>You unleash a particularly powerful attack that clobbers your foe but leaves you a bit unsteady. Make a melee Strike. This counts as two attacks when calculating your multiple attack penalty. If this Strike hits, you deal an extra die of weapon damage. If you're at least 10th level, increase this to two extra dice, and if you're at least 18th level, increase it to three extra dice.</p>"
        },
        "featType": {
            "value": "class"
        },
        "level": {
            "value": 1
        },
        "prerequisites": {
            "value": []
        },
        "rules": [
            {
                "key": "DamageDice",
                "predicate": {
                    "all": [
                        "melee",
                        "power-attack"
                    ]
                },
                "selector": "damage",
                "value": {
                    "brackets": [
                        {
                            "end": 9,
                            "value": {
                                "diceNumber": 1
                            }
                        },
                        {
                            "end": 17,
                            "start": 10,
                            "value": {
                                "diceNumber": 2
                            }
                        },
                        {
                            "start": 18,
                            "value": {
                                "diceNumber": 3
                            }
                        }
                    ]
                }
            },
            {
                "key": "ToggleProperty",
                "property": "flags.pf2e.rollOptions.damage-roll.power-attack"
            }
        ],
        "source": {
            "value": ""
        },
        "traits": {
            "custom": "",
            "rarity": {
                "value": "common"
            },
            "value": [
                "fighter",
                "flourish"
            ]
        }
    },
    "effects": [],
    "flags": {},
    "img": "systems/pf2e/icons/features/feats/feats.webp",
    "name": "Power Attack",
    "type": "feat"
}
