{
    "_id": "XOudHBESJ192FBwF",
    "data": {
        "actionCategory": {
            "value": ""
        },
        "actionType": {
            "value": "passive"
        },
        "actions": {
            "value": null
        },
        "description": {
            "value": "<p><strong>Frequency</strong> once per day</p>\n<hr />\n<p>You surround your body with a thin layer of water drawn from the moisture in the air. You can spend one hour resting to rehydrate your gills and skin, which counts as submerging your body in water. At the GM's discretion, incredibly dry areas, such as deserts, might not have enough moisture in the air for your Rehydration to work.</p>"
        },
        "featType": {
            "value": "ancestry"
        },
        "level": {
            "value": 13
        },
        "location": "",
        "prerequisites": {
            "value": []
        },
        "rules": [],
        "source": {
            "value": ""
        },
        "traits": {
            "custom": "",
            "rarity": {
                "value": "common"
            },
            "value": [
                "azarketi",
                "primal",
                "transmutation",
                "water"
            ]
        }
    },
    "effects": [],
    "flags": {},
    "img": "systems/pf2e/icons/default-icons/feats.webp",
    "name": "Rehydration",
    "type": "feat"
}
