{
    "_id": "9E1FLGp4CNBEwiZE",
    "data": {
        "actionCategory": {
            "value": ""
        },
        "actionType": {
            "value": "passive"
        },
        "actions": {
            "value": null
        },
        "description": {
            "value": "<p>When you succeed, but don't critically succeed, at a check to Disarm a creature, your circumstance bonus to further checks to Disarm that creature is +4 instead of +2. Other creatures gain only the normal bonus.</p>\n<p>When you critically succeed at a Disarm check, you can immediately Demoralize your target as a reaction.</p>"
        },
        "featType": {
            "value": "archetype"
        },
        "level": {
            "value": 6
        },
        "location": "",
        "prerequisites": {
            "value": [
                {
                    "value": "Zephyr Guard Dedication"
                },
                {
                    "value": "trained in Athletics"
                }
            ]
        },
        "rules": [
            {
                "key": "Note",
                "predicate": {
                    "all": [
                        "action:disarm"
                    ]
                },
                "selector": "athletics",
                "text": "<p class='compact-text'><strong>Relentless Disarm</strong> When you succeed, but don't critically succeed, at a check to Disarm a creature, your circumstance bonus to further checks to Disarm that creature is +4 instead of +2. Other creatures gain only the normal bonus.  When you critically succeed at a Disarm check, you can immediately <span data-pf2-action=\"demoralize\" data-pf2-glyph=\"A\">Intimidation</span> your target as a reaction.</p>"
            }
        ],
        "source": {
            "value": "Pathfinder #149: Against the Scarlet Triad"
        },
        "traits": {
            "custom": "",
            "rarity": {
                "value": "common"
            },
            "value": [
                "archetype"
            ]
        }
    },
    "effects": [],
    "flags": {},
    "img": "systems/pf2e/icons/features/feats/feats.webp",
    "name": "Relentless Disarm",
    "type": "feat"
}
