{
    "_id": "wa9ZGBTlFuwOjPpH",
    "data": {
        "actionCategory": {
            "value": ""
        },
        "actionType": {
            "value": "passive"
        },
        "actions": {
            "value": null
        },
        "description": {
            "value": "<p>You can adapt your patron's power to transform other creatures into forms more befitting their behavior or your whims. Your familiar learns @Compendium[pf2e.spells-srd.Baleful Polymorph]{Baleful Polymorph}, even if <em>baleful polymorph</em> isn't on your tradition's spell list.</p>\n<p>By spending 10 minutes in communion with your familiar, you can replace one spell of 6th level or higher you've prepared in one of your witch spell slots with a <em>baleful polymorph</em> spell of the same level.</p>"
        },
        "featType": {
            "value": "class"
        },
        "level": {
            "value": 14
        },
        "prerequisites": {
            "value": []
        },
        "rules": [],
        "source": {
            "value": ""
        },
        "traits": {
            "custom": "",
            "rarity": {
                "value": "common"
            },
            "value": [
                "witch"
            ]
        }
    },
    "effects": [],
    "flags": {},
    "img": "systems/pf2e/icons/features/feats/feats.webp",
    "name": "Rites Of Transfiguration",
    "type": "feat"
}
