{
    "_id": "hYu6XxARNJYdf8Qe",
    "data": {
        "actionCategory": {
            "value": ""
        },
        "actionType": {
            "value": "passive"
        },
        "actions": {
            "value": null
        },
        "description": {
            "value": "<p>Your stratagems benefit from your precise knowledge of anatomy. When you critically hit with an attack on which you substituted your attack roll due to @Compendium[pf2e.actionspf2e.Devise a Stratagem]{Devising a Strategem}, if your attack dealt piercing or slashing damage, you also deal [[/r 1d6 #persistent bleed]] @Compendium[pf2e.conditionitems.Persistent Damage]{Persistent Bleed Damage} to your target.</p>"
        },
        "featType": {
            "value": "class"
        },
        "level": {
            "value": 4
        },
        "location": "",
        "prerequisites": {
            "value": [
                {
                    "value": "forensic medicine methodology"
                }
            ]
        },
        "rules": [
            {
                "key": "Note",
                "outcome": [
                    "criticalSuccess"
                ],
                "predicate": {
                    "all": [
                        "devise-a-stratagem"
                    ]
                },
                "roll-options": [
                    "all"
                ],
                "selector": "damage",
                "text": "<p class='compact-text'><strong>{item|name}</strong> If your critical hit dealt piercing or slashing damage, you also deal [[/r 1d6 #persistent bleed]] @Compendium[pf2e.conditionitems.Persistent Damage]{Persistent Bleed Damage} to your target</p>"
            }
        ],
        "source": {
            "value": ""
        },
        "traits": {
            "custom": "",
            "rarity": {
                "value": "common"
            },
            "value": [
                "investigator"
            ]
        }
    },
    "effects": [],
    "flags": {},
    "img": "systems/pf2e/icons/features/feats/feats.webp",
    "name": "Scalpel's Point",
    "type": "feat"
}
