{
    "_id": "T5xFirAE8VLL5Lbu",
    "data": {
        "actionCategory": {
            "value": ""
        },
        "actionType": {
            "value": "action"
        },
        "actions": {
            "value": 1
        },
        "description": {
            "value": "<p>Your blade ally shares your lust for the blood of good creatures.</p>\n<p>Select one enemy you can see. Until the start of your next turn, your Strikes against that foe using the weapon your blade ally inhabits deal an extra 4 evil damage, increasing to 6 if you have master proficiency with this weapon.</p>\n<p>If the chosen enemy attacks you before the start of your next turn, the duration extends to the end of that enemy's next turn. If the enemy continues to attack you each turn, the duration continues to extend.</p>\n<p>@Compendium[pf2e.feat-effects.Effect: Smite Good]{Effect: Smite Good}</p>"
        },
        "featType": {
            "value": "class"
        },
        "level": {
            "value": 6
        },
        "location": "",
        "prerequisites": {
            "value": [
                {
                    "value": "divine ally (blade)"
                },
                {
                    "value": "tenets of evil"
                }
            ]
        },
        "rules": [],
        "source": {
            "value": ""
        },
        "traits": {
            "custom": "",
            "rarity": {
                "value": "uncommon"
            },
            "value": [
                "champion"
            ]
        }
    },
    "effects": [],
    "flags": {},
    "img": "systems/pf2e/icons/features/feats/feats.webp",
    "name": "Smite Good",
    "type": "feat"
}
