{
    "_id": "5UQagWB13Z8xR5Z6",
    "data": {
        "actionCategory": {
            "value": ""
        },
        "actionType": {
            "value": "passive"
        },
        "actions": {
            "value": null
        },
        "description": {
            "value": "<p>Choose a bloodline. You become trained in the bloodline's two skills; for each of these skills in which you were already trained, you become trained in a skill of your choice. You cast spells like a sorcerer. You gain access to the Cast a Spell activity. You gain a spell repertoire with two common cantrips from the spell list associated with your bloodline, from the spells granted by your bloodline, or any other cantrips of that tradition you learn or discover. You're trained in spell attack rolls and spell DCs for your tradition's spells. Your key spellcasting ability for sorcerer archetype spells is Charisma, and they are sorcerer spells of your bloodline's tradition. You don't gain any other abilities from your choice of bloodline.</p>\n<hr />\n<p><strong>Special</strong> You cannot select another dedication feat until you have gained two other feats from the sorcerer archetype.</p>"
        },
        "featType": {
            "value": "archetype"
        },
        "level": {
            "value": 2
        },
        "prerequisites": {
            "value": [
                {
                    "value": "Charisma 14"
                }
            ]
        },
        "rules": [],
        "source": {
            "value": ""
        },
        "traits": {
            "custom": "",
            "rarity": {
                "value": "common"
            },
            "value": [
                "archetype",
                "dedication",
                "multiclass"
            ]
        }
    },
    "effects": [],
    "flags": {},
    "img": "systems/pf2e/icons/features/feats/feats.webp",
    "name": "Sorcerer Dedication",
    "type": "feat"
}
