{
    "_id": "HRVCODLOrhjRDtGb",
    "data": {
        "actionCategory": {
            "value": ""
        },
        "actionType": {
            "value": "passive"
        },
        "actions": {
            "value": null
        },
        "description": {
            "value": "<p>You know the secrets of moving in your @Compendium[pf2e.feats-srd.Favored Terrain]{Favored Terrain}. You gain a +2 circumstance bonus to skill checks to move within your favored terrain, such as Acrobatics checks to @Compendium[pf2e.actionspf2e.Balance]{Balance} on ice, Athletics checks to @Compendium[pf2e.actionspf2e.Swim]{Swim} in rough water, Acrobatics checks to @Compendium[pf2e.actionspf2e.Fly]{Fly} in windy conditions, and so forth.</p>"
        },
        "featType": {
            "value": "archetype"
        },
        "level": {
            "value": 4
        },
        "prerequisites": {
            "value": [
                {
                    "value": "Horizon Walker Dedication"
                },
                {
                    "value": "expert in Acrobatics"
                },
                {
                    "value": "expert in Athletics"
                }
            ]
        },
        "rules": [],
        "source": {
            "value": ""
        },
        "traits": {
            "custom": "",
            "rarity": {
                "value": "common"
            },
            "value": [
                "archetype",
                "skill"
            ]
        }
    },
    "effects": [],
    "flags": {},
    "img": "systems/pf2e/icons/features/feats/feats.webp",
    "name": "Sure Foot",
    "type": "feat"
}
