{
    "_id": "YV4X9u5Yuf0xvoCh",
    "data": {
        "actionCategory": {
            "value": ""
        },
        "actionType": {
            "value": "action"
        },
        "actions": {
            "value": 1
        },
        "description": {
            "value": "<p>With a complex gesture, you focus the divine power of your spell to overcome enemies' resistances. If the next action you use is to Cast a Spell, the spell ignores an amount of the target's resistance equal to your level against all the following types of damage: chaotic, evil, good, lawful, negative, and positive.</p>\n<p>This applies to all damage the spell deals, including persistent damage and damage caused by an ongoing effect of the spell, such as the positive energy within a @Compendium[pf2e.spells-srd.Field of Life]{Field of Life}. This doesn't cause the spell to ignore immunities, only resistances.</p>"
        },
        "featType": {
            "value": "class"
        },
        "level": {
            "value": 10
        },
        "prerequisites": {
            "value": []
        },
        "rules": [],
        "source": {
            "value": ""
        },
        "traits": {
            "custom": "",
            "rarity": {
                "value": "common"
            },
            "value": [
                "manipulate",
                "metamagic",
                "oracle"
            ]
        }
    },
    "effects": [],
    "flags": {},
    "img": "systems/pf2e/icons/features/feats/feats.webp",
    "name": "Surging Might",
    "type": "feat"
}
