{
    "_id": "xM0vwRFLZgmmI4YJ",
    "data": {
        "actionCategory": {
            "value": "offensive"
        },
        "actionType": {
            "value": "action"
        },
        "actions": {
            "value": 3
        },
        "description": {
            "value": "<p>You borrow a bit of time from the future to act now. Make six Strikes. Your multiple attack penalty applies normally to these Strikes. If you successfully hit a creature with multiple Strikes, combine those Strikes' damage for the purpose of resistances and weaknesses. On your next turn, you regain 1 action instead of 3. This is before any alteration in your actions due to the quickened, slowed, and stunned conditions.</p>"
        },
        "featType": {
            "value": "class"
        },
        "level": {
            "value": 20
        },
        "location": "",
        "prerequisites": {
            "value": []
        },
        "rules": [],
        "source": {
            "value": ""
        },
        "traits": {
            "custom": "",
            "rarity": {
                "value": "uncommon"
            },
            "value": [
                "flourish",
                "ranger"
            ]
        }
    },
    "effects": [],
    "flags": {},
    "img": "systems/pf2e/icons/default-icons/feats.webp",
    "name": "Time Dilation Cascade",
    "type": "feat"
}
