{
    "_id": "MndcBMz6I7e6SRqx",
    "data": {
        "actionCategory": {
            "value": ""
        },
        "actionType": {
            "value": "passive"
        },
        "actions": {
            "value": null
        },
        "description": {
            "value": "<p>You don't take the normal -2 penalty to attack rolls with improvised weapons. Additionally, whenever you gain a class feature that grants you expert or greater proficiency with any weapon, you also gain that proficiency with improvised weapons.</p>\n<p><strong>Special</strong> You can't select another dedication feat until you have gained two other feats from the weapon improviser archetype.</p>"
        },
        "featType": {
            "value": "archetype"
        },
        "level": {
            "value": 2
        },
        "prerequisites": {
            "value": [
                {
                    "value": "trained in all martial weapons"
                }
            ]
        },
        "rules": [],
        "source": {
            "value": ""
        },
        "traits": {
            "custom": "",
            "rarity": {
                "value": "common"
            },
            "value": [
                "archetype",
                "dedication"
            ]
        }
    },
    "effects": [],
    "flags": {},
    "img": "systems/pf2e/icons/features/feats/feats.webp",
    "name": "Weapon Improviser Dedication",
    "type": "feat"
}
