{
    "_id": "InTchkd50pzQok3f",
    "data": {
        "actionCategory": {
            "value": "interaction"
        },
        "actionType": {
            "value": "passive"
        },
        "actions": {
            "value": null
        },
        "description": {
            "value": "<p>Through the careful cultivation of highly sensitive hairs, you've developed the ability to sense creatures without seeing them. You gain imprecise tremorsense at a range of 15 feet. When you and a creature are both touching the same anchored, threadlike object (such as a rope, webbing, or wire), your imprecise tremorsense can sense that creature at a range of 60 feet.</p>"
        },
        "featType": {
            "value": "ancestry"
        },
        "level": {
            "value": 9
        },
        "location": "",
        "prerequisites": {
            "value": []
        },
        "rules": [
            {
                "acuity": "imprecise",
                "key": "Sense",
                "label": "PF2E.SensesTremorsense",
                "range": 15,
                "selector": "tremorsense"
            }
        ],
        "source": {
            "value": ""
        },
        "traits": {
            "custom": "",
            "rarity": {
                "value": "common"
            },
            "value": [
                "anadi"
            ]
        }
    },
    "effects": [],
    "flags": {},
    "img": "systems/pf2e/icons/default-icons/feats.webp",
    "name": "Web Hunter",
    "type": "feat"
}
