{
    "_id": "uVZrqxtOOutr4Ss9",
    "data": {
        "actionCategory": {
            "value": ""
        },
        "actionType": {
            "value": "passive"
        },
        "actions": {
            "value": null
        },
        "description": {
            "value": "<p><strong>Minor Boon</strong>: Gozreh grants their guidance while at sea. You are under the constant effects of @Compendium[pf2e.spells-srd.Know Direction]{Know Direction} and become trained in Sailing Lore (or another Lore skill if you are already trained in Sailing Lore).</p>"
        },
        "featType": {
            "value": "deityboon"
        },
        "level": {
            "value": 0
        },
        "prerequisites": {
            "value": []
        },
        "rules": [],
        "source": {
            "value": ""
        },
        "traits": {
            "custom": "",
            "rarity": {
                "value": "common"
            },
            "selected": {},
            "value": []
        }
    },
    "effects": [],
    "flags": {},
    "img": "systems/pf2e/icons/deity/Gozreh.webp",
    "name": "Gozreh - Minor Boon",
    "type": "feat"
}
