{
    "_id": "py9v5HfCIzCoyC0C",
    "data": {
        "actionCategory": {
            "value": ""
        },
        "actionType": {
            "value": "passive"
        },
        "actions": {
            "value": null
        },
        "description": {
            "value": "<p><strong>Major Curse</strong>: Your dreams are an unending stream of nightmares. You need 16 hours of rest to try to get enough sleep to recover resources in daily preparation that normally require an 8-hour rest, and even then, you must succeed at a DC 15 flat check to do so, and you are still fatigued on a successful check.</p>"
        },
        "featType": {
            "value": "curse"
        },
        "level": {
            "value": 0
        },
        "prerequisites": {
            "value": []
        },
        "rules": [],
        "source": {
            "value": ""
        },
        "traits": {
            "custom": "",
            "rarity": {
                "value": "common"
            },
            "selected": {},
            "value": []
        }
    },
    "effects": [],
    "flags": {},
    "img": "systems/pf2e/icons/deity/Lamashtu.webp",
    "name": "Lamashtu - Major Curse",
    "type": "feat"
}
