{
    "_id": "Gqy7K6FnbLtwGpud",
    "data": {
        "description": {
            "value": "<p>Granted by @Compendium[pf2e.spells-srd.Bless]{Bless}</p>\n<p>Blessings from beyond help you strike true. You gain a +1 status bonus to attack rolls.</p>"
        },
        "duration": {
            "expiry": "turn-start",
            "sustained": false,
            "unit": "minutes",
            "value": 1
        },
        "level": {
            "value": 0
        },
        "rules": [
            {
                "key": "FlatModifier",
                "label": "Bless",
                "selector": "attack",
                "type": "status",
                "value": 1
            }
        ],
        "source": {
            "value": ""
        },
        "start": {
            "value": 0
        },
        "target": null,
        "tokenIcon": {
            "show": true
        },
        "traits": {
            "custom": "",
            "rarity": {
                "value": "common"
            },
            "value": []
        }
    },
    "effects": [],
    "flags": {},
    "img": "systems/pf2e/icons/spells/bless.webp",
    "name": "Spell Effect: Bless",
    "type": "effect"
}
