{
    "_id": "m4ZU6BerQmEcrEun",
    "data": {
        "description": {
            "value": "<p>You attune yourself to an underlying cosmic order to the world. While you remain in tune with this power, you gain a +1 status bonus to Perception checks, saving throws, and skill checks. If you critically fail any check while under the effects of this spell, the bonus ends and you instead have a -1 status penalty to all checks for the remaining duration.</p>"
        },
        "duration": {
            "expiry": "turn-end",
            "sustained": false,
            "unit": "minutes",
            "value": 1
        },
        "level": {
            "value": 1
        },
        "rules": [
            {
                "key": "FlatModifier",
                "label": "Impeccable Flow",
                "selector": "perception",
                "type": "status",
                "value": 1
            },
            {
                "key": "FlatModifier",
                "label": "Impeccable Flow",
                "selector": "saving-throw",
                "type": "status",
                "value": 1
            },
            {
                "key": "FlatModifier",
                "label": "Impeccable Flow",
                "selector": "skill-check",
                "type": "status",
                "value": 1
            }
        ],
        "source": {
            "value": "Pathfinder Adventure #169: Kindled Magic"
        },
        "start": {
            "initiative": null,
            "value": 0
        },
        "target": null,
        "tokenIcon": {
            "show": false
        },
        "traits": {
            "custom": "",
            "rarity": {
                "value": "common"
            },
            "value": []
        }
    },
    "effects": [],
    "flags": {},
    "img": "systems/pf2e/icons/default-icons/effect.svg",
    "name": "Spell Effect: Impeccable Flow (2nd)",
    "type": "effect"
}
