{
    "_id": "sN3mQ7YrPBogEJRn",
    "data": {
        "description": {
            "value": "<p>Granted by casting @Compendium[pf2e.spells-srd.Animal Form]{Animal Form}.</p>\n<p>You call upon primal energy to transform yourself into a Medium animal battle form. When you first cast this spell, choose a form.</p>\n<p>You can decide the specific type of animal (such as lion or snow leopard for cat), but this has no effect on the form's Size or statistics. While in this form, you gain the animal trait. You can Dismiss the spell.</p>\n<p>You gain the following statistics and abilities regardless of which battle form you choose:</p>\n<ul>\n<li>AC = 16 + your level. Ignore your armor's check penalty and Speed reduction.</li>\n<li>5 temporary Hit Points.</li>\n<li>Low-light vision and imprecise scent 30 feet.</li>\n<li>One or more unarmed melee attacks specific to the battle form you choose, which are the only attacks you can use. You're trained with them. Your attack modifier is +9, and your damage bonus is +1. These attacks are Strength based (for the purpose of the @Compendium[pf2e.conditionitems.Enfeebled]{Enfeebled} condition, for example). If your unarmed attack bonus is higher, you can use it instead.</li>\n<li>Athletics modifier of +9, unless your own modifier is higher.</li>\n</ul>\n<p>You also gain specific abilities based on the type of animal you choose:</p>\n<ul>\n<li><strong>Canine</strong> \n<ul>\n<li>Speed 40 feet;</li>\n<li><strong>Melee</strong> <span class=\"pf2-icon\">1</span> jaws, <strong>Damage</strong> 2d8 piercing.</li>\n</ul>\n</li>\n</ul>\n<hr />\n<p><strong>Heightened (3rd)</strong> You instead gain 10 temporary HP, AC = 17 + your level, attack modifier +14, damage bonus +5, and Athletics +14.</p>\n<p><strong>Heightened (4th)</strong> Your battle form is Large and your attacks have 10-foot reach. You must have enough space to expand into or the spell is lost. You instead gain 15 temporary HP, AC = 18 + your level, attack modifier +16, damage bonus +9, and Athletics +16.</p>\n<p><strong>Heightened (5th)</strong> Your battle form is Huge and your attacks have 15-foot reach. You must have enough space to expand into or the spell is lost. You instead gain 20 temporary HP, AC = 18 + your level, attack modifier +18, damage bonus +7 and double the number of damage dice, and Athletics +20.</p>\n<hr />\n<p><em>Note: To heighten this effect, import it into your Item Directory and edit the level before adding it to the target</em></p>"
        },
        "duration": {
            "expiry": "turn-start",
            "sustained": false,
            "unit": "minutes",
            "value": 1
        },
        "level": {
            "value": 2
        },
        "rules": [
            {
                "key": "FixedProficiency",
                "label": "Animal Form",
                "roll-options": [
                    "ac",
                    "all"
                ],
                "selector": "ac",
                "type": "polymorph",
                "value": {
                    "brackets": [
                        {
                            "end": 2,
                            "start": 2,
                            "value": "16 + @details.level.value"
                        },
                        {
                            "end": 3,
                            "start": 3,
                            "value": "17 + @details.level.value"
                        },
                        {
                            "start": 4,
                            "value": "18 + @details.level.value"
                        }
                    ],
                    "field": "item|data.level.value"
                }
            },
            {
                "key": "TempHP",
                "label": "Animal Form",
                "value": {
                    "brackets": [
                        {
                            "end": 2,
                            "start": 2,
                            "value": 5
                        },
                        {
                            "end": 3,
                            "start": 3,
                            "value": 10
                        },
                        {
                            "end": 4,
                            "start": 4,
                            "value": 15
                        },
                        {
                            "start": 5,
                            "value": 20
                        }
                    ],
                    "field": "item|data.level.value"
                }
            },
            {
                "key": "Sense",
                "label": "PF2E.SensesLowLightVision",
                "selector": "lowLightVision"
            },
            {
                "acuity": "imprecise",
                "key": "Sense",
                "label": "PF2E.SensesScent",
                "range": 30,
                "selector": "scent"
            },
            {
                "ability": "str",
                "key": "FixedProficiency",
                "label": "Animal Form",
                "selector": "attack",
                "value": {
                    "brackets": [
                        {
                            "end": 2,
                            "start": 2,
                            "value": 9
                        },
                        {
                            "end": 3,
                            "start": 3,
                            "value": 14
                        },
                        {
                            "end": 4,
                            "start": 4,
                            "value": 16
                        },
                        {
                            "start": 5,
                            "value": 18
                        }
                    ],
                    "field": "item|data.level.value"
                }
            },
            {
                "ability": "str",
                "key": "FixedProficiency",
                "label": "Animal Form",
                "roll-options": [
                    "all"
                ],
                "selector": "damage",
                "value": {
                    "brackets": [
                        {
                            "end": 2,
                            "start": 2,
                            "value": 1
                        },
                        {
                            "end": 3,
                            "start": 3,
                            "value": 5
                        },
                        {
                            "end": 4,
                            "start": 4,
                            "value": 9
                        },
                        {
                            "start": 5,
                            "value": 7
                        }
                    ],
                    "field": "item|data.level.value"
                }
            },
            {
                "key": "FixedProficiency",
                "label": "Animal Form",
                "roll-options": [
                    "all"
                ],
                "selector": "athletics",
                "value": {
                    "brackets": [
                        {
                            "end": 2,
                            "start": 2,
                            "value": 9
                        },
                        {
                            "end": 3,
                            "start": 3,
                            "value": 14
                        },
                        {
                            "end": 4,
                            "start": 4,
                            "value": 16
                        },
                        {
                            "start": 5,
                            "value": 20
                        }
                    ],
                    "field": "item|data.level.value"
                }
            },
            {
                "key": "CreatureSize",
                "value": {
                    "brackets": [
                        {
                            "end": 3,
                            "start": 1,
                            "value": "med"
                        },
                        {
                            "end": 4,
                            "start": 4,
                            "value": "lg"
                        },
                        {
                            "start": 5,
                            "value": "huge"
                        }
                    ],
                    "field": "item|data.level.value"
                }
            },
            {
                "key": "BaseSpeed",
                "selector": "land-speed",
                "value": 40
            },
            {
                "category": "unarmed",
                "damage": {
                    "base": {
                        "damageType": "piercing",
                        "dice": 2,
                        "die": "d8"
                    }
                },
                "group": "brawling",
                "key": "Strike",
                "label": "Canine Jaws",
                "range": "melee",
                "traits": [
                    "melee"
                ]
            },
            {
                "critical": false,
                "key": "DamageDice",
                "label": "Animal Form",
                "selector": "damage",
                "value": {
                    "brackets": [
                        {
                            "start": 5,
                            "value": {
                                "diceNumber": 2
                            }
                        }
                    ],
                    "field": "item|data.level.value"
                }
            },
            {
                "key": "ActiveEffectLike",
                "mode": "override",
                "path": "flags.pf2e.rollOptions.all.polymorph",
                "priority": 10,
                "value": true
            }
        ],
        "source": {
            "value": ""
        },
        "start": {
            "initiative": null,
            "value": 0
        },
        "target": null,
        "tokenIcon": {
            "show": true
        },
        "traits": {
            "custom": "",
            "rarity": {
                "value": "common"
            },
            "value": []
        }
    },
    "effects": [],
    "flags": {},
    "img": "systems/pf2e/icons/spells/animal-form.webp",
    "name": "Spell Effect: Animal Form (Canine)",
    "type": "effect"
}
