{
    "_id": "ei9MIyZbIaP4AZmh",
    "data": {
        "description": {
            "value": "<p>Three faintly glowing wisps of fire float around your head. Each time you hit a creature with a Strike, one of the wisps goes hurtling towards that creature, dealing 1d4 fire damage. If you Cast a Spell with the fire trait while you have fewer than three wisps, a new wisp appears.</p>\n<hr />\n<p><strong>Heightened (+2)</strong> The damage increases by 1d4.</p>"
        },
        "duration": {
            "expiry": "turn-start",
            "sustained": false,
            "unit": "minutes",
            "value": 1
        },
        "level": {
            "value": 2
        },
        "rules": [
            {
                "key": "Note",
                "selector": "{item|_id}-damage",
                "text": "<p class='compact-text'><strong>Flame Wisp</strong>: Each time you hit a creature with a Strike, one of the wisps goes hurtling towards that creature, dealing [[/r 1d4 #fire]]{1d4 Fire Damage}. <strong>Heightened (+2)</strong> The damage increases by [[/r 1d4]].</p></p>"
            }
        ],
        "source": {
            "value": ""
        },
        "start": {
            "initiative": null,
            "value": 0
        },
        "target": null,
        "tokenIcon": {
            "show": true
        },
        "traits": {
            "custom": "",
            "rarity": {
                "value": "common"
            },
            "value": []
        }
    },
    "effects": [],
    "flags": {},
    "img": "systems/pf2e/icons/default-icons/effect.svg",
    "name": "Spell Effect: Flame Wisp",
    "type": "effect"
}
