{
    "_id": "2wfrhRLmmgPSKbAZ",
    "data": {
        "description": {
            "value": "<p>Granted by @Compendium[pf2e.spells-srd.Animal Feature]{Animal Feature}.</p>\n<p>You gain a claw attack that deals [[/r 1d6 #slashing]]{1d6 slashing damage} and has the agile, finesse, and unarmed traits.</p>"
        },
        "duration": {
            "expiry": "turn-start",
            "sustained": false,
            "unit": "minutes",
            "value": 1
        },
        "level": {
            "value": 2
        },
        "rules": [
            {
                "category": "unarmed",
                "damage": {
                    "base": {
                        "damageType": "slashing",
                        "dice": 1,
                        "die": "d6"
                    }
                },
                "group": "brawling",
                "key": "Strike",
                "label": "Claws",
                "range": "melee",
                "traits": [
                    "agile",
                    "finesse",
                    "unarmed"
                ]
            }
        ],
        "source": {
            "value": ""
        },
        "start": {
            "initiative": null,
            "value": 0
        },
        "target": null,
        "tokenIcon": {
            "show": true
        },
        "traits": {
            "custom": "",
            "rarity": {
                "value": "common"
            },
            "value": []
        }
    },
    "effects": [],
    "flags": {},
    "img": "systems/pf2e/icons/spells/animal-feature.webp",
    "name": "Spell Effect: Animal Feature (Claws)",
    "type": "effect"
}
