{
    "_id": "5MI2c9IgxfSeGZQo",
    "data": {
        "description": {
            "value": "<p>Granted by @Compendium[pf2e.spells-srd.Wind Jump]{Wind Jump}</p>\n<p>You gain a fly Speed equal to your Speed. You must end your turn on solid ground, or you fall.</p>"
        },
        "duration": {
            "expiry": "turn-start",
            "sustained": false,
            "unit": "minutes",
            "value": 1
        },
        "level": {
            "value": 5
        },
        "rules": [
            {
                "key": "BaseSpeed",
                "selector": "fly",
                "value": "@attributes.speed.value"
            }
        ],
        "source": {
            "value": ""
        },
        "start": {
            "initiative": null,
            "value": 0
        },
        "target": null,
        "tokenIcon": {
            "show": true
        },
        "traits": {
            "custom": "",
            "rarity": {
                "value": "common"
            },
            "value": []
        }
    },
    "effects": [],
    "flags": {},
    "img": "systems/pf2e/icons/spells/wind-jump.webp",
    "name": "Spell Effect: Wind Jump",
    "type": "effect"
}
