{
    "_id": "UVrEe0nukiSmiwfF",
    "data": {
        "description": {
            "value": "<p>You focus deeply on the link between you and your eidolon and reinforce your eidolon's defenses. Your eidolon gains a +1 status bonus to AC and saving throws, plus resistance to all damage equal to half the spell's level. Your eidolon can benefit from either Boost Eidolon or Reinforce Eidolon, but not both; if you cast one of these spells during the other's duration, the newer spell replaces the older one.</p>"
        },
        "duration": {
            "expiry": "turn-start",
            "sustained": false,
            "unit": "rounds",
            "value": 1
        },
        "level": {
            "value": 1
        },
        "rules": [
            {
                "key": "FlatModifier",
                "label": "Reinforce Eidolon",
                "selector": "ac",
                "type": "status",
                "value": 1
            },
            {
                "key": "FlatModifier",
                "label": "Reinforce Eidolon",
                "selector": "saving-throw",
                "type": "status",
                "value": 1
            }
        ],
        "source": {
            "value": ""
        },
        "start": {
            "initiative": null,
            "value": 0
        },
        "target": null,
        "tokenIcon": {
            "show": false
        },
        "traits": {
            "custom": "",
            "rarity": {
                "value": "common"
            },
            "value": []
        }
    },
    "effects": [],
    "flags": {},
    "img": "systems/pf2e/icons/default-icons/effect.svg",
    "name": "Spell Effect: Reinforce Eidolon",
    "type": "effect"
}
