{
    "_id": "mr6mlkUMeStdChxi",
    "data": {
        "description": {
            "value": "<p>Granted by @Compendium[pf2e.spells-srd.Animal Feature]{Animal Feature}.</p>\n<p>You gain darkvision.</p>"
        },
        "duration": {
            "expiry": "turn-start",
            "sustained": false,
            "unit": "minutes",
            "value": 1
        },
        "level": {
            "value": 2
        },
        "rules": [
            {
                "key": "Sense",
                "label": "PF2E.SensesDarkvision",
                "selector": "darkvision"
            }
        ],
        "source": {
            "value": ""
        },
        "start": {
            "initiative": null,
            "value": 0
        },
        "target": null,
        "tokenIcon": {
            "show": true
        },
        "traits": {
            "custom": "",
            "rarity": {
                "value": "common"
            },
            "value": []
        }
    },
    "effects": [],
    "flags": {},
    "img": "systems/pf2e/icons/spells/animal-feature.webp",
    "name": "Spell Effect: Animal Feature (Owl Eyes)",
    "type": "effect"
}
