{
    "_id": "7nbKDBGvwSx9T27G",
    "data": {
        "actionCategory": {
            "value": ""
        },
        "actionType": {
            "value": "passive"
        },
        "actions": {
            "value": null
        },
        "description": {
            "value": "<p>Many arcane spellcasters delve deeply into a single school of magic in an attempt to master its secrets. If yopu want to be a specialist wizard, choose a school in which to specialize. You gain additional spells and spell slots for spells of your school. Arcane schools are all listed below.</p>\n<p>If you don't choose a school, you're a universalist, a wizard who believes the path to true knowledge of magic requires a multidisciplinary understanding of all eight schools working together. Though a universalist lacks the focus of a specialist wizard, they have greater flexibility.</p>\n<ul>\n<li>@Compendium[pf2e.classfeatures.Arcane School: Abjuration]{Arcane School: Abjuration}</li>\n<li>@Compendium[pf2e.classfeatures.Arcane School: Conjuration]{Arcane School: Conjuration}</li>\n<li>@Compendium[pf2e.classfeatures.Arcane School: Divination]{Arcane School: Divination}</li>\n<li>@Compendium[pf2e.classfeatures.Arcane School: Enchantment]{Arcane School: Enchantment}</li>\n<li>@Compendium[pf2e.classfeatures.Arcane School: Evocation]{Arcane School: Evocation}</li>\n<li>@Compendium[pf2e.classfeatures.Arcane School: Illusion]{Arcane School: Illusion}</li>\n<li>@Compendium[pf2e.classfeatures.Arcane School: Necromancy]{Arcane School: Necromancy}</li>\n<li>@Compendium[pf2e.classfeatures.Arcane School: Transmutation]{Arcane School: Transmutation}</li>\n<li>@Compendium[pf2e.classfeatures.Arcane School: Universalist]{Arcane School: Universalist}</li>\n</ul>"
        },
        "featType": {
            "value": "classfeature"
        },
        "level": {
            "value": 1
        },
        "location": "",
        "prerequisites": {
            "value": []
        },
        "rules": [],
        "source": {
            "value": ""
        },
        "traits": {
            "custom": "",
            "rarity": {
                "value": "common"
            },
            "value": [
                "wizard"
            ]
        }
    },
    "effects": [],
    "flags": {},
    "img": "systems/pf2e/icons/default-icons/feat.svg",
    "name": "Arcane School",
    "type": "feat"
}
