{
    "_id": "u6cBjqz2fiRBadBt",
    "data": {
        "actionCategory": {
            "value": ""
        },
        "actionType": {
            "value": "passive"
        },
        "actions": {
            "value": null
        },
        "description": {
            "value": "<p>You have trained to aim for your prey's weak points. The first time you hit your hunted prey in a round, you also deal 1d8 additional precision damage. (Precision damage increases the damage you already deal, using the same type, but is ineffective against creatures that lack vital organs or weak points.)</p>\n<p>At 11th level, the extra damage increases to 2d8 precision damage, and at 19th level, the extra damage increases to 3d8 precision damage.</p>"
        },
        "featType": {
            "value": "classfeature"
        },
        "level": {
            "value": 1
        },
        "location": "",
        "prerequisites": {
            "value": []
        },
        "rules": [
            {
                "key": "ToggleProperty",
                "label": "First attack on hunted prey this round",
                "property": "flags.pf2e.rollOptions.all.first-attack"
            },
            {
                "damageType": "precision",
                "dieSize": "d8",
                "key": "DamageDice",
                "predicate": {
                    "all": [
                        "first-attack"
                    ]
                },
                "roll-options": [
                    "all"
                ],
                "selector": "damage",
                "value": {
                    "brackets": [
                        {
                            "end": 10,
                            "value": {
                                "diceNumber": 1
                            }
                        },
                        {
                            "end": 18,
                            "start": 11,
                            "value": {
                                "diceNumber": 2
                            }
                        },
                        {
                            "start": 19,
                            "value": {
                                "diceNumber": 3
                            }
                        }
                    ]
                }
            }
        ],
        "source": {
            "value": ""
        },
        "traits": {
            "custom": "",
            "rarity": {
                "value": "common"
            },
            "value": [
                "ranger"
            ]
        }
    },
    "effects": [],
    "flags": {},
    "img": "systems/pf2e/icons/features/classes/precision.webp",
    "name": "Hunter's Edge: Precision",
    "type": "feat"
}
