{
    "_id": "KPtF29AaeX2sJW0K",
    "data": {
        "actionCategory": {
            "value": ""
        },
        "actionType": {
            "value": "passive"
        },
        "actions": {
            "value": null
        },
        "description": {
            "value": "<p>You weren't born with the power to cast spells, nor have you spent years in devotion to tomes, deities, or mystical secrets. Your power comes through a potent being that has chosen you as their vessel to carry forth some agenda in the world. This entity is typically mysterious and distant, revealing little of their identity and motivations, and they grant you spells and other magical powers through a familiar, which serves as a conduit for their power.</p>\n<p>A patron might be a deity or demigod, a coven of powerful hags, a fey lord, an archdevil, or a similarly powerful entity, or perhaps multiple such figures workingin tandem. As you gain more of your patron's power, you might learn more about who or what they are-certain combinations of themes and lessons suggest particular patrons or agendas-but patrons empower witches for their own secretive reasons, which they rarely reveal in full.</p>\n<p>At 1st level, choose your patron's theme, which determines your spellcasting tradition, a skill, a special cantrip you gain, and a spell added to your familiar. The patron themes are as follows:</p>\n<ul>\n<li>@Compendium[pf2e.classfeatures.Baba Yaga Patron]{Baba Yaga Patron}</li>\n<li>@Compendium[pf2e.classfeatures.Curse Patron]{Curse Patron}</li>\n<li>@Compendium[pf2e.classfeatures.Fate Patron]{Fate Patron}</li>\n<li>@Compendium[pf2e.classfeatures.Fervor Patron]{Fervor Patron}</li>\n<li>@Compendium[pf2e.classfeatures.Night Patron]{Night Patron}</li>\n<li>@Compendium[pf2e.classfeatures.Rune Patron]{Rune Patron}</li>\n<li>@Compendium[pf2e.classfeatures.Wild Patron]{Wild Patron}</li>\n<li>@Compendium[pf2e.classfeatures.Winter Patron]{Winter Patron}</li>\n</ul>"
        },
        "featType": {
            "value": "classfeature"
        },
        "level": {
            "value": 1
        },
        "location": "",
        "prerequisites": {
            "value": []
        },
        "rules": [],
        "source": {
            "value": ""
        },
        "traits": {
            "custom": "",
            "rarity": {
                "value": "common"
            },
            "value": [
                "witch"
            ]
        }
    },
    "effects": [],
    "flags": {},
    "img": "systems/pf2e/icons/features/classes/patreon.webp",
    "name": "Patron",
    "type": "feat"
}
