{
    "_id": "TQqv9Q5mB4PW6LH9",
    "data": {
        "actionCategory": {
            "value": ""
        },
        "actionType": {
            "value": "passive"
        },
        "actions": {
            "value": null
        },
        "description": {
            "value": "<p>Whether you are emotionally sensitive to the spirits around you; worship ancestors or apparitions; or are haunted by the specter of an ancestor, relative, friend, or foe, your rage takes the form of a spiritual possession.</p>\n<h2>Anathema</h2>\n<p>Disrespecting corpses or spirits is anathema to your instinct; defending yourself against undead creatures is not.</p>\n<h2>Spirit Rage (Instinct Ability)</h2>\n<p>When raging, you can increase the additional damage from Rage from 2 to 3 and change its damage type to negative or positive, instead of the damage type for your weapon or unarmed attack (choose each time you Rage). If you choose to deal negative or positive damage, your weapon or unarmed attack gains the effects of the ghost touch property rune, which makes it more effective against incorporeal creatures, and your Rage action gains the divine and necromancy traits, plus negative or positive, as appropriate.</p>\n<h2>Specialization Ability</h2>\n<p>When using spirit rage, increase the damage from Rage from 3 to 7. If you have greater weapon specialization, instead increase the damage when using spirit rage to 13.</p>\n<h2>Raging Resistance</h2>\n<p>You resist negative damage, as well as damage dealt by the attacks and abilities of undead creatures, regardless of the damage type.</p>"
        },
        "featType": {
            "value": "classfeature"
        },
        "level": {
            "value": 1
        },
        "location": "",
        "prerequisites": {
            "value": []
        },
        "rules": [
            {
                "key": "FlatModifier",
                "label": "Rage",
                "predicate": {
                    "all": [
                        "rage"
                    ],
                    "not": [
                        "barbarian-dedication"
                    ]
                },
                "roll-options": [
                    "ac",
                    "all"
                ],
                "selector": "ac",
                "value": -1
            },
            {
                "key": "FlatModifier",
                "label": "Rage",
                "name": "rage-spirit",
                "predicate": {
                    "all": [
                        "rage"
                    ],
                    "not": [
                        "ranged",
                        "agile",
                        "negative-spirit",
                        "positive-spirit",
                        "barbarian-dedication"
                    ]
                },
                "selector": "damage",
                "value": 2
            },
            {
                "key": "FlatModifier",
                "label": "Rage",
                "name": "rage-spirit-agile",
                "predicate": {
                    "all": [
                        "rage",
                        "agile"
                    ],
                    "not": [
                        "ranged",
                        "negative-spirit",
                        "positive-spirit",
                        "barbarian-dedication"
                    ]
                },
                "selector": "damage",
                "value": 1
            },
            {
                "key": "ToggleProperty",
                "label": "Positive spirit damage",
                "property": "flags.pf2e.rollOptions.all.positive-spirit"
            },
            {
                "damageType": "positive",
                "key": "FlatModifier",
                "label": "Rage",
                "name": "rage-spirit-positive",
                "predicate": {
                    "all": [
                        "rage",
                        "positive-spirit"
                    ],
                    "not": [
                        "ranged",
                        "agile",
                        "negative-spirit",
                        "barbarian-dedication"
                    ]
                },
                "selector": "damage",
                "value": {
                    "brackets": [
                        {
                            "end": 6,
                            "value": 3
                        },
                        {
                            "end": 14,
                            "start": 7,
                            "value": 7
                        },
                        {
                            "start": 15,
                            "value": 13
                        }
                    ]
                }
            },
            {
                "damageType": "positive",
                "key": "FlatModifier",
                "label": "Rage",
                "name": "rage-spirit-agile",
                "predicate": {
                    "all": [
                        "agile",
                        "rage",
                        "positive-spirit"
                    ],
                    "not": [
                        "ranged",
                        "negative-spirit",
                        "barbarian-dedication"
                    ]
                },
                "selector": "damage",
                "value": {
                    "brackets": [
                        {
                            "end": 6,
                            "value": 1
                        },
                        {
                            "end": 14,
                            "start": 7,
                            "value": 3
                        },
                        {
                            "start": 15,
                            "value": 6
                        }
                    ]
                }
            },
            {
                "key": "ToggleProperty",
                "label": "Negative spirit damage",
                "property": "flags.pf2e.rollOptions.all.negative-spirit"
            },
            {
                "damageType": "negative",
                "key": "FlatModifier",
                "label": "Rage",
                "name": "rage-spirit-negative",
                "predicate": {
                    "all": [
                        "rage",
                        "negative-spirit"
                    ],
                    "not": [
                        "ranged",
                        "agile",
                        "positive-spirit",
                        "barbarian-dedication"
                    ]
                },
                "selector": "damage",
                "value": {
                    "brackets": [
                        {
                            "end": 6,
                            "value": 3
                        },
                        {
                            "end": 14,
                            "start": 7,
                            "value": 7
                        },
                        {
                            "start": 15,
                            "value": 13
                        }
                    ]
                }
            },
            {
                "damageType": "negative",
                "key": "FlatModifier",
                "label": "Rage",
                "name": "rage-spirit-negative-agile",
                "predicate": {
                    "all": [
                        "agile",
                        "rage",
                        "negative-spirit"
                    ],
                    "not": [
                        "ranged",
                        "positive-spirit",
                        "barbarian-dedication"
                    ]
                },
                "selector": "damage",
                "value": {
                    "brackets": [
                        {
                            "end": 6,
                            "value": 1
                        },
                        {
                            "end": 14,
                            "start": 7,
                            "value": 3
                        },
                        {
                            "start": 15,
                            "value": 6
                        }
                    ]
                }
            },
            {
                "key": "FlatModifier",
                "label": "Rage",
                "name": "rage-spirit-dedication",
                "predicate": {
                    "all": [
                        "rage",
                        "instinct-ability"
                    ],
                    "not": [
                        "ranged",
                        "agile",
                        "negative-spirit",
                        "positive-spirit"
                    ]
                },
                "selector": "damage",
                "value": 2
            },
            {
                "key": "FlatModifier",
                "label": "Rage",
                "name": "rage-spirit-agile-dedication",
                "predicate": {
                    "all": [
                        "rage",
                        "agile",
                        "instinct-ability"
                    ],
                    "not": [
                        "ranged",
                        "negative-spirit",
                        "positive-spirit"
                    ]
                },
                "selector": "damage",
                "value": 1
            },
            {
                "damageType": "positive",
                "key": "FlatModifier",
                "label": "Rage",
                "name": "rage-spirit-positive-dedication",
                "predicate": {
                    "all": [
                        "rage",
                        "positive-spirit",
                        "instinct-ability"
                    ],
                    "not": [
                        "ranged",
                        "agile",
                        "negative-spirit"
                    ]
                },
                "selector": "damage",
                "value": 3
            },
            {
                "damageType": "positive",
                "key": "FlatModifier",
                "label": "Rage",
                "name": "rage-spirit-agile-dedication",
                "predicate": {
                    "all": [
                        "agile",
                        "rage",
                        "positive-spirit",
                        "instinct-ability"
                    ],
                    "not": [
                        "ranged",
                        "negative-spirit"
                    ]
                },
                "selector": "damage",
                "value": 1
            },
            {
                "damageType": "negative",
                "key": "FlatModifier",
                "label": "Rage",
                "name": "rage-spirit-negative-dedication",
                "predicate": {
                    "all": [
                        "rage",
                        "negative-spirit",
                        "instinct-ability"
                    ],
                    "not": [
                        "ranged",
                        "agile",
                        "positive-spirit"
                    ]
                },
                "selector": "damage",
                "value": 3
            },
            {
                "damageType": "negative",
                "key": "FlatModifier",
                "label": "Rage",
                "name": "rage-spirit-negative-agile-dedication",
                "predicate": {
                    "all": [
                        "agile",
                        "rage",
                        "negative-spirit",
                        "instinct-ability"
                    ],
                    "not": [
                        "ranged",
                        "positive-spirit"
                    ]
                },
                "selector": "damage",
                "value": 1
            }
        ],
        "source": {
            "value": ""
        },
        "traits": {
            "custom": "",
            "rarity": {
                "value": "common"
            },
            "value": [
                "barbarian"
            ]
        }
    },
    "effects": [],
    "flags": {},
    "img": "systems/pf2e/icons/features/classes/spirit-instinct.webp",
    "name": "Spirit Instinct",
    "type": "feat"
}
