{
    "_id": "p5ZGpvIfEiBgMG2f",
    "data": {
        "abilities": {
            "cha": {
                "mod": 2
            },
            "con": {
                "mod": 2
            },
            "dex": {
                "mod": 2
            },
            "int": {
                "mod": 2
            },
            "str": {
                "mod": 2
            },
            "wis": {
                "mod": 2
            }
        },
        "attributes": {
            "ac": {
                "details": "",
                "value": 15
            },
            "allSaves": {
                "value": ""
            },
            "hp": {
                "details": "",
                "max": 22,
                "temp": 0,
                "value": 22
            },
            "initiative": {
                "ability": "perception"
            },
            "perception": {
                "value": 7
            },
            "shield": {
                "ac": 0,
                "brokenThreshold": 0,
                "hardness": 0,
                "max": 0,
                "value": 0
            },
            "speed": {
                "otherSpeeds": [],
                "value": "25"
            }
        },
        "details": {
            "alignment": {
                "value": "N"
            },
            "creatureType": "Petitioner",
            "flavorText": "<p>When a mortal dies, their soul travels to the Boneyard in the Outer Planes where they are judged by Pharasma, the goddess of the dead. Once they have been judged, their soul is sent on to their final reward or punishment in the afterlife, and in the process is transformed into a creature known as a petitioner. This process grants the soul a new body, one whose shape is the result of the prevailing philosophical forces of the plane to which it is sent. The petitioner's memories from their life are typically wiped nearly clean, allowing them to retain only a few hazy fragments akin to half-remembered dreams. Regardless of the petitioner's size, power, or nature in life, they're a Medium creature in their afterlife.</p>\n<p> </p>\n<p>Existence as a petitioner can last for eons, but this state is not necessarily eternal. Deities, powerful denizens of the Great Beyond, or even the outer planes themselves can further change the petitioner's nature by transforming them into raw quintessence, spiritual essence that is then used to expand a plane's physical manifestation, or by transforming the petitioner into a new form of supernatural life such as a celestial, monitor, or fiend. Should a petitioner die, their body breaks down in a process akin to decay, their nature reverting back to the quintessence or elements that make up their plane. This represents the true end of a soul's journey: their associated life essence travels back to the heart of the Great Beyond to be recycled into the Positive Energy plane, fueling the creation of entirely new souls.</p>\n<p> </p>\n<p>The terrorized appear as sickly, haunted-looking versions of their mortal selves</p>",
            "level": {
                "value": 1
            },
            "source": {
                "value": "Pathfinder Bestiary 2"
            }
        },
        "resources": {},
        "saves": {
            "fortitude": {
                "saveDetail": "",
                "value": 7
            },
            "reflex": {
                "saveDetail": "",
                "value": 7
            },
            "will": {
                "saveDetail": "",
                "value": 7
            }
        },
        "traits": {
            "ci": [],
            "di": {
                "custom": "",
                "value": [
                    "bleed",
                    "death-effects"
                ]
            },
            "dr": [],
            "dv": [],
            "languages": {
                "custom": "any one spoken in life (such as Common)",
                "selected": [],
                "value": []
            },
            "rarity": {
                "value": "common"
            },
            "senses": {
                "value": "darkvision"
            },
            "size": {
                "value": "med"
            },
            "traits": {
                "custom": "",
                "value": [
                    "ethereal",
                    "petitioner"
                ]
            }
        }
    },
    "effects": [],
    "flags": {},
    "img": "systems/pf2e/icons/default-icons/npc.svg",
    "items": [
        {
            "_id": "4zBBMGUTIvxbdVBf",
            "data": {
                "attack": {
                    "value": ""
                },
                "attackEffects": {
                    "value": []
                },
                "bonus": {
                    "value": 7
                },
                "damageRolls": {
                    "1nd44vg6iporf933zo2vte": {
                        "damage": "1d8+2",
                        "damageType": "bludgeoning"
                    }
                },
                "description": {
                    "value": ""
                },
                "rules": [],
                "slug": null,
                "source": {
                    "value": ""
                },
                "traits": {
                    "custom": "",
                    "rarity": {
                        "value": "common"
                    },
                    "value": []
                },
                "weaponType": {
                    "value": "melee"
                }
            },
            "effects": [],
            "flags": {},
            "img": "systems/pf2e/icons/default-icons/melee.svg",
            "name": "Fist",
            "sort": 100000,
            "type": "melee"
        },
        {
            "_id": "CwjWGtOVvGZH0bP8",
            "data": {
                "actionCategory": {
                    "value": "interaction"
                },
                "actionType": {
                    "value": "passive"
                },
                "actions": {
                    "value": null
                },
                "description": {
                    "value": "<p>A monster with darkvision can see perfectly well in areas of darkness and dim light, though such vision is in black and white only. Some forms of magical darkness, such as a 4th-level @Compendium[pf2e.spells-srd.Darkness]{Darkness} spell, block normal darkvision. A monster with @Compendium[pf2e.bestiary-ability-glossary-srd.Greater Darkvision]{Greater Darkvision}, however, can see through even these forms of magical darkness.</p>"
                },
                "requirements": {
                    "value": ""
                },
                "rules": [],
                "slug": "darkvision",
                "source": {
                    "value": ""
                },
                "traits": {
                    "custom": "",
                    "rarity": {
                        "value": "common"
                    },
                    "value": []
                },
                "trigger": {
                    "value": ""
                },
                "weapon": {
                    "value": ""
                }
            },
            "effects": [],
            "flags": {
                "core": {
                    "sourceId": "Compendium.pf2e.bestiary-ability-glossary-srd.qCCLZhnp2HhP3Ex6"
                }
            },
            "img": "systems/pf2e/icons/default-icons/action.svg",
            "name": "Darkvision",
            "sort": 200000,
            "type": "action"
        },
        {
            "_id": "9yu44cM7W0Xg2Q36",
            "data": {
                "actionCategory": {
                    "value": "offensive"
                },
                "actionType": {
                    "value": "passive"
                },
                "actions": {
                    "value": 1
                },
                "description": {
                    "value": "<p>All petitioners are formed from and personify the nature of the plane on which they manifest, and their statistics are adjusted as summarized below. They also gain any trait associated with creatures from their plane.</p>\n<p><strong>Ethereal Plane</strong> The terrorized appear as sickly, haunted-looking versions of their mortal selves;</p>\n<ul>\n<li><strong>Alignment</strong> any;</li>\n<li><strong>Language</strong> any one spoken in life (such as Common);</li>\n<li><strong>Additional Ability</strong> immune to bleed and death effects;</li>\n<li><strong>Melee</strong> fist +7, <strong>Damage</strong> 1d8+2 bludgeoning</li>\n</ul>"
                },
                "requirements": {
                    "value": ""
                },
                "rules": [],
                "slug": null,
                "source": {
                    "value": ""
                },
                "traits": {
                    "custom": "",
                    "rarity": {
                        "value": "common"
                    },
                    "value": [
                        "bleed",
                        "death"
                    ]
                },
                "trigger": {
                    "value": ""
                },
                "weapon": {
                    "value": ""
                }
            },
            "effects": [],
            "flags": {},
            "img": "systems/pf2e/icons/default-icons/mystery-man.svg",
            "name": "Planar Incarnation - Ethereal Plane",
            "sort": 300000,
            "type": "action"
        },
        {
            "_id": "Oiqxjokle1WbAEyL",
            "data": {
                "description": {
                    "value": ""
                },
                "item": {
                    "value": 0
                },
                "mod": {
                    "value": 7
                },
                "proficient": {
                    "value": 0
                },
                "rules": [],
                "slug": null,
                "source": {
                    "value": ""
                },
                "traits": {
                    "custom": "",
                    "rarity": {
                        "value": "common"
                    },
                    "value": []
                }
            },
            "effects": [],
            "flags": {},
            "img": "systems/pf2e/icons/default-icons/lore.svg",
            "name": "Athletics",
            "sort": 400000,
            "type": "lore"
        },
        {
            "_id": "HUJdrgu9JAWlm7bC",
            "data": {
                "description": {
                    "value": ""
                },
                "item": {
                    "value": 0
                },
                "mod": {
                    "value": 7
                },
                "proficient": {
                    "value": 0
                },
                "rules": [],
                "slug": null,
                "source": {
                    "value": ""
                },
                "traits": {
                    "custom": "",
                    "rarity": {
                        "value": "common"
                    },
                    "value": []
                }
            },
            "effects": [],
            "flags": {},
            "img": "systems/pf2e/icons/default-icons/lore.svg",
            "name": "Planar Lore",
            "sort": 500000,
            "type": "lore"
        }
    ],
    "name": "Petitioner (Ethereal Plane)",
    "token": {
        "disposition": -1,
        "height": 1,
        "img": "systems/pf2e/icons/default-icons/npc.svg",
        "name": "Petitioner (Ethereal Plane)",
        "width": 1
    },
    "type": "npc"
}
