{
    "_id": "7UBCht1tQfeba2Ih",
    "data": {
        "abilities": {
            "cha": {
                "mod": -5
            },
            "con": {
                "mod": 3
            },
            "dex": {
                "mod": 4
            },
            "int": {
                "mod": -5
            },
            "str": {
                "mod": 5
            },
            "wis": {
                "mod": 0
            }
        },
        "attributes": {
            "ac": {
                "base": 23,
                "details": "",
                "value": 23
            },
            "allSaves": {
                "value": ""
            },
            "hp": {
                "details": "",
                "max": 95,
                "temp": 0,
                "value": 95
            },
            "initiative": {
                "ability": "perception"
            },
            "perception": {
                "value": 12
            },
            "shield": {
                "ac": 0,
                "brokenThreshold": 0,
                "hardness": 0,
                "max": 0,
                "value": 0
            },
            "speed": {
                "otherSpeeds": [],
                "value": "25"
            }
        },
        "details": {
            "alignment": {
                "value": "N"
            },
            "creatureType": "Construct",
            "flavorText": "<p>Wood golems are often given vaguely humanoid shapes, almost as if cobbled together from scraps of firewood and discarded burls. It's less common for wood golems to have artistic embellishments such as engraved patterns, or to be carved in the shapes of different types of creatures to meet the tastes of their owners. While wealthy patrons have been known to commission wood golems to be painstakingly carved to resemble themselves or their ancestors, to serve dual purposes of protection and ego bolstering, most wood golem crafters don't bother. Druids and creatures who protect woodlands, such as arboreals, typically see wood golems as an affront or an abomination, akin to the horror humanoids often feel when facing a carrion or flesh golem. As a result, it is rare to see such creatures serving as guardians for fey or druidic holy sites, despite the thematic match between the wood golem's appearance and such locations.</p>\n<hr />\n<p>The shape and structure of a golem are limited only by the power and creativity of its crafter. Over the ages, skilled minds and hands have refined the formulas for creating specific types of golems, resulting in the development of common forms. The secrets of creating the types of golems presented here may be guarded within the halls of famous golemworks or the forgotten libraries of many worlds.</p>",
            "level": {
                "value": 6
            },
            "source": {
                "value": "Pathfinder Bestiary 2"
            }
        },
        "resources": {},
        "saves": {
            "fortitude": {
                "saveDetail": "",
                "value": 15
            },
            "reflex": {
                "saveDetail": "",
                "value": 16
            },
            "will": {
                "saveDetail": "",
                "value": 12
            }
        },
        "traits": {
            "attitude": {
                "value": "hostile"
            },
            "ci": [],
            "di": {
                "custom": "",
                "value": [
                    "bleed",
                    "death-effects",
                    "disease",
                    "doomed",
                    "drained",
                    "fatigued",
                    "healing",
                    "magic",
                    "mental",
                    "necromancy",
                    "nonlethal-attacks",
                    "paralyzed",
                    "poison",
                    "sickened",
                    "unconscious"
                ]
            },
            "dr": [
                {
                    "exceptions": "except adamantine",
                    "label": "Physical",
                    "type": "physical",
                    "value": "5"
                }
            ],
            "dv": [],
            "languages": {
                "custom": "",
                "selected": [],
                "value": []
            },
            "rarity": {
                "value": "uncommon"
            },
            "senses": {
                "value": "darkvision"
            },
            "size": {
                "value": "med"
            },
            "traits": {
                "custom": "",
                "value": [
                    "construct",
                    "golem",
                    "mindless"
                ]
            }
        }
    },
    "effects": [],
    "flags": {},
    "img": "systems/pf2e/icons/default-icons/npc.svg",
    "items": [
        {
            "_id": "3CKGWY5tOmbNJznT",
            "data": {
                "attack": {
                    "value": ""
                },
                "attackEffects": {
                    "value": []
                },
                "bonus": {
                    "value": 17
                },
                "damageRolls": {
                    "ndzpfo6yy7djls78v8y3": {
                        "damage": "2d8+8",
                        "damageType": "bludgeoning"
                    }
                },
                "description": {
                    "value": ""
                },
                "rules": [],
                "slug": null,
                "source": {
                    "value": ""
                },
                "traits": {
                    "custom": "",
                    "rarity": {
                        "value": "common"
                    },
                    "value": [
                        "magical"
                    ]
                },
                "weaponType": {
                    "value": "melee"
                }
            },
            "effects": [],
            "flags": {},
            "img": "systems/pf2e/icons/default-icons/melee.svg",
            "name": "Fist",
            "sort": 100000,
            "type": "melee"
        },
        {
            "_id": "TzQpE2J6oD8ijpuC",
            "data": {
                "attack": {
                    "value": ""
                },
                "attackEffects": {
                    "value": []
                },
                "bonus": {
                    "value": 16
                },
                "damageRolls": {
                    "mdywnbjtpwp6nsmf4pii": {
                        "damage": "2d4+8",
                        "damageType": "piercing"
                    }
                },
                "description": {
                    "value": ""
                },
                "rules": [],
                "slug": null,
                "source": {
                    "value": ""
                },
                "traits": {
                    "custom": "",
                    "rarity": {
                        "value": "common"
                    },
                    "value": [
                        "magical",
                        "range-increment-30"
                    ]
                },
                "weaponType": {
                    "value": "ranged"
                }
            },
            "effects": [],
            "flags": {},
            "img": "systems/pf2e/icons/default-icons/melee.svg",
            "name": "Splinter",
            "sort": 200000,
            "type": "melee"
        },
        {
            "_id": "VOzKuytxsOHWyPEJ",
            "data": {
                "actionCategory": {
                    "value": "interaction"
                },
                "actionType": {
                    "value": "passive"
                },
                "actions": {
                    "value": null
                },
                "description": {
                    "value": "<p>A monster with darkvision can see perfectly well in areas of darkness and dim light, though such vision is in black and white only. Some forms of magical darkness, such as a 4th-level @Compendium[pf2e.spells-srd.Darkness]{Darkness} spell, block normal darkvision. A monster with @Compendium[pf2e.bestiary-ability-glossary-srd.Greater Darkvision]{Greater Darkvision}, however, can see through even these forms of magical darkness.</p>"
                },
                "requirements": {
                    "value": ""
                },
                "rules": [],
                "slug": "darkvision",
                "source": {
                    "value": ""
                },
                "traits": {
                    "custom": "",
                    "rarity": {
                        "value": "common"
                    },
                    "value": []
                },
                "trigger": {
                    "value": ""
                },
                "weapon": {
                    "value": ""
                }
            },
            "effects": [],
            "flags": {
                "core": {
                    "sourceId": "Compendium.pf2e.bestiary-ability-glossary-srd.qCCLZhnp2HhP3Ex6"
                }
            },
            "img": "systems/pf2e/icons/default-icons/action.svg",
            "name": "Darkvision",
            "sort": 300000,
            "type": "action"
        },
        {
            "_id": "L8tZphaG7qnpPLpQ",
            "data": {
                "actionCategory": {
                    "value": "defensive"
                },
                "actionType": {
                    "value": "passive"
                },
                "actions": {
                    "value": null
                },
                "description": {
                    "value": "<p>harmed by fire ([[/r 4d8 #damage]]{4d8 damage}, [[/r 2d6 #damage]]{2d6 damage} from areas or persistent damage); healed by plant (area [[/r 2d6 #Hit Points]]{2d6 Hit Points}); slowed by earth</p>\n<hr />\n<p>A golem is immune to spells and magical abilities other than its own, but each type of golem is affected by a few types of magic in special ways. These exceptions are listed in shortened form in the golem's stat block, with the full rules appearing here. If an entry lists multiple types (such as \"cold and water\"), either type of spell can affect the golem.</p>\n<ul>\n<li><strong>Harmed By</strong> Any magic of this type that targets the golem causes it to take the listed amount of damage (this damage has no type) instead of the usual effect. If the golem starts its turn in an area of magic of this type or is affected by a persistent effect of the appropriate type, it takes the damage listed in the parenthetical.</li>\n<li><strong>Healed By</strong> Any magic of this type that targets the golem makes the golem lose the slowed condition and gain HP equal to half the damage the spell would have dealt. If the golem starts its turn in an area of this type of magic, it gains the HP listed in the parenthetical.</li>\n<li><strong>Slowed By</strong> Any magic of this type that targets the golem causes it to be @Compendium[pf2e.conditionitems.Slowed]{Slowed 1} for [[/r 2d6 #rounds]]{2d6 rounds} instead of the usual effect. If the golem starts its turn in an area of this type of magic, it's slowed 1 for that round.</li>\n<li><strong>Vulnerable To</strong> Each golem is vulnerable to one or more specific spells, with the effects described in its stat block.</li>\n</ul>"
                },
                "requirements": {
                    "value": ""
                },
                "rules": [],
                "slug": "golem-golem-antimagic",
                "source": {
                    "value": ""
                },
                "traits": {
                    "custom": "",
                    "rarity": {
                        "value": "common"
                    },
                    "value": []
                },
                "trigger": {
                    "value": ""
                },
                "weapon": {
                    "value": ""
                }
            },
            "effects": [],
            "flags": {
                "core": {
                    "sourceId": "Compendium.pf2e.bestiary-family-ability-glossary.r34QDwKiWZoVymJa"
                }
            },
            "img": "systems/pf2e/icons/actions/Passive.webp",
            "name": "Golem Antimagic",
            "sort": 400000,
            "type": "action"
        },
        {
            "_id": "CGd3B4KwGynCutU4",
            "data": {
                "actionCategory": {
                    "value": "defensive"
                },
                "actionType": {
                    "value": "passive"
                },
                "actions": {
                    "value": null
                },
                "description": {
                    "value": "<p>A wood golem targeted by <em>@Compendium[pf2e.spells-srd.Shape Wood]{Shape Wood}</em> takes [[/r 2d8 #damage]]{2d8 damage} per spell level, with a basic Fortitude save against the caster's spell DC.</p>\n<p data-visibility=\"gm\">On a critical failure, the golem is also @Compendium[pf2e.conditionitems.Immobilized]{Immobilized} for [[/br 1d4 #rounds]]{1d4 rounds}.</p>"
                },
                "requirements": {
                    "value": ""
                },
                "rules": [],
                "slug": null,
                "source": {
                    "value": ""
                },
                "traits": {
                    "custom": "",
                    "rarity": {
                        "value": "common"
                    },
                    "value": []
                },
                "trigger": {
                    "value": ""
                },
                "weapon": {
                    "value": ""
                }
            },
            "effects": [],
            "flags": {},
            "img": "systems/pf2e/icons/actions/Passive.webp",
            "name": "Vulnerable to Shape Wood",
            "sort": 500000,
            "type": "action"
        },
        {
            "_id": "CquGR1meZf8Szzmo",
            "data": {
                "actionCategory": {
                    "value": "defensive"
                },
                "actionType": {
                    "value": "reaction"
                },
                "actions": {
                    "value": null
                },
                "description": {
                    "value": "<p data-visibility=\"gm\"><strong>Trigger</strong> The wood golem takes physical damage;</p>\n<p><strong>Effect</strong> A jagged, sizable splinter of wood lances out at the golem's attacker. The golem makes a splinter Strike against an adjacent creature without triggering reactions.</p>"
                },
                "requirements": {
                    "value": ""
                },
                "rules": [],
                "slug": null,
                "source": {
                    "value": ""
                },
                "traits": {
                    "custom": "",
                    "rarity": {
                        "value": "common"
                    },
                    "value": [
                        "arcane",
                        "transmutation"
                    ]
                },
                "trigger": {
                    "value": ""
                },
                "weapon": {
                    "value": ""
                }
            },
            "effects": [],
            "flags": {},
            "img": "systems/pf2e/icons/actions/Reaction.webp",
            "name": "Splinter",
            "sort": 600000,
            "type": "action"
        },
        {
            "_id": "D1R03gCQbWQLLgtL",
            "data": {
                "actionCategory": {
                    "value": "offensive"
                },
                "actionType": {
                    "value": "action"
                },
                "actions": {
                    "value": 2
                },
                "description": {
                    "value": "<p>The wood golem makes up to four splinter Strikes, each against a different target.</p>\n<p data-visibility=\"gm\">These attacks count toward the wood golem's multiple attack penalty, but the multiple attack penalty doesn't increase until after the wood golem makes all of its attacks.</p>"
                },
                "requirements": {
                    "value": ""
                },
                "rules": [],
                "slug": null,
                "source": {
                    "value": ""
                },
                "traits": {
                    "custom": "",
                    "rarity": {
                        "value": "common"
                    },
                    "value": [
                        "arcane",
                        "evocation"
                    ]
                },
                "trigger": {
                    "value": ""
                },
                "weapon": {
                    "value": ""
                }
            },
            "effects": [],
            "flags": {},
            "img": "systems/pf2e/icons/actions/TwoActions.webp",
            "name": "Splinter Volley",
            "sort": 700000,
            "type": "action"
        },
        {
            "_id": "4etq0MEDYFuMrqiC",
            "data": {
                "description": {
                    "value": ""
                },
                "item": {
                    "value": 0
                },
                "mod": {
                    "value": 17
                },
                "proficient": {
                    "value": 0
                },
                "rules": [],
                "slug": null,
                "source": {
                    "value": ""
                },
                "traits": {
                    "custom": "",
                    "rarity": {
                        "value": "common"
                    },
                    "value": []
                }
            },
            "effects": [],
            "flags": {},
            "img": "systems/pf2e/icons/default-icons/lore.svg",
            "name": "Athletics",
            "sort": 800000,
            "type": "lore"
        }
    ],
    "name": "Wood Golem",
    "token": {
        "disposition": -1,
        "height": 1,
        "img": "systems/pf2e/icons/default-icons/npc.svg",
        "name": "Wood Golem",
        "width": 1
    },
    "type": "npc"
}
