{
    "_id": "KG7amdeXWc7MjGXe",
    "data": {
        "ability": {
            "value": ""
        },
        "area": {
            "areaType": "",
            "value": null
        },
        "areasize": {
            "value": ""
        },
        "category": {
            "value": "focus"
        },
        "components": {
            "material": true,
            "somatic": true,
            "verbal": true
        },
        "cost": {
            "value": ""
        },
        "damage": {
            "value": {
                "0": {
                    "type": {
                        "categories": [],
                        "value": "fire"
                    },
                    "value": "4d6"
                }
            }
        },
        "description": {
            "value": "<p>Lines of burning starlight form a constellation around you. Draw five lines, one at a time; each line must anchor at you or a creature or object already connected to a previous line, and it must end at a creature or object within 30 feet of its anchor (possibly allowing the <em>asterism</em> to extend to its full 150-foot range). A creature that begins its turn in one of these lines or enters one of these lines on its turn takes 4d6 fire damage (basic Reflex save). A creature can take this damage only once per turn, even if it moves through several lines. Targets that are part of the <em>asterism</em> do not take damage from it. If the distance between two targets (or you and a target) ever exceeds 30 feet, the line of starlight between the two breaks, and any lines that now no longer have a direct path back to you also break. You can Dismiss the spell.</p>\n<hr />\n<p><strong>Heightened (+1)</strong> The damage increases by 1d6.</p>"
        },
        "duration": {
            "value": "1 minute"
        },
        "hasCounteractCheck": {
            "value": false
        },
        "level": {
            "value": 4
        },
        "location": {
            "value": ""
        },
        "materials": {
            "value": ""
        },
        "prepared": {
            "value": ""
        },
        "primarycheck": {
            "value": ""
        },
        "range": {
            "value": "150 feet"
        },
        "rules": [],
        "save": {
            "basic": "basic",
            "value": "reflex"
        },
        "scaling": {
            "damage": {
                "0": "1d6"
            },
            "interval": 1
        },
        "school": {
            "value": "evocation"
        },
        "secondarycasters": {
            "value": ""
        },
        "secondarycheck": {
            "value": ""
        },
        "source": {
            "value": ""
        },
        "spellType": {
            "value": "save"
        },
        "sustained": {
            "value": false
        },
        "target": {
            "value": ""
        },
        "time": {
            "value": "3"
        },
        "traditions": {
            "custom": "",
            "value": []
        },
        "traits": {
            "custom": "",
            "rarity": {
                "value": "common"
            },
            "value": [
                "cleric",
                "light"
            ]
        }
    },
    "effects": [],
    "flags": {},
    "img": "systems/pf2e/icons/spells/asterism.webp",
    "name": "Asterism",
    "type": "spell"
}
