{
    "_id": "TSyFZNAbqfkRrcq0",
    "data": {
        "ability": {
            "value": ""
        },
        "area": {
            "areaType": "",
            "value": ""
        },
        "autoHeightenLevel": {
            "value": null
        },
        "category": {
            "value": "spell"
        },
        "components": {
            "focus": false,
            "material": false,
            "somatic": false,
            "verbal": false
        },
        "cost": {
            "value": ""
        },
        "damage": {
            "applyMod": false,
            "value": {
                "0": {
                    "applyMod": false,
                    "type": {
                        "categories": [],
                        "subtype": "",
                        "value": "sonic"
                    },
                    "value": "2d4"
                }
            }
        },
        "description": {
            "value": "<p>You unleash a dangerous consonance of reverberating sound, focusing on a single target or spreading out to damage many foes. The number of actions you spend Casting this Spell determines its targets, range, area, and other parameters.</p>\n<hr />\n<p><span class=\"pf2-icon\">1</span> (verbal) The spell deals [[/r 1d4 #sonic]]{1d4 sonic damage} to a single enemy, with a basic Fortitude save.</p>\n<p><span class=\"pf2-icon\">2</span> (somatic, verbal) The spell deals [[/r 2d4 #sonic]]{2d4 sonic damage} to all creatures in a 10-foot burst, with a basic Fortitude save.</p>\n<p><span class=\"pf2-icon\">3</span> (material, somatic, verbal) The spell deals [[/r 2d4 #sonic]]{2d4 sonic damage} sonic damage to all creatures in a 30-foot emanation, with a basic Fortitude save.</p>\n<hr />\n<p><strong>Heightened (+1)</strong> The damage increases by 1d4 for the 1-action version, or 2d4 for the other versions</p>"
        },
        "duration": {
            "value": ""
        },
        "hasCounteractCheck": {
            "value": false
        },
        "level": {
            "value": 1
        },
        "location": {
            "value": ""
        },
        "materials": {
            "value": ""
        },
        "prepared": {
            "value": ""
        },
        "range": {
            "value": "30 feet"
        },
        "rules": [],
        "save": {
            "basic": "basic",
            "value": "fortitude"
        },
        "scaling": {
            "damage": {
                "0": "2d4"
            },
            "interval": 1
        },
        "school": {
            "value": "evocation"
        },
        "source": {
            "value": ""
        },
        "spellType": {
            "value": "save"
        },
        "sustained": {
            "value": false
        },
        "target": {
            "value": "varies"
        },
        "time": {
            "value": "1 to 3"
        },
        "traditions": {
            "custom": "",
            "value": [
                "divine",
                "occult"
            ]
        },
        "traits": {
            "custom": "",
            "rarity": {
                "value": "common"
            },
            "value": [
                "sonic"
            ]
        }
    },
    "effects": [],
    "flags": {},
    "img": "systems/pf2e/icons/spells/concordant-choir.webp",
    "name": "Concordant Choir",
    "type": "spell"
}
