{
    "_id": "gWmLT5SkA0qH2mNE",
    "data": {
        "ability": {
            "value": ""
        },
        "area": {
            "areaType": "",
            "value": ""
        },
        "autoHeightenLevel": {
            "value": null
        },
        "category": {
            "value": "spell"
        },
        "components": {
            "focus": false,
            "material": false,
            "somatic": true,
            "verbal": true
        },
        "cost": {
            "value": ""
        },
        "damage": {
            "value": {}
        },
        "description": {
            "value": "<p>You envenom your companion or eidolon's attacks, which drip with highly toxic venom for the spell's duration. The first time each round the target hits a creature with an unarmed Strike that deals piercing or slashing damage, that Strike deals an additional 1d8 poison damage. A creature that is damaged by this poison must attempt a Fortitude save. On a failure, it's also @Compendium[pf2e.conditionitems.Clumsy]{Clumsy 1} for 1 round. This spell can't target familiars.</p>\n<p>@Compendium[pf2e.spell-effects.Spell Effect: Envenom Companion]{Spell Effect: Envenom Companion}</p>\n<hr />\n<p><strong>Heightened (+3)</strong> The poison damage increases by 1d8 and the clumsy value imposed on a failed save increases by 1.</p>"
        },
        "duration": {
            "value": "1 minute"
        },
        "hasCounteractCheck": {
            "value": false
        },
        "level": {
            "value": 3
        },
        "location": {
            "value": ""
        },
        "materials": {
            "value": ""
        },
        "range": {
            "value": "30 feet"
        },
        "rules": [],
        "save": {
            "basic": "",
            "value": ""
        },
        "school": {
            "value": "necromancy"
        },
        "source": {
            "value": ""
        },
        "spellType": {
            "value": "utility"
        },
        "sustained": {
            "value": false
        },
        "target": {
            "value": "your companion or eidolon"
        },
        "time": {
            "value": "2"
        },
        "traditions": {
            "custom": "",
            "value": [
                "primal"
            ]
        },
        "traits": {
            "custom": "",
            "rarity": {
                "value": "common"
            },
            "value": [
                "poison"
            ]
        }
    },
    "effects": [],
    "flags": {},
    "img": "systems/pf2e/icons/spells/envenom-companion.webp",
    "name": "Envenom Companion",
    "type": "spell"
}
