{
    "_id": "CzjQtkRuRlzRvwzg",
    "data": {
        "ability": {
            "value": ""
        },
        "area": {
            "areaType": "",
            "value": ""
        },
        "autoHeightenLevel": {
            "value": null
        },
        "category": {
            "value": "spell"
        },
        "components": {
            "focus": false,
            "material": true,
            "somatic": true,
            "verbal": true
        },
        "cost": {
            "value": ""
        },
        "damage": {
            "applyMod": false,
            "value": {
                "0": {
                    "applyMod": false,
                    "type": {
                        "subtype": "",
                        "value": "healing"
                    },
                    "value": "4d8"
                }
            }
        },
        "description": {
            "value": "<p>You call forth a well of healing that you and your allies can draw from later. The well appears as a disc of shimmering light on the ground in a square you touch. At any time during the duration, if you or an ally are adjacent to the well, that character can Interact to tap into the well's power, recovering 4d8 Hit Points. When the well has been tapped five times, the spell ends. The well is made of insubstantial energy, allowing creatures to move through it and even end their turn in its space.</p>\n<p>If you use an ability that increases the amount of healing this spell grants, that increase applies only to the first time someone taps the well.</p>\n<hr />\n<p><strong>Heightened (+1)</strong> The healing increases by 3.</p>"
        },
        "duration": {
            "value": "1 minute"
        },
        "hasCounteractCheck": {
            "value": false
        },
        "level": {
            "value": 5
        },
        "location": {
            "value": ""
        },
        "materials": {
            "value": ""
        },
        "range": {
            "value": "30 feet"
        },
        "rules": [],
        "save": {
            "basic": "",
            "value": ""
        },
        "scaling": {
            "damage": {
                "0": "3"
            },
            "interval": 1
        },
        "school": {
            "value": "necromancy"
        },
        "source": {
            "value": ""
        },
        "spellType": {
            "value": "heal"
        },
        "sustained": {
            "value": false
        },
        "target": {
            "value": ""
        },
        "time": {
            "value": "3"
        },
        "traditions": {
            "custom": "",
            "value": [
                "divine",
                "primal"
            ]
        },
        "traits": {
            "custom": "",
            "rarity": {
                "value": "common"
            },
            "value": [
                "healing",
                "positive"
            ]
        }
    },
    "effects": [],
    "flags": {},
    "img": "systems/pf2e/icons/spells/healing-well.webp",
    "name": "Healing Well",
    "type": "spell"
}
