{
    "_id": "WJOQryAODgYmrL6g",
    "data": {
        "ability": {
            "value": ""
        },
        "area": {
            "value": ""
        },
        "areasize": {
            "value": ""
        },
        "category": {
            "value": "spell"
        },
        "components": {
            "material": false,
            "somatic": true,
            "verbal": true
        },
        "cost": {
            "value": ""
        },
        "damage": {
            "value": {}
        },
        "description": {
            "value": "<p>You project psychic vibrations onto the target object, imprinting it with a short message or emotional theme of your design. This imprinted sensation is revealed to a creature who casts @Compendium[pf2e.spells-srd.Object Reading]{Object Reading} on the target object, replacing any emotional events the item was present for. If the object is in the area of a @Compendium[pf2e.spells-srd.Retrocognition]{Retrocognition} spell, the imprinted messages appear as major events in the timeline, but they don't interfere with any other visions.</p>\n<p>If the object is targeted with @Compendium[pf2e.spells-srd.Read Aura]{Read Aura} of a higher spell level than <em>imprint message</em>, the caster learns that the object has been magically modified. When you @Compendium[pf2e.actionspf2e.Cast a Spell]{Cast this Spell}, any prior vibrations placed on an object by previous castings of <em>imprint message</em> fade.</p>"
        },
        "duration": {
            "value": ""
        },
        "hasCounteractCheck": {
            "value": false
        },
        "level": {
            "value": 1
        },
        "location": {
            "value": ""
        },
        "materials": {
            "value": ""
        },
        "prepared": {
            "value": false
        },
        "primarycheck": {
            "value": ""
        },
        "range": {
            "value": "touch"
        },
        "rules": [],
        "save": {
            "basic": "",
            "value": ""
        },
        "school": {
            "value": "divination"
        },
        "secondarycasters": {
            "value": ""
        },
        "secondarycheck": {
            "value": ""
        },
        "source": {
            "value": ""
        },
        "spellType": {
            "value": "attack"
        },
        "sustained": {
            "value": false
        },
        "target": {
            "value": "1 object"
        },
        "time": {
            "value": "2"
        },
        "traditions": {
            "value": [
                "occult"
            ]
        },
        "traits": {
            "custom": "",
            "rarity": {
                "value": "common"
            },
            "value": []
        }
    },
    "effects": [],
    "flags": {},
    "img": "systems/pf2e/icons/spells/imprint-message.webp",
    "name": "Imprint Message",
    "type": "spell"
}
