{
    "_id": "u3G7KX1qpFJlSeWm",
    "data": {
        "ability": {
            "value": ""
        },
        "area": {
            "areaType": "",
            "value": null
        },
        "areasize": {
            "value": ""
        },
        "category": {
            "value": "ritual"
        },
        "components": {
            "material": false,
            "somatic": false,
            "verbal": false
        },
        "cost": {
            "value": ""
        },
        "damage": {
            "value": {}
        },
        "description": {
            "value": "<p>You call upon an owb to assist you in a goal. Only caligni callers can use this ritual with relative safety. If a different type of caligni attempts this ritual, they use an outcome one degree of success worse than the result of their check. If a non-caligni attempts this ritual, the result is an automatic critical failure.</p>\n<hr />\n<p><strong>Critical Success</strong> You conjure the owb. It decides your goals closely match its own and doesn't request a favor in return.</p>\n<p><strong>Success</strong> You conjure the owb. It isn't eager to pursue the task, so it requires a favor in return.</p>\n<p><strong>Failure</strong> You don't conjure an owb.</p>\n<p><strong>Critical Failure</strong> You conjure an owb, but it deems you unworthy and siphons away some of your soul energy. All casters become @Compendium[pf2e.conditionitems.Doomed]{Doomed 2}.</p>"
        },
        "duration": {
            "value": ""
        },
        "hasCounteractCheck": {
            "value": false
        },
        "level": {
            "value": 3
        },
        "location": {
            "value": ""
        },
        "materials": {
            "value": ""
        },
        "prepared": {
            "value": ""
        },
        "primarycheck": {
            "value": "Occultism (expert)"
        },
        "range": {
            "value": ""
        },
        "rules": [],
        "save": {
            "basic": "",
            "value": ""
        },
        "school": {
            "value": "conjuration"
        },
        "secondarycasters": {
            "value": "2"
        },
        "secondarycheck": {
            "value": ""
        },
        "source": {
            "value": ""
        },
        "spellType": {
            "value": "utility"
        },
        "sustained": {
            "value": false
        },
        "target": {
            "value": ""
        },
        "time": {
            "value": "1 day"
        },
        "traditions": {
            "custom": "",
            "value": []
        },
        "traits": {
            "custom": "",
            "rarity": {
                "value": "uncommon"
            },
            "value": []
        }
    },
    "effects": [],
    "flags": {},
    "img": "systems/pf2e/icons/spells/abyssal-pact.webp",
    "name": "Owb Pact",
    "type": "spell"
}
