{
    "_id": "kJKSLfCgqxmN2FY8",
    "data": {
        "ability": {
            "value": ""
        },
        "area": {
            "areaType": "",
            "value": null
        },
        "areasize": {
            "value": ""
        },
        "category": {
            "value": "spell"
        },
        "components": {
            "material": false,
            "somatic": true,
            "verbal": true
        },
        "cost": {
            "value": ""
        },
        "damage": {
            "value": {}
        },
        "description": {
            "value": "<p>You conjure a 5-foot-wide rain cloud that follows the target wherever it goes. It stays roughly an arm's length overhead, unless it must drift lower to fit under a ceiling. The cloud rains constantly on the target, keeping it wet and dampening the ground in the wake of any movement. The rain extinguishes non-magical flames. The target gains fire resistance 2. Creatures with weakness to water take damage equal to their weakness at the end of each of their turns. Creatures can attempt a Reflex save to avoid the cloud.</p>\n<hr />\n<p><strong>Heightened (+1)</strong> The amount of fire resistance increases by 2.</p>"
        },
        "duration": {
            "value": "1 minute"
        },
        "hasCounteractCheck": {
            "value": false
        },
        "level": {
            "value": 1
        },
        "location": {
            "value": ""
        },
        "materials": {
            "value": ""
        },
        "prepared": {
            "value": ""
        },
        "primarycheck": {
            "value": ""
        },
        "range": {
            "value": "60 feet"
        },
        "rules": [],
        "save": {
            "basic": "",
            "value": "reflex"
        },
        "school": {
            "value": "evocation"
        },
        "secondarycasters": {
            "value": ""
        },
        "secondarycheck": {
            "value": ""
        },
        "source": {
            "value": "Pathfinder #151: The Show Must Go On"
        },
        "spellType": {
            "value": "save"
        },
        "sustained": {
            "value": false
        },
        "target": {
            "value": "1 creature"
        },
        "time": {
            "value": "2"
        },
        "traditions": {
            "custom": "",
            "value": [
                "arcane",
                "primal"
            ]
        },
        "traits": {
            "custom": "",
            "rarity": {
                "value": "uncommon"
            },
            "value": [
                "water"
            ]
        }
    },
    "effects": [],
    "flags": {},
    "img": "systems/pf2e/icons/spells/personal-rain-cloud.webp",
    "name": "Personal Rain Cloud",
    "type": "spell"
}
