{
    "_id": "ivKnEtI1z4UqEKIA",
    "data": {
        "ability": {
            "value": ""
        },
        "area": {
            "areaType": "",
            "value": null
        },
        "areasize": {
            "value": ""
        },
        "category": {
            "value": "focus"
        },
        "components": {
            "material": true,
            "somatic": true,
            "verbal": true
        },
        "cost": {
            "value": ""
        },
        "damage": {
            "value": {}
        },
        "description": {
            "value": "<p>You tap into the zeitgeist of the nearest settlement in range (if any). You learn the name of the settlement, and you can utter a special word to learn a brief summary of one significant event happening in the settlement. Choose one of the following words, which indicates the type of people involved and type of event you learn about.</p>\n<ul>\n<li><strong>Wardens</strong> city guards, barristers, and judges (criminal reports, busts, changes in routines, legal trials)</li>\n<li><strong>Titles</strong> nobles and politicians (high society weddings, elite soirees, political rallies)</li>\n<li><strong>Masses</strong> common folk and merchants (gathering mobs, major sales)</li>\n</ul>\n<p>When uttering your word, you can exclude events you already know about, whether you know about them from this spell or from other experiences. If you cast <em>pulse of the city</em> again within 24 hours, you can say \"echo\" instead of another word to get an update on the event you learned about the last time you Cast the Spell.</p>\n<p><em>Pulse of the city</em> reveals only publicly available or observable information. You never learn clandestine movements or other details people are specifically trying to hide. The spell is also notoriously bad at overcoming magic meant to avoid detection; it automatically fails to reveal information about events involving creatures, places, or objects affected by spells that could prevent or counteract pulse of the city (such as @Compendium[pf2e.spells-srd.Nondetection]{Nondetection}).</p>\n<hr />\n<p><strong>Heightened (5th)</strong> The range increases to 100 miles.</p>"
        },
        "duration": {
            "value": ""
        },
        "hasCounteractCheck": {
            "value": false
        },
        "level": {
            "value": 4
        },
        "location": {
            "value": ""
        },
        "materials": {
            "value": ""
        },
        "prepared": {
            "value": ""
        },
        "primarycheck": {
            "value": ""
        },
        "range": {
            "value": "25 miles"
        },
        "rules": [],
        "save": {
            "basic": "",
            "value": ""
        },
        "school": {
            "value": "divination"
        },
        "secondarycasters": {
            "value": ""
        },
        "secondarycheck": {
            "value": ""
        },
        "source": {
            "value": ""
        },
        "spellType": {
            "value": "utility"
        },
        "sustained": {
            "value": false
        },
        "target": {
            "value": ""
        },
        "time": {
            "value": "3"
        },
        "traditions": {
            "value": []
        },
        "traits": {
            "custom": "",
            "rarity": {
                "value": "uncommon"
            },
            "value": [
                "cleric",
                "scrying"
            ]
        }
    },
    "effects": [],
    "flags": {},
    "img": "systems/pf2e/icons/spells/pulse-of-the-city.webp",
    "name": "Pulse of the City",
    "type": "spell"
}
