{
    "_id": "0JWyMwVnLxX9CDYQ",
    "data": {
        "ability": {
            "value": ""
        },
        "area": {
            "areaType": "burst",
            "value": "10"
        },
        "autoHeightenLevel": {
            "value": null
        },
        "category": {
            "value": "spell"
        },
        "components": {
            "focus": false,
            "material": false,
            "somatic": true,
            "verbal": true
        },
        "cost": {
            "value": ""
        },
        "damage": {
            "applyMod": false,
            "value": {
                "0": {
                    "applyMod": false,
                    "type": {
                        "subtype": "",
                        "value": "slashing"
                    },
                    "value": "2d6"
                }
            }
        },
        "description": {
            "value": "<p>Misshapen skeletal forms erupt from a solid surface, such as a stone floor, and fill the burst. The area they fill is difficult terrain. Their grasping claws deal 2d6 slashing damage to creatures on the ground in the area when the skeletons first appear (basic Reflex save).</p>\n<p>On subsequent rounds, the first time you Sustain the Spell each round, you can move the area of skeletons up to 20 feet within the range of the spell and deal 2d6 slashing damage (basic Reflex save) to each creature in their new area.</p>\n<p>Damaging or destroying the skeletons is irrelevant, as new bones pull forth from the ground to repair and replace any that are obliterated.</p>\n<hr />\n<p><strong>Heightened (+2)</strong> The damage increases by 1d6.</p>"
        },
        "duration": {
            "value": "sustained up to 1 minute"
        },
        "hasCounteractCheck": {
            "value": false
        },
        "level": {
            "value": 3
        },
        "location": {
            "value": ""
        },
        "materials": {
            "value": ""
        },
        "range": {
            "value": "60 feet"
        },
        "rules": [],
        "save": {
            "basic": "basic",
            "value": "reflex"
        },
        "scaling": {
            "damage": {
                "0": "1d6"
            },
            "interval": 2
        },
        "school": {
            "value": "necromancy"
        },
        "source": {
            "value": ""
        },
        "spellType": {
            "value": "save"
        },
        "sustained": {
            "value": false
        },
        "target": {
            "value": ""
        },
        "time": {
            "value": "2"
        },
        "traditions": {
            "custom": "",
            "value": [
                "arcane",
                "divine",
                "occult"
            ]
        },
        "traits": {
            "custom": "",
            "rarity": {
                "value": "common"
            },
            "value": []
        }
    },
    "effects": [],
    "flags": {},
    "img": "systems/pf2e/icons/default-icons/spell.svg",
    "name": "Rouse Skeletons",
    "type": "spell"
}
