{
    "_id": "pQ3NIzZXeIIcU81C",
    "data": {
        "ability": {
            "value": ""
        },
        "area": {
            "value": ""
        },
        "areasize": {
            "value": ""
        },
        "category": {
            "value": "focus"
        },
        "components": {
            "material": false,
            "somatic": true,
            "verbal": true
        },
        "cost": {
            "value": ""
        },
        "damage": {
            "value": {}
        },
        "description": {
            "value": "<p>You draw an occluding veil of spirits around yourself, blocking yourself especially well from undead eyes. You become @Compendium[pf2e.conditionitems.Concealed]{Concealed} to all creatures, and you are @Compendium[pf2e.conditionitems.Hidden]{Hidden} from undead creatures regardless of what precise senses they have; this grants the effects of @Compendium[pf2e.spells-srd.Invisibility]{Invisibility}, but against all the undead creature's precise senses. If you physically @Compendium[pf2e.actionspf2e.Interact]{Interact} with an undead creature or use a hostile action, the spell ends.</p>\n<hr />\n<p><strong>Heightened (+1)</strong> You can target one additional willing creature within 30 feet. The spell ends if any target physically Interacts with an undead creature or uses a hostile action.</p>"
        },
        "duration": {
            "value": "1 minute"
        },
        "hasCounteractCheck": {
            "value": false
        },
        "level": {
            "value": 3
        },
        "location": {
            "value": ""
        },
        "materials": {
            "value": ""
        },
        "prepared": {
            "value": ""
        },
        "primarycheck": {
            "value": ""
        },
        "range": {
            "value": ""
        },
        "rules": [],
        "save": {
            "basic": "",
            "value": ""
        },
        "school": {
            "value": "illusion"
        },
        "secondarycasters": {
            "value": ""
        },
        "secondarycheck": {
            "value": ""
        },
        "source": {
            "value": ""
        },
        "spellType": {
            "value": "utility"
        },
        "sustained": {
            "value": false
        },
        "target": {
            "value": ""
        },
        "time": {
            "value": "2"
        },
        "traditions": {
            "value": []
        },
        "traits": {
            "custom": "",
            "rarity": {
                "value": "uncommon"
            },
            "value": [
                "sorcerer"
            ]
        }
    },
    "effects": [],
    "flags": {},
    "img": "systems/pf2e/icons/spells/spirit-veil.webp",
    "name": "Spirit Veil",
    "type": "spell"
}
