{
    "_id": "2cii5ZkBsJ4DYdd2",
    "data": {
        "actionCategory": {
            "value": ""
        },
        "actionType": {
            "value": "passive"
        },
        "actions": {
            "value": null
        },
        "description": {
            "value": "<p>Spines cover your body. You gain a spine unarmed attack that deals [[/r 1d6 #piercing]]{1d6 piercing damage}. Your spines are in the brawling group and have the finesse and unarmed traits.</p>"
        },
        "featType": {
            "value": "heritage"
        },
        "level": {
            "value": 1
        },
        "location": "",
        "prerequisites": {
            "value": []
        },
        "rules": [],
        "source": {
            "value": ""
        },
        "traits": {
            "custom": "",
            "rarity": {
                "value": "common"
            },
            "value": [
                "leshy"
            ]
        }
    },
    "effects": [],
    "flags": {},
    "img": "systems/pf2e/icons/default-icons/feat.svg",
    "name": "Cactus Leshy",
    "type": "feat"
}
