{
    "_id": "oCIO7UJqbpTkI62l",
    "data": {
        "actionCategory": {
            "value": ""
        },
        "actionType": {
            "value": "passive"
        },
        "actions": {
            "value": null
        },
        "description": {
            "value": "<p>All strix possess powerful wings. While not all strix focus on honing their flying skills, a strong flap of their wings allows strix to travel longer distances when jumping.</p>\n<p>When Leaping horizontally, you move an additional 5 feet. You don't automatically fail your checks to High Jump or Long Jump if you don't Stride at least 10 feet first. In addition, when you make a Long Jump, you can jump a distance up to 10 feet further than your Athletics check result, though still with the normal maximum of your Speed.</p>"
        },
        "featType": {
            "value": "ancestryfeature"
        },
        "level": {
            "value": 1
        },
        "location": "",
        "prerequisites": {
            "value": []
        },
        "rules": [],
        "source": {
            "value": ""
        },
        "traits": {
            "custom": "",
            "rarity": {
                "value": "common"
            },
            "value": [
                "strix"
            ]
        }
    },
    "effects": [],
    "flags": {},
    "img": "systems/pf2e/icons/default-icons/feat.svg",
    "name": "Wings",
    "type": "feat"
}
