{
    "_id": "Y69ZRmuoj0XK9AZm",
    "data": {
        "actionCategory": {
            "value": ""
        },
        "actionType": {
            "value": "passive"
        },
        "actions": {
            "value": null
        },
        "description": {
            "value": "<p><strong>[Generic]</strong></p>\n<p><strong>Effect</strong>: You sought out people with the potential to become assets and agents for the Pathfinder Society, despite the risks involved.</p>\n<p>While adventuring in Razmiran, you gain a +1 circumstance bonus to Diplomacy checks to @Compendium[pf2e.actionspf2e.Request]{Request Assistance} or @Compendium[pf2e.actionspf2e.Make an Impression]{Make an Impression}. Inform your GM of the function of this boon at the beginning of the adventure.</p>"
        },
        "featType": {
            "value": "pfsboon"
        },
        "level": {
            "value": 0
        },
        "prerequisites": {
            "value": []
        },
        "rules": [],
        "source": {
            "value": ""
        },
        "traits": {
            "custom": "",
            "rarity": {
                "value": "common"
            },
            "selected": {},
            "value": []
        }
    },
    "effects": [],
    "flags": {},
    "img": "systems/pf2e/icons/default-icons/mystery-man.webp",
    "name": "S1-18 - Light in the Dark",
    "type": "feat"
}
