{
    "_id": "eippbzuocVM6ftcj",
    "data": {
        "description": {
            "value": "<p>A disrupting weapon pulses with positive energy, dealing an extra [[/r 1d6 #positive]]{1d6 positive damage} to undead. On a critical hit, the undead is also @Compendium[pf2e.conditionitems.Enfeebled]{Enfeebled 1} until the end of your next turn.</p>"
        },
        "duration": {
            "expiry": "turn-start",
            "sustained": false,
            "unit": "unlimited",
            "value": -1
        },
        "level": {
            "value": 1
        },
        "rules": [
            {
                "key": "EffectTarget",
                "scope": "weapon"
            },
            {
                "key": "Note",
                "selector": "{item|data.target}-damage",
                "text": "<strong>Disrupting</strong>: On a critical hit, the undead is @Compendium[pf2e.conditionitems.Enfeebled]{Enfeebled 1} until the end of your next turn."
            },
            {
                "damageType": "positive",
                "diceNumber": 1,
                "dieSize": "d6",
                "key": "DamageDice",
                "selector": "{item|data.target}-damage"
            }
        ],
        "source": {
            "value": ""
        },
        "start": {
            "initiative": null,
            "value": 0
        },
        "target": null,
        "tokenIcon": {
            "show": true
        },
        "traits": {
            "custom": "",
            "rarity": {
                "value": "common"
            },
            "value": []
        }
    },
    "effects": [],
    "flags": {},
    "img": "systems/pf2e/icons/equipment/runes/weapon-property-runes/weapon-property-runes.webp",
    "name": "Effect: Blade Ally Disrupting Rune",
    "type": "effect"
}
