{
    "_id": "HyOf4CfAIhC3qWtz",
    "data": {
        "abilities": {
            "cha": {
                "mod": 4
            },
            "con": {
                "mod": 4
            },
            "dex": {
                "mod": 7
            },
            "int": {
                "mod": 5
            },
            "str": {
                "mod": 4
            },
            "wis": {
                "mod": 3
            }
        },
        "attributes": {
            "ac": {
                "details": "",
                "value": 34
            },
            "allSaves": {
                "value": ""
            },
            "hp": {
                "details": "",
                "max": 235,
                "temp": 0,
                "value": 235
            },
            "initiative": {
                "ability": "perception"
            },
            "perception": {
                "value": 21
            },
            "shield": {
                "ac": 0,
                "brokenThreshold": 0,
                "hardness": 0,
                "max": 0,
                "value": 0
            },
            "speed": {
                "otherSpeeds": [],
                "value": "30 feet"
            }
        },
        "details": {
            "alignment": {
                "value": "LE"
            },
            "creatureType": "Fey",
            "flavorText": "<p>Gimmerlings are small, shapeshifting fey who stage ambushes to sate their endless hunger and childish greed. These cruelly curious fey obsess over finding and making unusual traps and sadistic weapons, and their favorite amusement is se eing these traps sprung or the weapons wielded. When on the Material Plane, they are frequently found in urban areas, particularly slums or other parts of town where they can either go unnoticed or be easily forgotten-and have plenty of victims to choose from.<br /><br /> A typical gimmerling disguises itself as an endangered child, doing so in hopes of drawing creatures close enough to rob. The gimmerling puts itself in apparent danger using a trap, construct, or bribed ally, or even a coerced monster like a redcap.<br /><br /> Because gimmerlings sometimes trade obscure smithing or trapping techniques in exchange for gifts that sate their curiosity, their greed, or their hunger, they have at times been worshipped as minor gods of the forge. Some disciplined gimmerlings work as honored artisans, elite guards, or spies for the demigods known as the Eldest who dwell in the depths of the First World.</p>",
            "level": {
                "value": 12
            },
            "source": {
                "value": "Pathfinder Bestiary"
            }
        },
        "resources": {},
        "saves": {
            "fortitude": {
                "saveDetail": "",
                "value": 22
            },
            "reflex": {
                "saveDetail": "",
                "value": 25
            },
            "will": {
                "saveDetail": "",
                "value": 19
            }
        },
        "traits": {
            "ci": [],
            "di": {
                "custom": "",
                "value": []
            },
            "dr": [],
            "dv": [
                {
                    "label": "Cold Iron",
                    "type": "coldiron",
                    "value": "10"
                }
            ],
            "languages": {
                "custom": "",
                "selected": [],
                "value": [
                    "aklo",
                    "common",
                    "sylvan"
                ]
            },
            "rarity": {
                "value": "uncommon"
            },
            "senses": {
                "value": "hungersense (imprecise) 30 feet, low-light vision"
            },
            "size": {
                "value": "sm"
            },
            "traits": {
                "custom": "",
                "value": [
                    "fey"
                ]
            }
        }
    },
    "effects": [],
    "flags": {},
    "img": "systems/pf2e/icons/default-icons/npc.svg",
    "items": [
        {
            "_id": "acsYHwUZBiVFciHt",
            "data": {
                "baseItem": null,
                "brokenThreshold": {
                    "value": 0
                },
                "bulkCapacity": {
                    "value": ""
                },
                "collapsed": {
                    "value": false
                },
                "containerId": {
                    "value": ""
                },
                "description": {
                    "value": ""
                },
                "equipped": {
                    "value": false
                },
                "equippedBulk": {
                    "value": ""
                },
                "hardness": {
                    "value": 0
                },
                "hp": {
                    "value": 0
                },
                "identification": {
                    "misidentified": {},
                    "status": "identified",
                    "unidentified": {
                        "data": {
                            "description": {
                                "value": ""
                            }
                        },
                        "img": "",
                        "name": ""
                    }
                },
                "invested": {
                    "value": false
                },
                "level": {
                    "value": 0
                },
                "maxHp": {
                    "value": 0
                },
                "negateBulk": {
                    "value": "0"
                },
                "preciousMaterial": {
                    "value": ""
                },
                "preciousMaterialGrade": {
                    "value": ""
                },
                "price": {
                    "value": "0 gp"
                },
                "quantity": {
                    "value": 1
                },
                "rules": [],
                "size": {
                    "value": "med"
                },
                "slug": null,
                "source": {
                    "value": ""
                },
                "stackGroup": {
                    "value": ""
                },
                "traits": {
                    "custom": "",
                    "rarity": {
                        "value": "common"
                    },
                    "value": []
                },
                "usage": {
                    "value": "held-in-one-hand"
                },
                "weight": {
                    "value": 0
                }
            },
            "effects": [],
            "flags": {},
            "img": "systems/pf2e/icons/default-icons/mystery-man.svg",
            "name": "+1 striking hand crossbow",
            "sort": 100000,
            "type": "equipment"
        },
        {
            "_id": "g1KH4siW7BJpYTfM",
            "data": {
                "attack": {
                    "value": ""
                },
                "attackEffects": {
                    "value": [
                        "Disarm"
                    ]
                },
                "bonus": {
                    "value": 26
                },
                "damageRolls": {
                    "8yq53roxjimhbv5358rl": {
                        "damage": "2d8+7",
                        "damageType": "slashing"
                    }
                },
                "description": {
                    "value": ""
                },
                "rules": [],
                "slug": null,
                "source": {
                    "value": ""
                },
                "traits": {
                    "custom": "",
                    "rarity": {
                        "value": "common"
                    },
                    "value": [
                        "agile",
                        "finesse"
                    ]
                },
                "weaponType": {
                    "value": "melee"
                }
            },
            "effects": [],
            "flags": {},
            "img": "systems/pf2e/icons/default-icons/melee.svg",
            "name": "Claw",
            "sort": 200000,
            "type": "melee"
        },
        {
            "_id": "VKxXRGAQaygpB7SH",
            "data": {
                "attack": {
                    "value": ""
                },
                "attackEffects": {
                    "value": []
                },
                "bonus": {
                    "value": 26
                },
                "damageRolls": {
                    "340eleluzic3kifc95h4": {
                        "damage": "3d8+7",
                        "damageType": "piercing"
                    },
                    "a4t1i58hq6s9biv9d3sc": {
                        "damage": "2d6",
                        "damageType": "poison"
                    }
                },
                "description": {
                    "value": ""
                },
                "rules": [],
                "slug": null,
                "source": {
                    "value": ""
                },
                "traits": {
                    "custom": "",
                    "rarity": {
                        "value": "common"
                    },
                    "value": [
                        "finesse"
                    ]
                },
                "weaponType": {
                    "value": "melee"
                }
            },
            "effects": [],
            "flags": {},
            "img": "systems/pf2e/icons/default-icons/melee.svg",
            "name": "Jaws",
            "sort": 300000,
            "type": "melee"
        },
        {
            "_id": "DRnLEIRSbgIT3V0F",
            "data": {
                "attack": {
                    "value": ""
                },
                "attackEffects": {
                    "value": []
                },
                "bonus": {
                    "value": 28
                },
                "damageRolls": {
                    "lnadtn4nfqnc8awihms1": {
                        "damage": "2d6+3",
                        "damageType": "piercing"
                    },
                    "u89odg899gjsb4d4vuww": {
                        "damage": "2d6",
                        "damageType": "poison"
                    }
                },
                "description": {
                    "value": ""
                },
                "rules": [],
                "slug": null,
                "source": {
                    "value": ""
                },
                "traits": {
                    "custom": "",
                    "rarity": {
                        "value": "common"
                    },
                    "value": [
                        "range-increment-60",
                        "reload-1"
                    ]
                },
                "weaponType": {
                    "value": "ranged"
                }
            },
            "effects": [],
            "flags": {},
            "img": "systems/pf2e/icons/default-icons/melee.svg",
            "name": "Hand Crossbow",
            "sort": 400000,
            "type": "melee"
        },
        {
            "_id": "rGbtqEmUFQBjGvOd",
            "data": {
                "actionCategory": {
                    "value": "interaction"
                },
                "actionType": {
                    "value": "passive"
                },
                "actions": {
                    "value": null
                },
                "description": {
                    "value": "<p>Hungersense allows the gimmerling to sense creatures that require food to live.</p>"
                },
                "requirements": {
                    "value": ""
                },
                "rules": [],
                "slug": null,
                "source": {
                    "value": ""
                },
                "traits": {
                    "custom": "",
                    "rarity": {
                        "value": "common"
                    },
                    "value": []
                },
                "trigger": {
                    "value": ""
                },
                "weapon": {
                    "value": ""
                }
            },
            "effects": [],
            "flags": {},
            "img": "systems/pf2e/icons/actions/Passive.webp",
            "name": "Hungersense",
            "sort": 500000,
            "type": "action"
        },
        {
            "_id": "BleHEEpt3dwEMeDo",
            "data": {
                "actionCategory": {
                    "value": "defensive"
                },
                "actionType": {
                    "value": "passive"
                },
                "actions": {
                    "value": null
                },
                "description": {
                    "value": "<p>15 feet. Tangled roots, jagged divots, sharp rocks and other hazards appear on surfaces in the aura, creating difficult terrain.</p>"
                },
                "requirements": {
                    "value": ""
                },
                "rules": [],
                "slug": null,
                "source": {
                    "value": ""
                },
                "traits": {
                    "custom": "",
                    "rarity": {
                        "value": "common"
                    },
                    "value": [
                        "aura",
                        "primal",
                        "transmutation"
                    ]
                },
                "trigger": {
                    "value": ""
                },
                "weapon": {
                    "value": ""
                }
            },
            "effects": [],
            "flags": {},
            "img": "systems/pf2e/icons/default-icons/mystery-man.svg",
            "name": "Treacherous Aura",
            "sort": 600000,
            "type": "action"
        },
        {
            "_id": "4QNftOG1O0v3IrVA",
            "data": {
                "actionCategory": {
                    "value": "defensive"
                },
                "actionType": {
                    "value": "reaction"
                },
                "actions": {
                    "value": null
                },
                "description": {
                    "value": "<p><strong>Trigger</strong> A creature critically fails a melee attack to hit the gimmerling or moves into a space within the gimmerling's treacherous aura. <strong>Effect</strong> The triggering creature must attempt a <span data-pf2-check=\"reflex\" data-pf2-dc=\"32\" data-pf2-traits=\"damaging-effect\" data-pf2-label=\"Trip Up DC\" data-pf2-show-dc=\"gm\">Reflex</span> save. <br /><strong>Critical success</strong> The target is unaffected. <br /><strong>Success</strong> The target is flat-footed until the start of its next turn. <br /><strong>Failure</strong> The target takes [[/r 2d10 #bludgeoning]]{2d10 bludgeoning damage} and is flat-footed until the start of its next turn. <br /><strong>Critical failure</strong> As failure, and the target is knocked prone.</p>"
                },
                "requirements": {
                    "value": ""
                },
                "rules": [],
                "slug": null,
                "source": {
                    "value": ""
                },
                "traits": {
                    "custom": "",
                    "rarity": {
                        "value": "common"
                    },
                    "value": []
                },
                "trigger": {
                    "value": ""
                },
                "weapon": {
                    "value": ""
                }
            },
            "effects": [],
            "flags": {},
            "img": "systems/pf2e/icons/default-icons/mystery-man.svg",
            "name": "Trip Up",
            "sort": 700000,
            "type": "action"
        },
        {
            "_id": "8v4F9EuEOPj7OHht",
            "data": {
                "actionCategory": {
                    "value": "offensive"
                },
                "actionType": {
                    "value": "action"
                },
                "actions": {
                    "value": 1
                },
                "description": {
                    "value": "<p>The gimmerling changes into its natural form or that of any humanoid. In humanoid form, it loses its treacherous aura, and its equipment appears to be trinkets or toys. As a humanoid that lacks claws or fangs, it loses the matching Strike. If it loses its claw Strike, it gains a fist Strike that is identical except that it deals bludgeoning damage.<br /> The monster changes its shape indefinitely. It can use this action again to return to its natural shape or adopt a new shape. Unless otherwise noted, a monster cannot use Change Shape to appear as a specific individual. Using Change Shape counts as creating a disguise for the Impersonate use of Deception. The monster's transformation automatically defeats Perception DCs to determine whether the creature is a member of the ancestry or creature type into which it transformed, and it gains a +4 status bonus to its Deception DC to prevent others from seeing through its disguise. Change Shape abilities specify what shapes the monster can adopt. The monster doesn't gain any special abilities of the new shape, only its physical form. For example, in each shape, it replaces its normal Speeds and Strikes, and might potentially change its senses or size. Any changes are listed in its stat block.</p>"
                },
                "requirements": {
                    "value": ""
                },
                "rules": [],
                "slug": null,
                "source": {
                    "value": ""
                },
                "traits": {
                    "custom": "",
                    "rarity": {
                        "value": "common"
                    },
                    "value": [
                        "concentrate",
                        "primal",
                        "transmutation",
                        "polymorph"
                    ]
                },
                "trigger": {
                    "value": ""
                },
                "weapon": {
                    "value": ""
                }
            },
            "effects": [],
            "flags": {},
            "img": "systems/pf2e/icons/default-icons/mystery-man.svg",
            "name": "Change Shape",
            "sort": 800000,
            "type": "action"
        },
        {
            "_id": "qtXj0TB36n30L7my",
            "data": {
                "actionCategory": {
                    "value": "offensive"
                },
                "actionType": {
                    "value": "action"
                },
                "actions": {
                    "value": 2
                },
                "description": {
                    "value": "<p><strong>Requirement</strong> The gimmerling's last action was a success with a Strike that has Disarm in its damage entry. <strong>Effect</strong> The gimmerling knocks a held or carried weapon to the ground in the target's space.</p>"
                },
                "requirements": {
                    "value": ""
                },
                "rules": [],
                "slug": null,
                "source": {
                    "value": ""
                },
                "traits": {
                    "custom": "",
                    "rarity": {
                        "value": "common"
                    },
                    "value": []
                },
                "trigger": {
                    "value": ""
                },
                "weapon": {
                    "value": ""
                }
            },
            "effects": [],
            "flags": {},
            "img": "systems/pf2e/icons/default-icons/mystery-man.svg",
            "name": "Disarm",
            "sort": 900000,
            "type": "action"
        },
        {
            "_id": "26H5bNLCbtquaWLv",
            "data": {
                "actionCategory": {
                    "value": "offensive"
                },
                "actionType": {
                    "value": "passive"
                },
                "actions": {
                    "value": null
                },
                "description": {
                    "value": "<p>The gimmerling deals [[/r 2d6 #precision]]{2d6 extra precision damage} to @Compendium[pf2e.conditionitems.Flat-Footed]{Flat-Footed} creatures.<br />When the monster Strikes a creature that has the @Compendium[pf2e.conditionitems.Flat-Footed]{Flat-Footed} condition with an agile or finesse melee weapon, an agile or finesse unarmed attack, or a ranged weapon attack, it also deals the listed precision damage. For a ranged attack with a thrown weapon, that weapon must also be an agile or finesse weapon.</p>"
                },
                "requirements": {
                    "value": ""
                },
                "rules": [
                    {
                        "category": "precision",
                        "diceNumber": 2,
                        "dieSize": "d6",
                        "key": "DamageDice",
                        "predicate": {
                            "all": [
                                "target:flatFooted"
                            ],
                            "any": [
                                "finesse",
                                "agile",
                                "ranged"
                            ]
                        },
                        "selector": "damage"
                    }
                ],
                "slug": null,
                "source": {
                    "value": ""
                },
                "traits": {
                    "custom": "",
                    "rarity": {
                        "value": "common"
                    },
                    "value": [
                        "agile",
                        "finesse"
                    ]
                },
                "trigger": {
                    "value": ""
                },
                "weapon": {
                    "value": ""
                }
            },
            "effects": [],
            "flags": {},
            "img": "systems/pf2e/icons/default-icons/mystery-man.svg",
            "name": "Sneak Attack",
            "sort": 1000000,
            "type": "action"
        },
        {
            "_id": "VdlfnhKj8BudHVMB",
            "data": {
                "actionCategory": {
                    "value": "offensive"
                },
                "actionType": {
                    "value": "passive"
                },
                "actions": {
                    "value": null
                },
                "description": {
                    "value": "<p>The gimmerling ignores difficult terrain and doesn't trigger traps with its movement.</p>"
                },
                "requirements": {
                    "value": ""
                },
                "rules": [],
                "slug": null,
                "source": {
                    "value": ""
                },
                "traits": {
                    "custom": "",
                    "rarity": {
                        "value": "common"
                    },
                    "value": []
                },
                "trigger": {
                    "value": ""
                },
                "weapon": {
                    "value": ""
                }
            },
            "effects": [],
            "flags": {},
            "img": "systems/pf2e/icons/actions/Passive.webp",
            "name": "Trickster's Step",
            "sort": 1100000,
            "type": "action"
        },
        {
            "_id": "fsHrcSBisXc44I0k",
            "data": {
                "description": {
                    "value": ""
                },
                "item": {
                    "value": 0
                },
                "mod": {
                    "value": 23
                },
                "proficient": {
                    "value": 0
                },
                "rules": [],
                "slug": null,
                "source": {
                    "value": ""
                },
                "traits": {
                    "custom": "",
                    "rarity": {
                        "value": "common"
                    },
                    "value": []
                }
            },
            "effects": [],
            "flags": {},
            "img": "systems/pf2e/icons/default-icons/lore.svg",
            "name": "Crafting",
            "sort": 1200000,
            "type": "lore"
        },
        {
            "_id": "lDEX5vM49esvkRxO",
            "data": {
                "description": {
                    "value": ""
                },
                "item": {
                    "value": 0
                },
                "mod": {
                    "value": 25
                },
                "proficient": {
                    "value": 0
                },
                "rules": [],
                "slug": null,
                "source": {
                    "value": ""
                },
                "traits": {
                    "custom": "",
                    "rarity": {
                        "value": "common"
                    },
                    "value": []
                }
            },
            "effects": [],
            "flags": {},
            "img": "systems/pf2e/icons/default-icons/lore.svg",
            "name": "Deception",
            "sort": 1300000,
            "type": "lore"
        },
        {
            "_id": "odhDWmTVMsSnzqyh",
            "data": {
                "description": {
                    "value": ""
                },
                "item": {
                    "value": 0
                },
                "mod": {
                    "value": 21
                },
                "proficient": {
                    "value": 0
                },
                "rules": [],
                "slug": null,
                "source": {
                    "value": ""
                },
                "traits": {
                    "custom": "",
                    "rarity": {
                        "value": "common"
                    },
                    "value": []
                }
            },
            "effects": [],
            "flags": {},
            "img": "systems/pf2e/icons/default-icons/lore.svg",
            "name": "Nature",
            "sort": 1400000,
            "type": "lore"
        },
        {
            "_id": "rEuMDYiCjs4INn1e",
            "data": {
                "description": {
                    "value": ""
                },
                "item": {
                    "value": 0
                },
                "mod": {
                    "value": 25
                },
                "proficient": {
                    "value": 0
                },
                "rules": [],
                "slug": null,
                "source": {
                    "value": ""
                },
                "traits": {
                    "custom": "",
                    "rarity": {
                        "value": "common"
                    },
                    "value": []
                }
            },
            "effects": [],
            "flags": {},
            "img": "systems/pf2e/icons/default-icons/lore.svg",
            "name": "Stealth",
            "sort": 1500000,
            "type": "lore"
        },
        {
            "_id": "Ni92QYGczMFMR0vj",
            "data": {
                "description": {
                    "value": ""
                },
                "item": {
                    "value": 0
                },
                "mod": {
                    "value": 25
                },
                "proficient": {
                    "value": 0
                },
                "rules": [],
                "slug": null,
                "source": {
                    "value": ""
                },
                "traits": {
                    "custom": "",
                    "rarity": {
                        "value": "common"
                    },
                    "value": []
                }
            },
            "effects": [],
            "flags": {},
            "img": "systems/pf2e/icons/default-icons/lore.svg",
            "name": "Thievery",
            "sort": 1600000,
            "type": "lore"
        }
    ],
    "name": "Gimmerling",
    "token": {
        "disposition": -1,
        "height": 1,
        "img": "systems/pf2e/icons/default-icons/npc.svg",
        "name": "Gimmerling",
        "width": 1
    },
    "type": "npc"
}
