{
    "_id": "IGG9xgYFYTt0Pc29",
    "data": {
        "description": {
            "value": "<p>The monster hunter gains 9 temporary Hit Points that last until the rage ends. While raging, they deal 8 additional damage with melee attacks, gain a +10-foot status bonus to their Speed, and take a -1 penalty to AC. The monster hunter can't use concentrate actions except @Compendium[pf2e.actionspf2e.Seek]{Seek} and rage actions.</p>\n<p>The rage lasts for 1 minute, until there are no enemies the monster hunter can perceive, or until the monster hunter falls unconscious. Once the rage ends, the monster hunter can't again for 1 minute.</p>"
        },
        "duration": {
            "expiry": "turn-start",
            "sustained": false,
            "unit": "minutes",
            "value": 1
        },
        "level": {
            "value": 1
        },
        "rules": [
            {
                "key": "TempHP",
                "value": 9
            },
            {
                "key": "FlatModifier",
                "selector": "ac",
                "value": -1
            },
            {
                "key": "FlatModifier",
                "label": "Rage",
                "selector": "damage",
                "value": 8
            },
            {
                "key": "FlatModifier",
                "selector": "speed",
                "value": 10
            }
        ],
        "source": {
            "value": ""
        },
        "start": {
            "initiative": null,
            "value": 0
        },
        "target": null,
        "tokenIcon": {
            "show": true
        },
        "traits": {
            "custom": "",
            "rarity": {
                "value": "common"
            },
            "value": []
        }
    },
    "effects": [],
    "flags": {},
    "img": "systems/pf2e/icons/features/classes/rage.webp",
    "name": "Effect: Rage - Monster Hunter",
    "type": "effect"
}
